# BEGIN PLOT
Legend=1
LogY=1
Title=Rapidity $+/-$ ratio of second electron
XLabel=$|y(\mathrm{e2}|$
YLabel=$y(\mathrm{e2})_+/y(\mathrm{e2})_-$
DrawOnly=//afs/cern.ch/user/z/zhijun/genValidation/LNu_NLO_0j_v2/merged.yoda/MC_ELECTRONS:ENERGY=13600/electron_y_pmratio_2 //afs/cern.ch/user/z/zhijun/genValidation/old_v3/LNu_NLO_0j_v3/merged.yoda/MC_ELECTRONS:ENERGY=13600/electron_y_pmratio_2 //afs/cern.ch/user/z/zhijun/genValidation/LNu_NLO_0j_v3/merged.yoda/MC_ELECTRONS:ENERGY=13600/electron_y_pmratio_2
LegendOnly=//afs/cern.ch/user/z/zhijun/genValidation/LNu_NLO_0j_v2/merged.yoda/MC_ELECTRONS:ENERGY=13600/electron_y_pmratio_2 //afs/cern.ch/user/z/zhijun/genValidation/old_v3/LNu_NLO_0j_v3/merged.yoda/MC_ELECTRONS:ENERGY=13600/electron_y_pmratio_2 //afs/cern.ch/user/z/zhijun/genValidation/LNu_NLO_0j_v3/merged.yoda/MC_ELECTRONS:ENERGY=13600/electron_y_pmratio_2
RatioPlot=1
RatioPlotReference=//afs/cern.ch/user/z/zhijun/genValidation/LNu_NLO_0j_v2/merged.yoda/MC_ELECTRONS:ENERGY=13600/electron_y_pmratio_2
RatioPlotYLabel=Ratio
# END PLOT

# BEGIN HISTO1D //afs/cern.ch/user/z/zhijun/genValidation/LNu_NLO_0j_v2/merged.yoda/MC_ELECTRONS:ENERGY=13600/electron_y_pmratio_2
ErrorBars=1
ErrorBreakdown={0: {"": {up: 0.04657067575490716, dn: 0.04657067575490716}}, 1: {"": {up: 0.04459765518671278, dn: 0.04459765518671278}}, 2: {"": {up: 0.04246117752668847, dn: 0.04246117752668847}}, 3: {"": {up: 0.04218720434485579, dn: 0.04218720434485579}}, 4: {"": {up: 0.0454312164968983, dn: 0.0454312164968983}}, 5: {"": {up: 0.04845496641860589, dn: 0.04845496641860589}}, 6: {"": {up: 0.04543988925234001, dn: 0.04543988925234001}}, 7: {"": {up: 0.04167623256207423, dn: 0.04167623256207423}}, 8: {"": {up: 0.04336816226572412, dn: 0.04336816226572412}}, 9: {"": {up: 0.0471926496922922, dn: 0.0471926496922922}}, 10: {"": {up: 0.04722668785369433, dn: 0.04722668785369433}}, 11: {"": {up: 0.04491160126779216, dn: 0.04491160126779216}}, 12: {"": {up: 0.0465322359050104, dn: 0.0465322359050104}}, 13: {"": {up: 0.05288903031275471, dn: 0.05288903031275471}}, 14: {"": {up: 0.04971223515149997, dn: 0.04971223515149997}}, 15: {"": {up: 0.04567662819189895, dn: 0.04567662819189895}}, 16: {"": {up: 0.04861897669349873, dn: 0.04861897669349873}}, 17: {"": {up: 0.05388040797169771, dn: 0.05388040797169771}}, 18: {"": {up: 0.05133808942817582, dn: 0.05133808942817582}}, 19: {"": {up: 0.05546707527554098, dn: 0.05546707527554098}}, 20: {"": {up: 0.05026277966281475, dn: 0.05026277966281475}}, 21: {"": {up: 0.05372613846580975, dn: 0.05372613846580975}}, 22: {"": {up: 0.05536796550041977, dn: 0.05536796550041977}}, 23: {"": {up: 0.07196574306089459, dn: 0.07196574306089459}}, 24: {"": {up: 0.06322823075555863, dn: 0.06322823075555863}}}
LineColor=red
LineStyle=solid
Path=//afs/cern.ch/user/z/zhijun/genValidation/LNu_NLO_0j_v2/merged.yoda/MC_ELECTRONS:ENERGY=13600/electron_y_pmratio_2
Title=LNu_NLO_0j(v2_9_18)
# xlow	 xhigh	 val	 errminus	 errplus
0.000000e+00	2.000000e-01	1.057845e+00	4.657068e-02	4.657068e-02
2.000000e-01	4.000000e-01	9.798224e-01	4.459766e-02	4.459766e-02
4.000000e-01	6.000000e-01	9.687023e-01	4.246118e-02	4.246118e-02
6.000000e-01	8.000000e-01	9.360873e-01	4.218720e-02	4.218720e-02
8.000000e-01	1.000000e+00	9.706122e-01	4.543122e-02	4.543122e-02
1.000000e+00	1.200000e+00	1.074503e+00	4.845497e-02	4.845497e-02
1.200000e+00	1.400000e+00	9.917081e-01	4.543989e-02	4.543989e-02
1.400000e+00	1.600000e+00	9.258970e-01	4.167623e-02	4.167623e-02
1.600000e+00	1.800000e+00	9.485294e-01	4.336816e-02	4.336816e-02
1.800000e+00	2.000000e+00	1.034454e+00	4.719265e-02	4.719265e-02
2.000000e+00	2.200000e+00	1.010363e+00	4.722669e-02	4.722669e-02
2.200000e+00	2.400000e+00	9.491525e-01	4.491160e-02	4.491160e-02
2.400000e+00	2.600000e+00	1.000867e+00	4.653224e-02	4.653224e-02
2.600000e+00	2.800000e+00	1.107852e+00	5.288903e-02	5.288903e-02
2.800000e+00	3.000000e+00	1.005693e+00	4.971224e-02	4.971224e-02
3.000000e+00	3.200000e+00	9.052133e-01	4.567663e-02	4.567663e-02
3.200000e+00	3.400000e+00	9.560117e-01	4.861898e-02	4.861898e-02
3.400000e+00	3.600000e+00	1.061117e+00	5.388041e-02	5.388041e-02
3.600000e+00	3.800000e+00	1.014614e+00	5.133809e-02	5.133809e-02
3.800000e+00	4.000000e+00	1.026901e+00	5.546708e-02	5.546708e-02
4.000000e+00	4.200000e+00	9.508380e-01	5.026278e-02	5.026278e-02
4.200000e+00	4.400000e+00	9.361430e-01	5.372614e-02	5.372614e-02
4.400000e+00	4.600000e+00	9.312669e-01	5.536797e-02	5.536797e-02
4.600000e+00	4.800000e+00	1.109797e+00	7.196574e-02	7.196574e-02
4.800000e+00	5.000000e+00	9.739414e-01	6.322823e-02	6.322823e-02
# END HISTO1D


# BEGIN HISTO1D //afs/cern.ch/user/z/zhijun/genValidation/old_v3/LNu_NLO_0j_v3/merged.yoda/MC_ELECTRONS:ENERGY=13600/electron_y_pmratio_2
ErrorBars=1
ErrorBreakdown={0: {"": {up: 0.04394951076942136, dn: 0.04394951076942136}}, 1: {"": {up: 0.04172848615707866, dn: 0.04172848615707866}}, 2: {"": {up: 0.04578609217228689, dn: 0.04578609217228689}}, 3: {"": {up: 0.04723483487762854, dn: 0.04723483487762854}}, 4: {"": {up: 0.04654514658412217, dn: 0.04654514658412217}}, 5: {"": {up: 0.04420904908797343, dn: 0.04420904908797343}}, 6: {"": {up: 0.04895834437308533, dn: 0.04895834437308533}}, 7: {"": {up: 0.04815609832977595, dn: 0.04815609832977595}}, 8: {"": {up: 0.04101569403722639, dn: 0.04101569403722639}}, 9: {"": {up: 0.04889004115194858, dn: 0.04889004115194858}}, 10: {"": {up: 0.04196772168409647, dn: 0.04196772168409647}}, 11: {"": {up: 0.05021536232582945, dn: 0.05021536232582945}}, 12: {"": {up: 0.04868968737947686, dn: 0.04868968737947686}}, 13: {"": {up: 0.04576186583477967, dn: 0.04576186583477967}}, 14: {"": {up: 0.04720383612991694, dn: 0.04720383612991694}}, 15: {"": {up: 0.04782090969260346, dn: 0.04782090969260346}}, 16: {"": {up: 0.04947082268310825, dn: 0.04947082268310825}}, 17: {"": {up: 0.05340022122757792, dn: 0.05340022122757792}}, 18: {"": {up: 0.05029568564554524, dn: 0.05029568564554524}}, 19: {"": {up: 0.05603503144985102, dn: 0.05603503144985102}}, 20: {"": {up: 0.05604863617937382, dn: 0.05604863617937382}}, 21: {"": {up: 0.06730152159712396, dn: 0.06730152159712396}}, 22: {"": {up: 0.05407573379930217, dn: 0.05407573379930217}}, 23: {"": {up: 0.06647981793635531, dn: 0.06647981793635531}}, 24: {"": {up: 0.05771943600707612, dn: 0.05771943600707612}}}
LineColor=blue
LineStyle=solid
Path=//afs/cern.ch/user/z/zhijun/genValidation/old_v3/LNu_NLO_0j_v3/merged.yoda/MC_ELECTRONS:ENERGY=13600/electron_y_pmratio_2
Title=LNu_NLO_0j(v3_5_2)
# xlow	 xhigh	 val	 errminus	 errplus
0.000000e+00	2.000000e-01	9.709443e-01	4.394951e-02	4.394951e-02
2.000000e-01	4.000000e-01	9.523089e-01	4.172849e-02	4.172849e-02
4.000000e-01	6.000000e-01	9.898046e-01	4.578609e-02	4.578609e-02
6.000000e-01	8.000000e-01	1.042571e+00	4.723483e-02	4.723483e-02
8.000000e-01	1.000000e+00	1.006700e+00	4.654515e-02	4.654515e-02
1.000000e+00	1.200000e+00	9.837794e-01	4.420905e-02	4.420905e-02
1.200000e+00	1.400000e+00	1.069324e+00	4.895834e-02	4.895834e-02
1.400000e+00	1.600000e+00	1.037101e+00	4.815610e-02	4.815610e-02
1.600000e+00	1.800000e+00	8.982650e-01	4.101569e-02	4.101569e-02
1.800000e+00	2.000000e+00	1.021759e+00	4.889004e-02	4.889004e-02
2.000000e+00	2.200000e+00	9.000825e-01	4.196772e-02	4.196772e-02
2.200000e+00	2.400000e+00	1.042844e+00	5.021536e-02	5.021536e-02
2.400000e+00	2.600000e+00	1.023423e+00	4.868969e-02	4.868969e-02
2.600000e+00	2.800000e+00	9.701493e-01	4.576187e-02	4.576187e-02
2.800000e+00	3.000000e+00	9.465648e-01	4.720384e-02	4.720384e-02
3.000000e+00	3.200000e+00	9.639126e-01	4.782091e-02	4.782091e-02
3.200000e+00	3.400000e+00	9.738431e-01	4.947082e-02	4.947082e-02
3.400000e+00	3.600000e+00	1.016685e+00	5.340022e-02	5.340022e-02
3.600000e+00	3.800000e+00	9.423077e-01	5.029569e-02	5.029569e-02
3.800000e+00	4.000000e+00	1.018248e+00	5.603503e-02	5.603503e-02
4.000000e+00	4.200000e+00	9.810366e-01	5.604864e-02	5.604864e-02
4.200000e+00	4.400000e+00	1.139092e+00	6.730152e-02	6.730152e-02
4.400000e+00	4.600000e+00	9.184210e-01	5.407573e-02	5.407573e-02
4.600000e+00	4.800000e+00	1.121581e+00	6.647982e-02	6.647982e-02
4.800000e+00	5.000000e+00	8.736177e-01	5.771944e-02	5.771944e-02
# END HISTO1D


# BEGIN HISTO1D //afs/cern.ch/user/z/zhijun/genValidation/LNu_NLO_0j_v3/merged.yoda/MC_ELECTRONS:ENERGY=13600/electron_y_pmratio_2
ErrorBars=1
ErrorBreakdown={0: {"": {up: 0.04681616989422063, dn: 0.04681616989422063}}, 1: {"": {up: 0.05022102176005963, dn: 0.05022102176005963}}, 2: {"": {up: 0.04466338168744947, dn: 0.04466338168744947}}, 3: {"": {up: 0.04942838111547176, dn: 0.04942838111547176}}, 4: {"": {up: 0.04650577799200124, dn: 0.04650577799200124}}, 5: {"": {up: 0.04336593230561094, dn: 0.04336593230561094}}, 6: {"": {up: 0.04580364129041375, dn: 0.04580364129041375}}, 7: {"": {up: 0.04812283271720611, dn: 0.04812283271720611}}, 8: {"": {up: 0.05003752878247551, dn: 0.05003752878247551}}, 9: {"": {up: 0.04834333744969854, dn: 0.04834333744969854}}, 10: {"": {up: 0.04976674208703304, dn: 0.04976674208703304}}, 11: {"": {up: 0.04641330842643913, dn: 0.04641330842643913}}, 12: {"": {up: 0.04766988758905589, dn: 0.04766988758905589}}, 13: {"": {up: 0.04974728961431438, dn: 0.04974728961431438}}, 14: {"": {up: 0.05220886778982305, dn: 0.05220886778982305}}, 15: {"": {up: 0.05196308170009841, dn: 0.05196308170009841}}, 16: {"": {up: 0.05289438155898998, dn: 0.05289438155898998}}, 17: {"": {up: 0.05063391512189798, dn: 0.05063391512189798}}, 18: {"": {up: 0.05421204698355312, dn: 0.05421204698355312}}, 19: {"": {up: 0.05668257057400134, dn: 0.05668257057400134}}, 20: {"": {up: 0.05441581679332542, dn: 0.05441581679332542}}, 21: {"": {up: 0.05442096763457658, dn: 0.05442096763457658}}, 22: {"": {up: 0.06096058375339033, dn: 0.06096058375339033}}, 23: {"": {up: 0.06328972405334607, dn: 0.06328972405334607}}, 24: {"": {up: 0.06207805772955214, dn: 0.06207805772955214}}}
LineColor=green
LineStyle=solid
Path=//afs/cern.ch/user/z/zhijun/genValidation/LNu_NLO_0j_v3/merged.yoda/MC_ELECTRONS:ENERGY=13600/electron_y_pmratio_2
Title=LNu_NLO_0j(v3_5_6)
# xlow	 xhigh	 val	 errminus	 errplus
0.000000e+00	2.000000e-01	1.038429e+00	4.681617e-02	4.681617e-02
2.000000e-01	4.000000e-01	1.056351e+00	5.022102e-02	5.022102e-02
4.000000e-01	6.000000e-01	9.803922e-01	4.466338e-02	4.466338e-02
6.000000e-01	8.000000e-01	1.079216e+00	4.942838e-02	4.942838e-02
8.000000e-01	1.000000e+00	1.020678e+00	4.650578e-02	4.650578e-02
1.000000e+00	1.200000e+00	9.519152e-01	4.336593e-02	4.336593e-02
1.200000e+00	1.400000e+00	9.932716e-01	4.580364e-02	4.580364e-02
1.400000e+00	1.600000e+00	1.052632e+00	4.812283e-02	4.812283e-02
1.600000e+00	1.800000e+00	1.084897e+00	5.003753e-02	5.003753e-02
1.800000e+00	2.000000e+00	1.039613e+00	4.834334e-02	4.834334e-02
2.000000e+00	2.200000e+00	1.030584e+00	4.976674e-02	4.976674e-02
2.200000e+00	2.400000e+00	9.536128e-01	4.641331e-02	4.641331e-02
2.400000e+00	2.600000e+00	9.633803e-01	4.766989e-02	4.766989e-02
2.600000e+00	2.800000e+00	1.022792e+00	4.974729e-02	4.974729e-02
2.800000e+00	3.000000e+00	1.062438e+00	5.220887e-02	5.220887e-02
3.000000e+00	3.200000e+00	1.013514e+00	5.196308e-02	5.196308e-02
3.200000e+00	3.400000e+00	9.978237e-01	5.289438e-02	5.289438e-02
3.400000e+00	3.600000e+00	9.420601e-01	5.063392e-02	5.063392e-02
3.600000e+00	3.800000e+00	9.672897e-01	5.421205e-02	5.421205e-02
3.800000e+00	4.000000e+00	1.012270e+00	5.668257e-02	5.668257e-02
4.000000e+00	4.200000e+00	9.793187e-01	5.441582e-02	5.441582e-02
4.200000e+00	4.400000e+00	9.049531e-01	5.442097e-02	5.442097e-02
4.400000e+00	4.600000e+00	1.001445e+00	6.096058e-02	6.096058e-02
4.600000e+00	4.800000e+00	1.014041e+00	6.328972e-02	6.328972e-02
4.800000e+00	5.000000e+00	9.325464e-01	6.207806e-02	6.207806e-02
# END HISTO1D

