# BEGIN PLOT
Legend=1
LogY=0
Title=$A_3$ for $W^+$
XLabel=$p_\perp(W)$ [GeV]
YLabel=$A_3$
LogX=1
YMin=-0.3
YMax=0.2
DrawOnly=//afs/cern.ch/user/z/zhijun/genValidation/LNu_NLO_1j_NoMu_v2/merged.yoda/MC_WPOL:ENERGY=13600/A3_wplus //afs/cern.ch/user/z/zhijun/genValidation/old_v3/LNu_NLO_1j_NoMu_v3/merged.yoda/MC_WPOL:ENERGY=13600/A3_wplus //afs/cern.ch/user/z/zhijun/genValidation/LNu_NLO_1j_NoMu_v3/merged.yoda/MC_WPOL:ENERGY=13600/A3_wplus
LegendOnly=//afs/cern.ch/user/z/zhijun/genValidation/LNu_NLO_1j_NoMu_v2/merged.yoda/MC_WPOL:ENERGY=13600/A3_wplus //afs/cern.ch/user/z/zhijun/genValidation/old_v3/LNu_NLO_1j_NoMu_v3/merged.yoda/MC_WPOL:ENERGY=13600/A3_wplus //afs/cern.ch/user/z/zhijun/genValidation/LNu_NLO_1j_NoMu_v3/merged.yoda/MC_WPOL:ENERGY=13600/A3_wplus
RatioPlot=1
RatioPlotReference=//afs/cern.ch/user/z/zhijun/genValidation/LNu_NLO_1j_NoMu_v2/merged.yoda/MC_WPOL:ENERGY=13600/A3_wplus
RatioPlotYLabel=Ratio
# END PLOT

# BEGIN HISTO1D //afs/cern.ch/user/z/zhijun/genValidation/LNu_NLO_1j_NoMu_v2/merged.yoda/MC_WPOL:ENERGY=13600/A3_wplus
ErrorBars=1
LineColor=red
LineStyle=solid
Path=//afs/cern.ch/user/z/zhijun/genValidation/LNu_NLO_1j_NoMu_v2/merged.yoda/MC_WPOL:ENERGY=13600/A3_wplus
Title=LNu_NLO_1j(v2_9_18)
# xlow	 xhigh	 val	 errminus	 errplus
1.000000e+00	1.092258e+00	1.566488e+00	6.848737e-01	6.848737e-01
1.092258e+00	1.193027e+00	-9.409709e-01	1.796148e+00	1.796148e+00
1.193027e+00	1.303093e+00	-3.576169e-01	6.159087e-01	6.159087e-01
1.303093e+00	1.423313e+00	-1.002480e+00	1.071813e+00	1.071813e+00
1.423313e+00	1.554624e+00	-4.832511e-01	6.135393e-01	6.135393e-01
1.554624e+00	1.698050e+00	-1.135440e-01	4.978372e-01	4.978372e-01
1.698050e+00	1.854708e+00	3.595367e-01	1.440122e+00	1.440122e+00
1.854708e+00	2.025819e+00	9.901249e-01	5.928632e-01	5.928632e-01
2.025819e+00	2.212717e+00	3.084127e-01	5.292326e-01	5.292326e-01
2.212717e+00	2.416857e+00	-5.077555e-01	5.406041e-01	5.406041e-01
2.416857e+00	2.639830e+00	-2.460601e-02	4.149273e-01	4.149273e-01
2.639830e+00	2.883375e+00	-1.340866e-01	3.786518e-01	3.786518e-01
2.883375e+00	3.149388e+00	-3.338198e-01	2.899327e-01	2.899327e-01
3.149388e+00	3.439943e+00	-7.055689e-01	3.641230e-01	3.641230e-01
3.439943e+00	3.757304e+00	-5.550232e-02	2.956597e-01	2.956597e-01
3.757304e+00	4.103944e+00	-4.855275e-02	2.370126e-01	2.370126e-01
4.103944e+00	4.482564e+00	3.874803e-01	2.452466e-01	2.452466e-01
4.482564e+00	4.896115e+00	2.027750e-01	2.191814e-01	2.191814e-01
4.896115e+00	5.347819e+00	-1.345843e-01	1.808058e-01	1.808058e-01
5.347819e+00	5.841196e+00	1.422200e-01	1.618539e-01	1.618539e-01
5.841196e+00	6.380091e+00	-2.572141e-01	1.548249e-01	1.548249e-01
6.380091e+00	6.968703e+00	-5.601833e-02	1.398466e-01	1.398466e-01
6.968703e+00	7.611619e+00	7.896556e-02	1.272965e-01	1.272965e-01
7.611619e+00	8.313849e+00	5.725356e-02	1.212083e-01	1.212083e-01
8.313849e+00	9.080865e+00	-8.998948e-02	1.174141e-01	1.174141e-01
9.080865e+00	9.918644e+00	-9.684273e-02	1.013691e-01	1.013691e-01
9.918644e+00	1.083371e+01	-7.547304e-03	9.917751e-02	9.917751e-02
1.083371e+01	1.183321e+01	-3.450111e-02	9.255688e-02	9.255688e-02
1.183321e+01	1.292491e+01	-7.243949e-02	8.239503e-02	8.239503e-02
1.292491e+01	1.411733e+01	-2.382994e-03	7.793989e-02	7.793989e-02
1.411733e+01	1.541977e+01	-9.971359e-02	6.952508e-02	6.952508e-02
1.541977e+01	1.684236e+01	-3.858510e-02	6.579750e-02	6.579750e-02
1.684236e+01	1.839619e+01	-6.906964e-02	5.949536e-02	5.949536e-02
1.839619e+01	2.009338e+01	-1.321217e-01	5.414728e-02	5.414728e-02
2.009338e+01	2.194715e+01	-1.975158e-01	4.914298e-02	4.914298e-02
2.194715e+01	2.397194e+01	-1.359783e-01	4.445059e-02	4.445059e-02
2.397194e+01	2.618354e+01	-1.419503e-01	3.974943e-02	3.974943e-02
2.618354e+01	2.859917e+01	-7.448655e-02	3.330486e-02	3.330486e-02
2.859917e+01	3.123766e+01	-1.615919e-01	2.921823e-02	2.921823e-02
3.123766e+01	3.411957e+01	-6.177233e-02	2.546429e-02	2.546429e-02
3.411957e+01	3.726736e+01	-9.332308e-02	2.432499e-02	2.432499e-02
3.726736e+01	4.070556e+01	-6.398857e-02	2.399774e-02	2.399774e-02
4.070556e+01	4.446096e+01	-7.758617e-03	2.432661e-02	2.432661e-02
4.446096e+01	4.856282e+01	-3.703541e-02	2.513966e-02	2.513966e-02
4.856282e+01	5.304311e+01	-3.239821e-02	2.616522e-02	2.616522e-02
5.304311e+01	5.793675e+01	-5.151427e-02	2.801800e-02	2.801800e-02
5.793675e+01	6.328185e+01	-4.836465e-02	3.028487e-02	3.028487e-02
6.328185e+01	6.912009e+01	3.581210e-02	3.218664e-02	3.218664e-02
6.912009e+01	7.549694e+01	-3.239218e-02	3.622178e-02	3.622178e-02
7.549694e+01	8.246211e+01	4.544934e-02	4.220638e-02	4.220638e-02
8.246211e+01	9.006987e+01	5.034821e-02	4.452631e-02	4.452631e-02
9.006987e+01	9.837951e+01	2.817011e-02	5.299654e-02	5.299654e-02
9.837951e+01	1.074558e+02	-8.065106e-03	5.949825e-02	5.949825e-02
1.074558e+02	1.173694e+02	6.140132e-02	6.847013e-02	6.847013e-02
1.173694e+02	1.281976e+02	-3.318704e-02	7.981207e-02	7.981207e-02
1.281976e+02	1.400248e+02	7.685833e-02	8.709754e-02	8.709754e-02
1.400248e+02	1.529432e+02	3.840754e-02	1.023116e-01	1.023116e-01
1.529432e+02	1.670533e+02	-5.711621e-02	1.220807e-01	1.220807e-01
1.670533e+02	1.824653e+02	1.858403e-01	1.597177e-01	1.597177e-01
1.824653e+02	1.992991e+02	3.306923e-01	1.639478e-01	1.639478e-01
1.992991e+02	2.176860e+02	-3.427837e-02	2.163627e-01	2.163627e-01
2.176860e+02	2.377692e+02	9.798334e-02	2.415845e-01	2.415845e-01
2.377692e+02	2.597052e+02	-1.605849e-01	2.694262e-01	2.694262e-01
2.597052e+02	2.836650e+02	-1.253174e-01	3.023244e-01	3.023244e-01
2.836650e+02	3.098352e+02	1.173687e-01	4.784064e-01	4.784064e-01
3.098352e+02	3.384199e+02	4.375576e-01	4.658671e-01	4.658671e-01
3.384199e+02	3.696417e+02	-1.363941e+00	4.411449e-01	4.411449e-01
3.696417e+02	4.037440e+02	2.092612e-01	6.055853e-01	6.055853e-01
4.037440e+02	4.409924e+02	-7.430093e-01	7.460381e-01	7.460381e-01
4.409924e+02	4.816774e+02	7.729934e-01	1.041012e+00	1.041012e+00
4.816774e+02	5.261158e+02	2.247727e+00	1.338914e+00	1.338914e+00
5.261158e+02	5.746540e+02	1.766579e+00	1.091691e+00	1.091691e+00
5.746540e+02	6.276702e+02	-2.097220e-01	3.507350e+00	3.507350e+00
6.276702e+02	6.855776e+02	-2.763724e-01	8.052830e-01	8.052830e-01
6.855776e+02	7.488273e+02	nan	nan	nan
7.488273e+02	8.179124e+02	nan	nan	nan
8.179124e+02	8.933710e+02	-6.890696e-02	6.024447e-02	6.024447e-02
8.933710e+02	9.757913e+02	nan	nan	nan
9.757913e+02	1.065816e+03	nan	nan	nan
1.065816e+03	1.164145e+03	nan	nan	nan
1.164145e+03	1.271546e+03	nan	nan	nan
1.271546e+03	1.388856e+03	nan	nan	nan
1.388856e+03	1.516989e+03	nan	nan	nan
1.516989e+03	1.656943e+03	nan	nan	nan
1.656943e+03	1.809808e+03	nan	nan	nan
1.809808e+03	1.976777e+03	nan	nan	nan
1.976777e+03	2.159150e+03	nan	nan	nan
2.159150e+03	2.358348e+03	nan	nan	nan
2.358348e+03	2.575923e+03	nan	nan	nan
2.575923e+03	2.813572e+03	nan	nan	nan
2.813572e+03	3.073145e+03	nan	nan	nan
3.073145e+03	3.356667e+03	nan	nan	nan
3.356667e+03	3.666345e+03	nan	nan	nan
3.666345e+03	4.004593e+03	nan	nan	nan
4.004593e+03	4.374047e+03	nan	nan	nan
4.374047e+03	4.777586e+03	nan	nan	nan
4.777586e+03	5.218355e+03	nan	nan	nan
5.218355e+03	5.699788e+03	nan	nan	nan
5.699788e+03	6.225637e+03	nan	nan	nan
6.225637e+03	6.800000e+03	nan	nan	nan
# END HISTO1D


# BEGIN HISTO1D //afs/cern.ch/user/z/zhijun/genValidation/old_v3/LNu_NLO_1j_NoMu_v3/merged.yoda/MC_WPOL:ENERGY=13600/A3_wplus
ErrorBars=1
LineColor=blue
LineStyle=solid
Path=//afs/cern.ch/user/z/zhijun/genValidation/old_v3/LNu_NLO_1j_NoMu_v3/merged.yoda/MC_WPOL:ENERGY=13600/A3_wplus
Title=LNu_NLO_1j(v3_5_2)
# xlow	 xhigh	 val	 errminus	 errplus
1.000000e+00	1.092258e+00	-1.686156e-01	1.156012e+00	1.156012e+00
1.092258e+00	1.193027e+00	3.438622e-01	nan	nan
1.193027e+00	1.303093e+00	-9.721506e-02	1.955971e+00	1.955971e+00
1.303093e+00	1.423313e+00	1.554817e-01	8.626919e-01	8.626919e-01
1.423313e+00	1.554624e+00	7.557843e-01	7.072841e-01	7.072841e-01
1.554624e+00	1.698050e+00	2.315887e-02	1.224336e+00	1.224336e+00
1.698050e+00	1.854708e+00	5.227311e-01	7.750654e-01	7.750654e-01
1.854708e+00	2.025819e+00	-3.650351e-01	8.294370e-01	8.294370e-01
2.025819e+00	2.212717e+00	1.124592e+00	5.143751e-01	5.143751e-01
2.212717e+00	2.416857e+00	8.039127e-01	1.063258e+00	1.063258e+00
2.416857e+00	2.639830e+00	-2.600990e-01	4.726548e-01	4.726548e-01
2.639830e+00	2.883375e+00	2.597187e-01	6.888833e-01	6.888833e-01
2.883375e+00	3.149388e+00	-3.037031e-01	4.991157e-01	4.991157e-01
3.149388e+00	3.439943e+00	-4.227420e-01	4.204350e-01	4.204350e-01
3.439943e+00	3.757304e+00	1.046094e-01	4.024327e-01	4.024327e-01
3.757304e+00	4.103944e+00	-2.572430e-01	3.845422e-01	3.845422e-01
4.103944e+00	4.482564e+00	5.689461e-01	2.958944e-01	2.958944e-01
4.482564e+00	4.896115e+00	-1.073849e-01	2.330578e-01	2.330578e-01
4.896115e+00	5.347819e+00	-2.409441e-01	2.661595e-01	2.661595e-01
5.347819e+00	5.841196e+00	-2.901151e-01	2.157711e-01	2.157711e-01
5.841196e+00	6.380091e+00	-1.597816e-01	2.137101e-01	2.137101e-01
6.380091e+00	6.968703e+00	-6.382734e-02	1.672231e-01	1.672231e-01
6.968703e+00	7.611619e+00	-1.316776e-01	1.898489e-01	1.898489e-01
7.611619e+00	8.313849e+00	-7.486795e-02	1.408398e-01	1.408398e-01
8.313849e+00	9.080865e+00	-1.093876e-01	1.277769e-01	1.277769e-01
9.080865e+00	9.918644e+00	-2.363113e-01	1.162716e-01	1.162716e-01
9.918644e+00	1.083371e+01	-2.575173e-02	1.064034e-01	1.064034e-01
1.083371e+01	1.183321e+01	5.461640e-02	9.945348e-02	9.945348e-02
1.183321e+01	1.292491e+01	1.775960e-01	8.444373e-02	8.444373e-02
1.292491e+01	1.411733e+01	-1.163228e-01	8.102342e-02	8.102342e-02
1.411733e+01	1.541977e+01	-2.803118e-02	6.896094e-02	6.896094e-02
1.541977e+01	1.684236e+01	-5.613183e-02	6.653889e-02	6.653889e-02
1.684236e+01	1.839619e+01	-1.032624e-01	6.099329e-02	6.099329e-02
1.839619e+01	2.009338e+01	-1.448948e-01	5.575539e-02	5.575539e-02
2.009338e+01	2.194715e+01	-5.881124e-03	5.201964e-02	5.201964e-02
2.194715e+01	2.397194e+01	-1.377357e-01	4.400043e-02	4.400043e-02
2.397194e+01	2.618354e+01	-1.107154e-01	3.848801e-02	3.848801e-02
2.618354e+01	2.859917e+01	-1.162796e-01	3.302573e-02	3.302573e-02
2.859917e+01	3.123766e+01	-8.444909e-02	2.779943e-02	2.779943e-02
3.123766e+01	3.411957e+01	-1.214238e-01	2.406931e-02	2.406931e-02
3.411957e+01	3.726736e+01	-8.545027e-02	2.289149e-02	2.289149e-02
3.726736e+01	4.070556e+01	-8.652520e-02	2.255026e-02	2.255026e-02
4.070556e+01	4.446096e+01	-2.172558e-02	2.282267e-02	2.282267e-02
4.446096e+01	4.856282e+01	-4.323082e-02	2.368712e-02	2.368712e-02
4.856282e+01	5.304311e+01	8.438377e-03	2.488752e-02	2.488752e-02
5.304311e+01	5.793675e+01	-5.159994e-02	2.652242e-02	2.652242e-02
5.793675e+01	6.328185e+01	1.770511e-02	2.901922e-02	2.901922e-02
6.328185e+01	6.912009e+01	-8.703376e-03	3.131844e-02	3.131844e-02
6.912009e+01	7.549694e+01	4.560034e-02	3.381272e-02	3.381272e-02
7.549694e+01	8.246211e+01	7.607148e-02	3.648593e-02	3.648593e-02
8.246211e+01	9.006987e+01	4.175992e-02	4.079766e-02	4.079766e-02
9.006987e+01	9.837951e+01	2.042112e-01	4.561824e-02	4.561824e-02
9.837951e+01	1.074558e+02	7.931960e-02	5.111860e-02	5.111860e-02
1.074558e+02	1.173694e+02	2.975766e-02	5.868087e-02	5.868087e-02
1.173694e+02	1.281976e+02	-5.410524e-02	6.960524e-02	6.960524e-02
1.281976e+02	1.400248e+02	-7.520001e-02	8.318466e-02	8.318466e-02
1.400248e+02	1.529432e+02	-1.277055e-01	9.739925e-02	9.739925e-02
1.529432e+02	1.670533e+02	-3.504655e-02	1.098993e-01	1.098993e-01
1.670533e+02	1.824653e+02	1.512102e-01	1.239252e-01	1.239252e-01
1.824653e+02	1.992991e+02	1.523638e-01	1.699932e-01	1.699932e-01
1.992991e+02	2.176860e+02	4.048766e-04	1.708191e-01	1.708191e-01
2.176860e+02	2.377692e+02	-1.673264e-02	2.179322e-01	2.179322e-01
2.377692e+02	2.597052e+02	-4.227924e-02	3.116189e-01	3.116189e-01
2.597052e+02	2.836650e+02	-1.650580e-01	3.016742e-01	3.016742e-01
2.836650e+02	3.098352e+02	-4.563657e-01	4.442639e-01	4.442639e-01
3.098352e+02	3.384199e+02	5.220347e-01	5.052593e-01	5.052593e-01
3.384199e+02	3.696417e+02	3.568185e-01	4.705358e-01	4.705358e-01
3.696417e+02	4.037440e+02	-1.502422e+00	4.004588e-01	4.004588e-01
4.037440e+02	4.409924e+02	-1.476454e+00	8.134538e-01	8.134538e-01
4.409924e+02	4.816774e+02	7.497541e-01	5.165671e-01	5.165671e-01
4.816774e+02	5.261158e+02	2.451003e-01	7.788108e-01	7.788108e-01
5.261158e+02	5.746540e+02	8.297245e-01	3.645761e-01	3.645761e-01
5.746540e+02	6.276702e+02	nan	nan	nan
6.276702e+02	6.855776e+02	-2.501304e-01	2.766685e+00	2.766685e+00
6.855776e+02	7.488273e+02	-5.015015e-01	1.690177e+00	1.690177e+00
7.488273e+02	8.179124e+02	nan	nan	nan
8.179124e+02	8.933710e+02	nan	nan	nan
8.933710e+02	9.757913e+02	nan	nan	nan
9.757913e+02	1.065816e+03	nan	nan	nan
1.065816e+03	1.164145e+03	nan	nan	nan
1.164145e+03	1.271546e+03	nan	nan	nan
1.271546e+03	1.388856e+03	nan	nan	nan
1.388856e+03	1.516989e+03	nan	nan	nan
1.516989e+03	1.656943e+03	nan	nan	nan
1.656943e+03	1.809808e+03	nan	nan	nan
1.809808e+03	1.976777e+03	nan	nan	nan
1.976777e+03	2.159150e+03	nan	nan	nan
2.159150e+03	2.358348e+03	nan	nan	nan
2.358348e+03	2.575923e+03	nan	nan	nan
2.575923e+03	2.813572e+03	nan	nan	nan
2.813572e+03	3.073145e+03	nan	nan	nan
3.073145e+03	3.356667e+03	nan	nan	nan
3.356667e+03	3.666345e+03	nan	nan	nan
3.666345e+03	4.004593e+03	nan	nan	nan
4.004593e+03	4.374047e+03	nan	nan	nan
4.374047e+03	4.777586e+03	nan	nan	nan
4.777586e+03	5.218355e+03	nan	nan	nan
5.218355e+03	5.699788e+03	nan	nan	nan
5.699788e+03	6.225637e+03	nan	nan	nan
6.225637e+03	6.800000e+03	nan	nan	nan
# END HISTO1D


# BEGIN HISTO1D //afs/cern.ch/user/z/zhijun/genValidation/LNu_NLO_1j_NoMu_v3/merged.yoda/MC_WPOL:ENERGY=13600/A3_wplus
ErrorBars=1
LineColor=green
LineStyle=solid
Path=//afs/cern.ch/user/z/zhijun/genValidation/LNu_NLO_1j_NoMu_v3/merged.yoda/MC_WPOL:ENERGY=13600/A3_wplus
Title=LNu_NLO_1j(v3_5_6)
# xlow	 xhigh	 val	 errminus	 errplus
1.000000e+00	1.092258e+00	-3.211239e-01	1.024351e+00	1.024351e+00
1.092258e+00	1.193027e+00	1.180703e+00	8.439347e-01	8.439347e-01
1.193027e+00	1.303093e+00	-1.766630e+00	1.390860e+00	1.390860e+00
1.303093e+00	1.423313e+00	3.203154e-01	6.445102e-01	6.445102e-01
1.423313e+00	1.554624e+00	5.042370e-01	7.406444e-01	7.406444e-01
1.554624e+00	1.698050e+00	-8.163865e-01	7.253180e-01	7.253180e-01
1.698050e+00	1.854708e+00	-5.740997e-01	6.277153e-01	6.277153e-01
1.854708e+00	2.025819e+00	-1.460162e-01	5.580913e-01	5.580913e-01
2.025819e+00	2.212717e+00	-1.265632e+00	4.276663e-01	4.276663e-01
2.212717e+00	2.416857e+00	-6.465285e-01	5.780111e-01	5.780111e-01
2.416857e+00	2.639830e+00	-1.715413e+00	5.412960e-01	5.412960e-01
2.639830e+00	2.883375e+00	-5.871661e-01	5.820969e-01	5.820969e-01
2.883375e+00	3.149388e+00	-1.777153e-01	4.520860e-01	4.520860e-01
3.149388e+00	3.439943e+00	5.021720e-01	6.184782e-01	6.184782e-01
3.439943e+00	3.757304e+00	7.185457e-02	3.358906e-01	3.358906e-01
3.757304e+00	4.103944e+00	-8.371941e-02	3.018031e-01	3.018031e-01
4.103944e+00	4.482564e+00	4.375191e-01	3.061452e-01	3.061452e-01
4.482564e+00	4.896115e+00	-7.972412e-02	2.534892e-01	2.534892e-01
4.896115e+00	5.347819e+00	3.444875e-01	2.393911e-01	2.393911e-01
5.347819e+00	5.841196e+00	8.360884e-03	2.394206e-01	2.394206e-01
5.841196e+00	6.380091e+00	-1.598084e-01	1.978988e-01	1.978988e-01
6.380091e+00	6.968703e+00	-2.634999e-02	1.740474e-01	1.740474e-01
6.968703e+00	7.611619e+00	-1.253723e-01	1.645604e-01	1.645604e-01
7.611619e+00	8.313849e+00	-1.908248e-01	1.373175e-01	1.373175e-01
8.313849e+00	9.080865e+00	-9.356061e-02	1.214720e-01	1.214720e-01
9.080865e+00	9.918644e+00	-1.029370e-01	1.201511e-01	1.201511e-01
9.918644e+00	1.083371e+01	-6.680905e-02	1.033199e-01	1.033199e-01
1.083371e+01	1.183321e+01	-1.703651e-01	9.938272e-02	9.938272e-02
1.183321e+01	1.292491e+01	-1.317375e-01	8.045488e-02	8.045488e-02
1.292491e+01	1.411733e+01	-1.651018e-01	7.872010e-02	7.872010e-02
1.411733e+01	1.541977e+01	-1.723920e-01	7.004915e-02	7.004915e-02
1.541977e+01	1.684236e+01	-6.421810e-02	6.479420e-02	6.479420e-02
1.684236e+01	1.839619e+01	-6.652568e-02	5.916588e-02	5.916588e-02
1.839619e+01	2.009338e+01	-2.050670e-01	5.085009e-02	5.085009e-02
2.009338e+01	2.194715e+01	-2.289305e-02	4.862494e-02	4.862494e-02
2.194715e+01	2.397194e+01	-8.125138e-02	4.374784e-02	4.374784e-02
2.397194e+01	2.618354e+01	-8.349928e-02	3.873905e-02	3.873905e-02
2.618354e+01	2.859917e+01	-9.303145e-02	3.306622e-02	3.306622e-02
2.859917e+01	3.123766e+01	-8.709824e-02	2.706914e-02	2.706914e-02
3.123766e+01	3.411957e+01	-1.212653e-01	2.473691e-02	2.473691e-02
3.411957e+01	3.726736e+01	-7.453910e-02	2.270545e-02	2.270545e-02
3.726736e+01	4.070556e+01	-2.921830e-02	2.289156e-02	2.289156e-02
4.070556e+01	4.446096e+01	-5.444004e-02	2.356030e-02	2.356030e-02
4.446096e+01	4.856282e+01	-4.346512e-02	2.432864e-02	2.432864e-02
4.856282e+01	5.304311e+01	-1.662547e-02	2.514899e-02	2.514899e-02
5.304311e+01	5.793675e+01	5.252203e-03	2.697152e-02	2.697152e-02
5.793675e+01	6.328185e+01	-2.076107e-03	2.914239e-02	2.914239e-02
6.328185e+01	6.912009e+01	4.516208e-02	3.165366e-02	3.165366e-02
6.912009e+01	7.549694e+01	-8.135678e-04	3.572383e-02	3.572383e-02
7.549694e+01	8.246211e+01	2.984545e-02	3.909653e-02	3.909653e-02
8.246211e+01	9.006987e+01	9.355701e-02	4.277872e-02	4.277872e-02
9.006987e+01	9.837951e+01	2.873748e-02	4.825106e-02	4.825106e-02
9.837951e+01	1.074558e+02	3.769744e-02	5.492436e-02	5.492436e-02
1.074558e+02	1.173694e+02	5.870146e-02	6.143746e-02	6.143746e-02
1.173694e+02	1.281976e+02	7.203151e-02	7.840008e-02	7.840008e-02
1.281976e+02	1.400248e+02	1.386802e-01	7.938866e-02	7.938866e-02
1.400248e+02	1.529432e+02	5.527322e-02	9.412331e-02	9.412331e-02
1.529432e+02	1.670533e+02	1.536779e-01	1.046983e-01	1.046983e-01
1.670533e+02	1.824653e+02	1.849860e-01	1.297473e-01	1.297473e-01
1.824653e+02	1.992991e+02	-6.943053e-02	1.505028e-01	1.505028e-01
1.992991e+02	2.176860e+02	1.121161e-01	1.941943e-01	1.941943e-01
2.176860e+02	2.377692e+02	-1.160104e-01	2.234940e-01	2.234940e-01
2.377692e+02	2.597052e+02	7.966815e-02	3.445950e-01	3.445950e-01
2.597052e+02	2.836650e+02	-4.648761e-02	3.294150e-01	3.294150e-01
2.836650e+02	3.098352e+02	2.322895e-01	3.742763e-01	3.742763e-01
3.098352e+02	3.384199e+02	-3.582079e-01	6.579288e-01	6.579288e-01
3.384199e+02	3.696417e+02	-6.339623e-01	5.652297e-01	5.652297e-01
3.696417e+02	4.037440e+02	-1.457592e-01	6.061878e-01	6.061878e-01
4.037440e+02	4.409924e+02	-7.257693e-01	5.579163e-01	5.579163e-01
4.409924e+02	4.816774e+02	-1.063328e+00	1.337162e+00	1.337162e+00
4.816774e+02	5.261158e+02	1.543827e-01	1.099627e+00	1.099627e+00
5.261158e+02	5.746540e+02	2.165105e+00	1.497598e+01	1.497598e+01
5.746540e+02	6.276702e+02	-1.343885e+00	1.751826e+00	1.751826e+00
6.276702e+02	6.855776e+02	3.131607e-01	3.386897e-01	3.386897e-01
6.855776e+02	7.488273e+02	nan	nan	nan
7.488273e+02	8.179124e+02	nan	nan	nan
8.179124e+02	8.933710e+02	nan	nan	nan
8.933710e+02	9.757913e+02	nan	nan	nan
9.757913e+02	1.065816e+03	nan	nan	nan
1.065816e+03	1.164145e+03	nan	nan	nan
1.164145e+03	1.271546e+03	nan	nan	nan
1.271546e+03	1.388856e+03	nan	nan	nan
1.388856e+03	1.516989e+03	nan	nan	nan
1.516989e+03	1.656943e+03	nan	nan	nan
1.656943e+03	1.809808e+03	nan	nan	nan
1.809808e+03	1.976777e+03	nan	nan	nan
1.976777e+03	2.159150e+03	nan	nan	nan
2.159150e+03	2.358348e+03	nan	nan	nan
2.358348e+03	2.575923e+03	nan	nan	nan
2.575923e+03	2.813572e+03	nan	nan	nan
2.813572e+03	3.073145e+03	nan	nan	nan
3.073145e+03	3.356667e+03	nan	nan	nan
3.356667e+03	3.666345e+03	nan	nan	nan
3.666345e+03	4.004593e+03	nan	nan	nan
4.004593e+03	4.374047e+03	nan	nan	nan
4.374047e+03	4.777586e+03	nan	nan	nan
4.777586e+03	5.218355e+03	nan	nan	nan
5.218355e+03	5.699788e+03	nan	nan	nan
5.699788e+03	6.225637e+03	nan	nan	nan
6.225637e+03	6.800000e+03	nan	nan	nan
# END HISTO1D

