# BEGIN PLOT
Legend=1
LogY=1
Title=W boson rapidity
XLabel=$y_{\mathrm{W}}$
YLabel=$\mathrm{d}\sigma/\mathrm{d}y_{\mathrm{W}}$ [pb]
LegendXPos=0.35
LegendYPos=0.5
DrawOnly=//afs/cern.ch/user/z/zhijun/genValidation/LNu_LO_1j_v2/merged.yoda/MC_WINC:ENERGY=13600/W_y //afs/cern.ch/user/z/zhijun/genValidation/old_v3/LNu_LO_1j_v3/merged.yoda/MC_WINC:ENERGY=13600/W_y //afs/cern.ch/user/z/zhijun/genValidation/LNu_LO_1j_v3/merged.yoda/MC_WINC:ENERGY=13600/W_y
LegendOnly=//afs/cern.ch/user/z/zhijun/genValidation/LNu_LO_1j_v2/merged.yoda/MC_WINC:ENERGY=13600/W_y //afs/cern.ch/user/z/zhijun/genValidation/old_v3/LNu_LO_1j_v3/merged.yoda/MC_WINC:ENERGY=13600/W_y //afs/cern.ch/user/z/zhijun/genValidation/LNu_LO_1j_v3/merged.yoda/MC_WINC:ENERGY=13600/W_y
RatioPlot=1
RatioPlotReference=//afs/cern.ch/user/z/zhijun/genValidation/LNu_LO_1j_v2/merged.yoda/MC_WINC:ENERGY=13600/W_y
RatioPlotYLabel=Ratio
# END PLOT

# BEGIN HISTO1D //afs/cern.ch/user/z/zhijun/genValidation/LNu_LO_1j_v2/merged.yoda/MC_WINC:ENERGY=13600/W_y
ErrorBars=1
LineColor=red
LineStyle=solid
Path=//afs/cern.ch/user/z/zhijun/genValidation/LNu_LO_1j_v2/merged.yoda/MC_WINC:ENERGY=13600/W_y
ScaledBy=3.84269747225734967e-02
Title=LNu_LO_1j(v2_9_18)
# xlow	 xhigh	 val	 errminus	 errplus
-4.000000e+00	-3.800000e+00	1.402584e+01	1.641601e+00	1.641601e+00
-3.800000e+00	-3.600000e+00	2.843596e+01	2.337422e+00	2.337422e+00
-3.600000e+00	-3.400000e+00	5.360565e+01	3.209285e+00	3.209285e+00
-3.400000e+00	-3.200000e+00	7.512475e+01	3.799221e+00	3.799221e+00
-3.200000e+00	-3.000000e+00	1.014472e+02	4.414923e+00	4.414923e+00
-3.000000e+00	-2.800000e+00	1.183551e+02	4.768662e+00	4.768662e+00
-2.800000e+00	-2.600000e+00	1.300753e+02	4.999200e+00	4.999200e+00
-2.600000e+00	-2.400000e+00	1.462146e+02	5.300276e+00	5.300276e+00
-2.400000e+00	-2.200000e+00	1.510180e+02	5.386634e+00	5.386634e+00
-2.200000e+00	-2.000000e+00	1.475596e+02	5.324599e+00	5.324599e+00
-2.000000e+00	-1.800000e+00	1.608169e+02	5.558644e+00	5.558644e+00
-1.800000e+00	-1.600000e+00	1.575506e+02	5.501906e+00	5.501906e+00
-1.600000e+00	-1.400000e+00	1.552450e+02	5.461499e+00	5.461499e+00
-1.400000e+00	-1.200000e+00	1.627383e+02	5.591753e+00	5.591753e+00
-1.200000e+00	-1.000000e+00	1.671574e+02	5.667164e+00	5.667164e+00
-1.000000e+00	-8.000000e-01	1.706158e+02	5.725491e+00	5.725491e+00
-8.000000e-01	-6.000000e-01	1.754191e+02	5.805525e+00	5.805525e+00
-6.000000e-01	-4.000000e-01	1.685023e+02	5.689919e+00	5.689919e+00
-4.000000e-01	-2.000000e-01	1.642753e+02	5.618098e+00	5.618098e+00
-2.000000e-01	0.000000e+00	1.765720e+02	5.824571e+00	5.824571e+00
0.000000e+00	2.000000e-01	1.773405e+02	5.837234e+00	5.837234e+00
2.000000e-01	4.000000e-01	1.825281e+02	5.921995e+00	5.921995e+00
4.000000e-01	6.000000e-01	1.713843e+02	5.738371e+00	5.738371e+00
6.000000e-01	8.000000e-01	1.715764e+02	5.741587e+00	5.741587e+00
8.000000e-01	1.000000e+00	1.688866e+02	5.696402e+00	5.696402e+00
1.000000e+00	1.200000e+00	1.679259e+02	5.680178e+00	5.680178e+00
1.200000e+00	1.400000e+00	1.613933e+02	5.568597e+00	5.568597e+00
1.400000e+00	1.600000e+00	1.733056e+02	5.770446e+00	5.770446e+00
1.600000e+00	1.800000e+00	1.685023e+02	5.689919e+00	5.689919e+00
1.800000e+00	2.000000e+00	1.621619e+02	5.581841e+00	5.581841e+00
2.000000e+00	2.200000e+00	1.517865e+02	5.400324e+00	5.400324e+00
2.200000e+00	2.400000e+00	1.519787e+02	5.403739e+00	5.403739e+00
2.400000e+00	2.600000e+00	1.442933e+02	5.265337e+00	5.265337e+00
2.600000e+00	2.800000e+00	1.300753e+02	4.999200e+00	4.999200e+00
2.800000e+00	3.000000e+00	1.118225e+02	4.635191e+00	4.635191e+00
3.000000e+00	3.200000e+00	9.606745e+01	4.296266e+00	4.296266e+00
3.200000e+00	3.400000e+00	7.743035e+01	3.857081e+00	3.857081e+00
3.400000e+00	3.600000e+00	5.033935e+01	3.109975e+00	3.109975e+00
3.600000e+00	3.800000e+00	3.112585e+01	2.445477e+00	2.445477e+00
3.800000e+00	4.000000e+00	1.594719e+01	1.750432e+00	1.750432e+00
# END HISTO1D


# BEGIN HISTO1D //afs/cern.ch/user/z/zhijun/genValidation/old_v3/LNu_LO_1j_v3/merged.yoda/MC_WINC:ENERGY=13600/W_y
ErrorBars=1
LineColor=blue
LineStyle=solid
Path=//afs/cern.ch/user/z/zhijun/genValidation/old_v3/LNu_LO_1j_v3/merged.yoda/MC_WINC:ENERGY=13600/W_y
ScaledBy=3.72766293670276361e-02
Title=LNu_LO_1j(v3_5_2)
# xlow	 xhigh	 val	 errminus	 errplus
-4.000000e+00	-3.800000e+00	1.546980e+01	1.698031e+00	1.698031e+00
-3.800000e+00	-3.600000e+00	3.205790e+01	2.444392e+00	2.444392e+00
-3.600000e+00	-3.400000e+00	4.920515e+01	3.028368e+00	3.028368e+00
-3.400000e+00	-3.200000e+00	7.268945e+01	3.680772e+00	3.680772e+00
-3.200000e+00	-3.000000e+00	1.000877e+02	4.319105e+00	4.319105e+00
-3.000000e+00	-2.800000e+00	1.170486e+02	4.670748e+00	4.670748e+00
-2.800000e+00	-2.600000e+00	1.267406e+02	4.860278e+00	4.860278e+00
-2.600000e+00	-2.400000e+00	1.483610e+02	5.258515e+00	5.258515e+00
-2.400000e+00	-2.200000e+00	1.502248e+02	5.291444e+00	5.291444e+00
-2.200000e+00	-2.000000e+00	1.573074e+02	5.414744e+00	5.414744e+00
-2.000000e+00	-1.800000e+00	1.550708e+02	5.376112e+00	5.376112e+00
-1.800000e+00	-1.600000e+00	1.615942e+02	5.488026e+00	5.488026e+00
-1.600000e+00	-1.400000e+00	1.586120e+02	5.437152e+00	5.437152e+00
-1.400000e+00	-1.200000e+00	1.744547e+02	5.702228e+00	5.702228e+00
-1.200000e+00	-1.000000e+00	1.697951e+02	5.625560e+00	5.625560e+00
-1.000000e+00	-8.000000e-01	1.716589e+02	5.656353e+00	5.656353e+00
-8.000000e-01	-6.000000e-01	1.729635e+02	5.677808e+00	5.677808e+00
-6.000000e-01	-4.000000e-01	1.725908e+02	5.671686e+00	5.671686e+00
-4.000000e-01	-2.000000e-01	1.699814e+02	5.628648e+00	5.628648e+00
-2.000000e-01	0.000000e+00	1.632716e+02	5.516437e+00	5.516437e+00
0.000000e+00	2.000000e-01	1.690495e+02	5.613197e+00	5.613197e+00
2.000000e-01	4.000000e-01	1.640171e+02	5.529017e+00	5.529017e+00
4.000000e-01	6.000000e-01	1.820964e+02	5.825779e+00	5.825779e+00
6.000000e-01	8.000000e-01	1.768776e+02	5.741690e+00	5.741690e+00
8.000000e-01	1.000000e+00	1.686768e+02	5.607005e+00	5.607005e+00
1.000000e+00	1.200000e+00	1.643900e+02	5.535298e+00	5.535298e+00
1.200000e+00	1.400000e+00	1.696087e+02	5.622473e+00	5.622473e+00
1.400000e+00	1.600000e+00	1.627125e+02	5.506984e+00	5.506984e+00
1.600000e+00	1.800000e+00	1.746410e+02	5.705274e+00	5.705274e+00
1.800000e+00	2.000000e+00	1.625261e+02	5.503828e+00	5.503828e+00
2.000000e+00	2.200000e+00	1.554435e+02	5.382569e+00	5.382569e+00
2.200000e+00	2.400000e+00	1.520887e+02	5.324167e+00	5.324167e+00
2.400000e+00	2.600000e+00	1.494793e+02	5.278298e+00	5.278298e+00
2.600000e+00	2.800000e+00	1.332640e+02	4.983789e+00	4.983789e+00
2.800000e+00	3.000000e+00	1.166758e+02	4.663305e+00	4.663305e+00
3.000000e+00	3.200000e+00	9.281880e+01	4.159310e+00	4.159310e+00
3.200000e+00	3.400000e+00	7.324860e+01	3.694902e+00	3.694902e+00
3.400000e+00	3.600000e+00	4.678217e+01	2.952864e+00	2.952864e+00
3.600000e+00	3.800000e+00	2.516173e+01	2.165577e+00	2.165577e+00
3.800000e+00	4.000000e+00	1.360597e+01	1.592458e+00	1.592458e+00
# END HISTO1D


# BEGIN HISTO1D //afs/cern.ch/user/z/zhijun/genValidation/LNu_LO_1j_v3/merged.yoda/MC_WINC:ENERGY=13600/W_y
ErrorBars=1
LineColor=green
LineStyle=solid
Path=//afs/cern.ch/user/z/zhijun/genValidation/LNu_LO_1j_v3/merged.yoda/MC_WINC:ENERGY=13600/W_y
ScaledBy=3.80242913615324654e-02
Title=LNu_LO_1j(v3_5_6)
# xlow	 xhigh	 val	 errminus	 errplus
-4.000000e+00	-3.800000e+00	1.463935e+01	1.668309e+00	1.668309e+00
-3.800000e+00	-3.600000e+00	2.889846e+01	2.343975e+00	2.343975e+00
-3.600000e+00	-3.400000e+00	4.943158e+01	3.065617e+00	3.065617e+00
-3.400000e+00	-3.200000e+00	7.414735e+01	3.754598e+00	3.754598e+00
-3.200000e+00	-3.000000e+00	1.051371e+02	4.470887e+00	4.470887e+00
-3.000000e+00	-2.800000e+00	1.133124e+02	4.641456e+00	4.641456e+00
-2.800000e+00	-2.600000e+00	1.323246e+02	5.015748e+00	5.015748e+00
-2.600000e+00	-2.400000e+00	1.365072e+02	5.094404e+00	5.094404e+00
-2.400000e+00	-2.200000e+00	1.513367e+02	5.363986e+00	5.363986e+00
-2.200000e+00	-2.000000e+00	1.581810e+02	5.483940e+00	5.483940e+00
-2.000000e+00	-1.800000e+00	1.564700e+02	5.454200e+00	5.454200e+00
-1.800000e+00	-1.600000e+00	1.557095e+02	5.440928e+00	5.440928e+00
-1.600000e+00	-1.400000e+00	1.756722e+02	5.779191e+00	5.779191e+00
-1.400000e+00	-1.200000e+00	1.775735e+02	5.810381e+00	5.810381e+00
-1.200000e+00	-1.000000e+00	1.741513e+02	5.754120e+00	5.754120e+00
-1.000000e+00	-8.000000e-01	1.684476e+02	5.659108e+00	5.659108e+00
-8.000000e-01	-6.000000e-01	1.779537e+02	5.816599e+00	5.816599e+00
-6.000000e-01	-4.000000e-01	1.735809e+02	5.744689e+00	5.744689e+00
-4.000000e-01	-2.000000e-01	1.764327e+02	5.791688e+00	5.791688e+00
-2.000000e-01	0.000000e+00	1.747216e+02	5.763534e+00	5.763534e+00
0.000000e+00	2.000000e-01	1.676871e+02	5.646320e+00	5.646320e+00
2.000000e-01	4.000000e-01	1.690180e+02	5.668682e+00	5.668682e+00
4.000000e-01	6.000000e-01	1.665464e+02	5.627082e+00	5.627082e+00
6.000000e-01	8.000000e-01	1.638847e+02	5.581935e+00	5.581935e+00
8.000000e-01	1.000000e+00	1.678773e+02	5.649520e+00	5.649520e+00
1.000000e+00	1.200000e+00	1.686378e+02	5.662301e+00	5.662301e+00
1.200000e+00	1.400000e+00	1.737710e+02	5.747834e+00	5.747834e+00
1.400000e+00	1.600000e+00	1.638847e+02	5.581935e+00	5.581935e+00
1.600000e+00	1.800000e+00	1.595119e+02	5.506962e+00	5.506962e+00
1.800000e+00	2.000000e+00	1.553293e+02	5.434282e+00	5.434282e+00
2.000000e+00	2.200000e+00	1.467737e+02	5.282504e+00	5.282504e+00
2.200000e+00	2.400000e+00	1.543786e+02	5.417629e+00	5.417629e+00
2.400000e+00	2.600000e+00	1.385985e+02	5.133279e+00	5.133279e+00
2.600000e+00	2.800000e+00	1.279518e+02	4.932177e+00	4.932177e+00
2.800000e+00	3.000000e+00	1.152136e+02	4.680233e+00	4.680233e+00
3.000000e+00	3.200000e+00	9.163855e+01	4.174021e+00	4.174021e+00
3.200000e+00	3.400000e+00	7.433750e+01	3.759409e+00	3.759409e+00
3.400000e+00	3.600000e+00	5.019205e+01	3.089108e+00	3.089108e+00
3.600000e+00	3.800000e+00	2.699725e+01	2.265558e+00	2.265558e+00
3.800000e+00	4.000000e+00	1.254801e+01	1.544554e+00	1.544554e+00
# END HISTO1D

