# BEGIN PLOT
Legend=1
LogY=1
Title=Pseudorapidity of second jet
XLabel=$\eta(\mathrm{jet~2})$
YLabel=$\mathrm{d}\sigma/\mathrm{d}\eta(\mathrm{jet~2})$ [pb]
LegendYPos=0.5
LegendXPos=0.30
DrawOnly=//afs/cern.ch/user/z/zhijun/genValidation/LNu_LO_2j_v2/merged.yoda/MC_JETS:ENERGY=13600/jet_eta_2 //afs/cern.ch/user/z/zhijun/genValidation/old_v3/LNu_LO_2j_v3/merged.yoda/MC_JETS:ENERGY=13600/jet_eta_2 //afs/cern.ch/user/z/zhijun/genValidation/LNu_LO_2j_v3/merged.yoda/MC_JETS:ENERGY=13600/jet_eta_2
LegendOnly=//afs/cern.ch/user/z/zhijun/genValidation/LNu_LO_2j_v2/merged.yoda/MC_JETS:ENERGY=13600/jet_eta_2 //afs/cern.ch/user/z/zhijun/genValidation/old_v3/LNu_LO_2j_v3/merged.yoda/MC_JETS:ENERGY=13600/jet_eta_2 //afs/cern.ch/user/z/zhijun/genValidation/LNu_LO_2j_v3/merged.yoda/MC_JETS:ENERGY=13600/jet_eta_2
RatioPlot=1
RatioPlotReference=//afs/cern.ch/user/z/zhijun/genValidation/LNu_LO_2j_v2/merged.yoda/MC_JETS:ENERGY=13600/jet_eta_2
RatioPlotYLabel=Ratio
# END PLOT

# BEGIN HISTO1D //afs/cern.ch/user/z/zhijun/genValidation/LNu_LO_2j_v2/merged.yoda/MC_JETS:ENERGY=13600/jet_eta_2
ErrorBars=1
LineColor=red
LineStyle=solid
Path=//afs/cern.ch/user/z/zhijun/genValidation/LNu_LO_2j_v2/merged.yoda/MC_JETS:ENERGY=13600/jet_eta_2
ScaledBy=2.59534930231143102e-02
Title=LNu_LO_2j(v2_9_18)
# xlow	 xhigh	 val	 errminus	 errplus
-5.000000e+00	-4.800000e+00	3.114419e+00	6.357281e-01	6.357281e-01
-4.800000e+00	-4.600000e+00	1.090046e+01	1.189338e+00	1.189338e+00
-4.600000e+00	-4.400000e+00	2.011396e+01	1.615592e+00	1.615592e+00
-4.400000e+00	-4.200000e+00	3.516698e+01	2.136242e+00	2.136242e+00
-4.200000e+00	-4.000000e+00	5.580000e+01	2.690915e+00	2.690915e+00
-4.000000e+00	-3.800000e+00	8.097490e+01	3.241590e+00	3.241590e+00
-3.800000e+00	-3.600000e+00	9.745535e+01	3.556197e+00	3.556197e+00
-3.600000e+00	-3.400000e+00	1.359963e+02	4.200940e+00	4.200940e+00
-3.400000e+00	-3.200000e+00	1.680489e+02	4.669826e+00	4.669826e+00
-3.200000e+00	-3.000000e+00	2.119102e+02	5.243954e+00	5.243954e+00
-3.000000e+00	-2.800000e+00	2.477261e+02	5.669813e+00	5.669813e+00
-2.800000e+00	-2.600000e+00	2.812061e+02	6.040811e+00	6.040811e+00
-2.600000e+00	-2.400000e+00	3.238996e+02	6.483180e+00	6.483180e+00
-2.400000e+00	-2.200000e+00	3.642573e+02	6.875227e+00	6.875227e+00
-2.200000e+00	-2.000000e+00	3.838521e+02	7.057728e+00	7.057728e+00
-2.000000e+00	-1.800000e+00	4.309578e+02	7.478255e+00	7.478255e+00
-1.800000e+00	-1.600000e+00	4.545755e+02	7.680436e+00	7.680436e+00
-1.600000e+00	-1.400000e+00	4.730024e+02	7.834560e+00	7.834560e+00
-1.400000e+00	-1.200000e+00	4.983071e+02	8.041396e+00	8.041396e+00
-1.200000e+00	-1.000000e+00	5.118030e+02	8.149563e+00	8.149563e+00
-1.000000e+00	-8.000000e-01	5.232225e+02	8.239979e+00	8.239979e+00
-8.000000e-01	-6.000000e-01	5.251690e+02	8.255292e+00	8.255292e+00
-6.000000e-01	-4.000000e-01	5.454125e+02	8.412896e+00	8.412896e+00
-4.000000e-01	-2.000000e-01	5.491760e+02	8.441870e+00	8.441870e+00
-2.000000e-01	0.000000e+00	5.481380e+02	8.433887e+00	8.433887e+00
0.000000e+00	2.000000e-01	5.600765e+02	8.525239e+00	8.525239e+00
2.000000e-01	4.000000e-01	5.503440e+02	8.450842e+00	8.450842e+00
4.000000e-01	6.000000e-01	5.323060e+02	8.311199e+00	8.311199e+00
6.000000e-01	8.000000e-01	5.406115e+02	8.375784e+00	8.375784e+00
8.000000e-01	1.000000e+00	5.181615e+02	8.200030e+00	8.200030e+00
1.000000e+00	1.200000e+00	5.103755e+02	8.138189e+00	8.138189e+00
1.200000e+00	1.400000e+00	4.997345e+02	8.052905e+00	8.052905e+00
1.400000e+00	1.600000e+00	4.694987e+02	7.805488e+00	7.805488e+00
1.600000e+00	1.800000e+00	4.519801e+02	7.658479e+00	7.658479e+00
1.800000e+00	2.000000e+00	4.292708e+02	7.463603e+00	7.463603e+00
2.000000e+00	2.200000e+00	3.845010e+02	7.063691e+00	7.063691e+00
2.200000e+00	2.400000e+00	3.581582e+02	6.817424e+00	6.817424e+00
2.400000e+00	2.600000e+00	3.119610e+02	6.362576e+00	6.362576e+00
2.600000e+00	2.800000e+00	2.936638e+02	6.173168e+00	6.173168e+00
2.800000e+00	3.000000e+00	2.562907e+02	5.766992e+00	5.766992e+00
3.000000e+00	3.200000e+00	2.091851e+02	5.210127e+00	5.210127e+00
3.200000e+00	3.400000e+00	1.684382e+02	4.675232e+00	4.675232e+00
3.400000e+00	3.600000e+00	1.384619e+02	4.238850e+00	4.238850e+00
3.600000e+00	3.800000e+00	1.055010e+02	3.700080e+00	3.700080e+00
3.800000e+00	4.000000e+00	7.928790e+01	3.207646e+00	3.207646e+00
4.000000e+00	4.200000e+00	5.177720e+01	2.592103e+00	2.592103e+00
4.200000e+00	4.400000e+00	3.802186e+01	2.221261e+00	2.221261e+00
4.400000e+00	4.600000e+00	1.894605e+01	1.567986e+00	1.567986e+00
4.600000e+00	4.800000e+00	9.862325e+00	1.131287e+00	1.131287e+00
4.800000e+00	5.000000e+00	4.152559e+00	7.340756e-01	7.340756e-01
# END HISTO1D


# BEGIN HISTO1D //afs/cern.ch/user/z/zhijun/genValidation/old_v3/LNu_LO_2j_v3/merged.yoda/MC_JETS:ENERGY=13600/jet_eta_2
ErrorBars=1
LineColor=blue
LineStyle=solid
Path=//afs/cern.ch/user/z/zhijun/genValidation/old_v3/LNu_LO_2j_v3/merged.yoda/MC_JETS:ENERGY=13600/jet_eta_2
ScaledBy=2.59473227962288451e-02
Title=LNu_LO_2j(v3_5_2)
# xlow	 xhigh	 val	 errminus	 errplus
-5.000000e+00	-4.800000e+00	4.929991e+00	7.997503e-01	7.997503e-01
-4.800000e+00	-4.600000e+00	1.037893e+01	1.160400e+00	1.160400e+00
-4.600000e+00	-4.400000e+00	2.010918e+01	1.615208e+00	1.615208e+00
-4.400000e+00	-4.200000e+00	3.386125e+01	2.095959e+00	2.095959e+00
-4.200000e+00	-4.000000e+00	5.578675e+01	2.690276e+00	2.690276e+00
-4.000000e+00	-3.800000e+00	7.849065e+01	3.191099e+00	3.191099e+00
-3.800000e+00	-3.600000e+00	1.048272e+02	3.687808e+00	3.687808e+00
-3.600000e+00	-3.400000e+00	1.389479e+02	4.245778e+00	4.245778e+00
-3.400000e+00	-3.200000e+00	1.743660e+02	4.756223e+00	4.756223e+00
-3.200000e+00	-3.000000e+00	2.062812e+02	5.173222e+00	5.173222e+00
-3.000000e+00	-2.800000e+00	2.459806e+02	5.649133e+00	5.649133e+00
-2.800000e+00	-2.600000e+00	2.821772e+02	6.050512e+00	6.050512e+00
-2.600000e+00	-2.400000e+00	3.305689e+02	6.548809e+00	6.548809e+00
-2.400000e+00	-2.200000e+00	3.614462e+02	6.847832e+00	6.847832e+00
-2.200000e+00	-2.000000e+00	3.943993e+02	7.153183e+00	7.153183e+00
-2.000000e+00	-1.800000e+00	4.302066e+02	7.470847e+00	7.470847e+00
-1.800000e+00	-1.600000e+00	4.604353e+02	7.728861e+00	7.728861e+00
-1.600000e+00	-1.400000e+00	4.689978e+02	7.800397e+00	7.800397e+00
-1.400000e+00	-1.200000e+00	4.866421e+02	7.945772e+00	7.945772e+00
-1.200000e+00	-1.000000e+00	5.118110e+02	8.148658e+00	8.148658e+00
-1.000000e+00	-8.000000e-01	5.146650e+02	8.171348e+00	8.171348e+00
-8.000000e-01	-6.000000e-01	5.311415e+02	8.301116e+00	8.301116e+00
-6.000000e-01	-4.000000e-01	5.397045e+02	8.367760e+00	8.367760e+00
-4.000000e-01	-2.000000e-01	5.374990e+02	8.350645e+00	8.350645e+00
-2.000000e-01	0.000000e+00	5.445045e+02	8.404890e+00	8.404890e+00
0.000000e+00	2.000000e-01	5.507320e+02	8.452816e+00	8.452816e+00
2.000000e-01	4.000000e-01	5.551430e+02	8.486600e+00	8.486600e+00
4.000000e-01	6.000000e-01	5.569595e+02	8.500471e+00	8.500471e+00
6.000000e-01	8.000000e-01	5.308820e+02	8.299087e+00	8.299087e+00
8.000000e-01	1.000000e+00	5.288065e+02	8.282847e+00	8.282847e+00
1.000000e+00	1.200000e+00	5.071405e+02	8.111392e+00	8.111392e+00
1.200000e+00	1.400000e+00	4.900152e+02	7.973262e+00	7.973262e+00
1.400000e+00	1.600000e+00	4.717223e+02	7.823021e+00	7.823021e+00
1.600000e+00	1.800000e+00	4.422721e+02	7.574884e+00	7.574884e+00
1.800000e+00	2.000000e+00	4.206061e+02	7.387016e+00	7.387016e+00
2.000000e+00	2.200000e+00	3.995887e+02	7.200090e+00	7.200090e+00
2.200000e+00	2.400000e+00	3.683223e+02	6.912660e+00	6.912660e+00
2.400000e+00	2.600000e+00	3.222657e+02	6.466040e+00	6.466040e+00
2.600000e+00	2.800000e+00	2.884045e+02	6.116913e+00	6.116913e+00
2.800000e+00	3.000000e+00	2.553216e+02	5.755395e+00	5.755395e+00
3.000000e+00	3.200000e+00	2.104328e+02	5.225019e+00	5.225019e+00
3.200000e+00	3.400000e+00	1.681387e+02	4.670518e+00	4.670518e+00
3.400000e+00	3.600000e+00	1.296069e+02	4.100580e+00	4.100580e+00
3.600000e+00	3.800000e+00	1.059948e+02	3.708289e+00	3.708289e+00
3.800000e+00	4.000000e+00	7.537695e+01	3.127164e+00	3.127164e+00
4.000000e+00	4.200000e+00	4.839175e+01	2.505630e+00	2.505630e+00
4.200000e+00	4.400000e+00	3.334231e+01	2.079836e+00	2.079836e+00
4.400000e+00	4.600000e+00	2.218496e+01	1.696527e+00	1.696527e+00
4.600000e+00	4.800000e+00	1.258445e+01	1.277758e+00	1.277758e+00
4.800000e+00	5.000000e+00	5.059730e+00	8.102049e-01	8.102049e-01
# END HISTO1D


# BEGIN HISTO1D //afs/cern.ch/user/z/zhijun/genValidation/LNu_LO_2j_v3/merged.yoda/MC_JETS:ENERGY=13600/jet_eta_2
ErrorBars=1
LineColor=green
LineStyle=solid
Path=//afs/cern.ch/user/z/zhijun/genValidation/LNu_LO_2j_v3/merged.yoda/MC_JETS:ENERGY=13600/jet_eta_2
ScaledBy=2.54802993073796995e-02
Title=LNu_LO_2j(v3_5_6)
# xlow	 xhigh	 val	 errminus	 errplus
-5.000000e+00	-4.800000e+00	5.223460e+00	8.157676e-01	8.157676e-01
-4.800000e+00	-4.600000e+00	1.261275e+01	1.267629e+00	1.267629e+00
-4.600000e+00	-4.400000e+00	2.204046e+01	1.675705e+00	1.675705e+00
-4.400000e+00	-4.200000e+00	3.694643e+01	2.169569e+00	2.169569e+00
-4.200000e+00	-4.000000e+00	5.401825e+01	2.623358e+00	2.623358e+00
-4.000000e+00	-3.800000e+00	7.695050e+01	3.131072e+00	3.131072e+00
-3.800000e+00	-3.600000e+00	1.071447e+02	3.694643e+00	3.694643e+00
-3.600000e+00	-3.400000e+00	1.308413e+02	4.082816e+00	4.082816e+00
-3.400000e+00	-3.200000e+00	1.569587e+02	4.471774e+00	4.471774e+00
-3.200000e+00	-3.000000e+00	2.079192e+02	5.146768e+00	5.146768e+00
-3.000000e+00	-2.800000e+00	2.423176e+02	5.556224e+00	5.556224e+00
-2.800000e+00	-2.600000e+00	2.830862e+02	6.005464e+00	6.005464e+00
-2.600000e+00	-2.400000e+00	3.209243e+02	6.394236e+00	6.394236e+00
-2.400000e+00	-2.200000e+00	3.415634e+02	6.596643e+00	6.596643e+00
-2.200000e+00	-2.000000e+00	3.837333e+02	6.992010e+00	6.992010e+00
-2.000000e+00	-1.800000e+00	4.144371e+02	7.266354e+00	7.266354e+00
-1.800000e+00	-1.600000e+00	4.281965e+02	7.385992e+00	7.385992e+00
-1.600000e+00	-1.400000e+00	4.620852e+02	7.672702e+00	7.672702e+00
-1.400000e+00	-1.200000e+00	4.843805e+02	7.855622e+00	7.855622e+00
-1.200000e+00	-1.000000e+00	4.949548e+02	7.940905e+00	7.940905e+00
-1.000000e+00	-8.000000e-01	5.036180e+02	8.010100e+00	8.010100e+00
-8.000000e-01	-6.000000e-01	5.294805e+02	8.213198e+00	8.213198e+00
-6.000000e-01	-4.000000e-01	5.371245e+02	8.272273e+00	8.272273e+00
-4.000000e-01	-2.000000e-01	5.466800e+02	8.345527e+00	8.345527e+00
-2.000000e-01	0.000000e+00	5.412015e+02	8.303608e+00	8.303608e+00
0.000000e+00	2.000000e-01	5.325385e+02	8.236879e+00	8.236879e+00
2.000000e-01	4.000000e-01	5.336850e+02	8.245741e+00	8.245741e+00
4.000000e-01	6.000000e-01	5.311370e+02	8.226033e+00	8.226033e+00
6.000000e-01	8.000000e-01	5.220915e+02	8.155687e+00	8.155687e+00
8.000000e-01	1.000000e+00	5.203075e+02	8.141743e+00	8.141743e+00
1.000000e+00	1.200000e+00	4.939356e+02	7.932725e+00	7.932725e+00
1.200000e+00	1.400000e+00	4.639963e+02	7.688552e+00	7.688552e+00
1.400000e+00	1.600000e+00	4.522753e+02	7.590820e+00	7.590820e+00
1.600000e+00	1.800000e+00	4.260306e+02	7.367287e+00	7.367287e+00
1.800000e+00	2.000000e+00	4.167303e+02	7.286431e+00	7.286431e+00
2.000000e+00	2.200000e+00	3.751974e+02	6.913805e+00	6.913805e+00
2.200000e+00	2.400000e+00	3.456403e+02	6.635893e+00	6.635893e+00
2.400000e+00	2.600000e+00	3.173571e+02	6.358599e+00	6.358599e+00
2.600000e+00	2.800000e+00	2.699638e+02	5.864623e+00	5.864623e+00
2.800000e+00	3.000000e+00	2.458849e+02	5.596972e+00	5.596972e+00
3.000000e+00	3.200000e+00	2.029506e+02	5.084899e+00	5.084899e+00
3.200000e+00	3.400000e+00	1.702084e+02	4.656695e+00	4.656695e+00
3.400000e+00	3.600000e+00	1.302043e+02	4.072865e+00	4.072865e+00
3.600000e+00	3.800000e+00	1.028130e+02	3.619189e+00	3.619189e+00
3.800000e+00	4.000000e+00	6.777760e+01	2.938532e+00	2.938532e+00
4.000000e+00	4.200000e+00	5.465525e+01	2.638780e+00	2.638780e+00
4.200000e+00	4.400000e+00	3.350659e+01	2.066105e+00	2.066105e+00
4.400000e+00	4.600000e+00	2.127605e+01	1.646390e+00	1.646390e+00
4.600000e+00	4.800000e+00	1.057432e+01	1.160683e+00	1.160683e+00
4.800000e+00	5.000000e+00	4.968658e+00	7.956221e-01	7.956221e-01
# END HISTO1D

