# BEGIN PLOT
Legend=1
LogY=1
Title=Rapidity of first jet
XLabel=$y(\mathrm{jet~1})$
YLabel=$\mathrm{d}\sigma/\mathrm{d}y(\mathrm{jet~1})$ [pb]
LegendYPos=0.5
LegendXPos=0.3
DrawOnly=//afs/cern.ch/user/z/zhijun/genValidation/LNu_LO_2j_v2/merged.yoda/MC_JETS:ENERGY=13600/jet_y_1 //afs/cern.ch/user/z/zhijun/genValidation/old_v3/LNu_LO_2j_v3/merged.yoda/MC_JETS:ENERGY=13600/jet_y_1 //afs/cern.ch/user/z/zhijun/genValidation/LNu_LO_2j_v3/merged.yoda/MC_JETS:ENERGY=13600/jet_y_1
LegendOnly=//afs/cern.ch/user/z/zhijun/genValidation/LNu_LO_2j_v2/merged.yoda/MC_JETS:ENERGY=13600/jet_y_1 //afs/cern.ch/user/z/zhijun/genValidation/old_v3/LNu_LO_2j_v3/merged.yoda/MC_JETS:ENERGY=13600/jet_y_1 //afs/cern.ch/user/z/zhijun/genValidation/LNu_LO_2j_v3/merged.yoda/MC_JETS:ENERGY=13600/jet_y_1
RatioPlot=1
RatioPlotReference=//afs/cern.ch/user/z/zhijun/genValidation/LNu_LO_2j_v2/merged.yoda/MC_JETS:ENERGY=13600/jet_y_1
RatioPlotYLabel=Ratio
# END PLOT

# BEGIN HISTO1D //afs/cern.ch/user/z/zhijun/genValidation/LNu_LO_2j_v2/merged.yoda/MC_JETS:ENERGY=13600/jet_y_1
ErrorBars=1
LineColor=red
LineStyle=solid
Path=//afs/cern.ch/user/z/zhijun/genValidation/LNu_LO_2j_v2/merged.yoda/MC_JETS:ENERGY=13600/jet_y_1
ScaledBy=2.59534930231143102e-02
Title=LNu_LO_2j(v2_9_18)
# xlow	 xhigh	 val	 errminus	 errplus
-5.000000e+00	-4.800000e+00	1.297674e+00	4.103608e-01	4.103608e-01
-4.800000e+00	-4.600000e+00	7.137210e+00	9.623813e-01	9.623813e-01
-4.600000e+00	-4.400000e+00	1.206838e+01	1.251432e+00	1.251432e+00
-4.400000e+00	-4.200000e+00	2.089256e+01	1.646565e+00	1.646565e+00
-4.200000e+00	-4.000000e+00	3.815163e+01	2.225048e+00	2.225048e+00
-4.000000e+00	-3.800000e+00	5.528095e+01	2.678370e+00	2.678370e+00
-3.800000e+00	-3.600000e+00	8.227255e+01	3.267461e+00	3.267461e+00
-3.600000e+00	-3.400000e+00	1.184777e+02	3.921039e+00	3.921039e+00
-3.400000e+00	-3.200000e+00	1.489731e+02	4.396801e+00	4.396801e+00
-3.200000e+00	-3.000000e+00	1.968572e+02	5.054273e+00	5.054273e+00
-3.000000e+00	-2.800000e+00	2.230702e+02	5.380267e+00	5.380267e+00
-2.800000e+00	-2.600000e+00	2.764047e+02	5.989017e+00	5.989017e+00
-2.600000e+00	-2.400000e+00	3.266247e+02	6.510396e+00	6.510396e+00
-2.400000e+00	-2.200000e+00	3.528378e+02	6.766598e+00	6.766598e+00
-2.200000e+00	-2.000000e+00	3.870963e+02	7.087489e+00	7.087489e+00
-2.000000e+00	-1.800000e+00	4.218741e+02	7.399022e+00	7.399022e+00
-1.800000e+00	-1.600000e+00	4.696285e+02	7.806568e+00	7.806568e+00
-1.600000e+00	-1.400000e+00	4.940247e+02	8.006769e+00	8.006769e+00
-1.400000e+00	-1.200000e+00	5.119325e+02	8.150595e+00	8.150595e+00
-1.200000e+00	-1.000000e+00	5.315275e+02	8.305117e+00	8.305117e+00
-1.000000e+00	-8.000000e-01	5.413900e+02	8.381814e+00	8.381814e+00
-8.000000e-01	-6.000000e-01	5.648780e+02	8.561703e+00	8.561703e+00
-6.000000e-01	-4.000000e-01	5.699385e+02	8.599971e+00	8.599971e+00
-4.000000e-01	-2.000000e-01	5.922585e+02	8.766750e+00	8.766750e+00
-2.000000e-01	0.000000e+00	5.990065e+02	8.816551e+00	8.816551e+00
0.000000e+00	2.000000e-01	5.904420e+02	8.753294e+00	8.753294e+00
2.000000e-01	4.000000e-01	5.996555e+02	8.821325e+00	8.821325e+00
4.000000e-01	6.000000e-01	5.931670e+02	8.773471e+00	8.773471e+00
6.000000e-01	8.000000e-01	5.785035e+02	8.664348e+00	8.664348e+00
8.000000e-01	1.000000e+00	5.616335e+02	8.537082e+00	8.537082e+00
1.000000e+00	1.200000e+00	5.302300e+02	8.294973e+00	8.294973e+00
1.200000e+00	1.400000e+00	5.138790e+02	8.166076e+00	8.166076e+00
1.400000e+00	1.600000e+00	4.942842e+02	8.008872e+00	8.008872e+00
1.600000e+00	1.800000e+00	4.675522e+02	7.789291e+00	7.789291e+00
1.800000e+00	2.000000e+00	4.244694e+02	7.421747e+00	7.421747e+00
2.000000e+00	2.200000e+00	3.964396e+02	7.172515e+00	7.172515e+00
2.200000e+00	2.400000e+00	3.434945e+02	6.676406e+00	6.676406e+00
2.400000e+00	2.600000e+00	3.093656e+02	6.336056e+00	6.336056e+00
2.600000e+00	2.800000e+00	2.719926e+02	5.941027e+00	5.941027e+00
2.800000e+00	3.000000e+00	2.366958e+02	5.542150e+00	5.542150e+00
3.000000e+00	3.200000e+00	1.851781e+02	4.902051e+00	4.902051e+00
3.200000e+00	3.400000e+00	1.492326e+02	4.400629e+00	4.400629e+00
3.400000e+00	3.600000e+00	1.149739e+02	3.862626e+00	3.862626e+00
3.600000e+00	3.800000e+00	8.564655e+01	3.333787e+00	3.333787e+00
3.800000e+00	4.000000e+00	6.150980e+01	2.825238e+00	2.825238e+00
4.000000e+00	4.200000e+00	3.672419e+01	2.183027e+00	2.183027e+00
4.200000e+00	4.400000e+00	2.180093e+01	1.681979e+00	1.681979e+00
4.400000e+00	4.600000e+00	1.064093e+01	1.175094e+00	1.175094e+00
4.600000e+00	4.800000e+00	5.190700e+00	8.207215e-01	8.207215e-01
4.800000e+00	5.000000e+00	1.946512e+00	5.025873e-01	5.025873e-01
# END HISTO1D


# BEGIN HISTO1D //afs/cern.ch/user/z/zhijun/genValidation/old_v3/LNu_LO_2j_v3/merged.yoda/MC_JETS:ENERGY=13600/jet_y_1
ErrorBars=1
LineColor=blue
LineStyle=solid
Path=//afs/cern.ch/user/z/zhijun/genValidation/old_v3/LNu_LO_2j_v3/merged.yoda/MC_JETS:ENERGY=13600/jet_y_1
ScaledBy=2.59473227962288451e-02
Title=LNu_LO_2j(v3_5_2)
# xlow	 xhigh	 val	 errminus	 errplus
-5.000000e+00	-4.800000e+00	1.686576e+00	4.677720e-01	4.677720e-01
-4.800000e+00	-4.600000e+00	4.670518e+00	7.784197e-01	7.784197e-01
-4.600000e+00	-4.400000e+00	1.050867e+01	1.167630e+00	1.167630e+00
-4.400000e+00	-4.200000e+00	2.387153e+01	1.759833e+00	1.759833e+00
-4.200000e+00	-4.000000e+00	3.736414e+01	2.201703e+00	2.201703e+00
-4.000000e+00	-3.800000e+00	5.812200e+01	2.746007e+00	2.746007e+00
-3.800000e+00	-3.600000e+00	8.277195e+01	3.276973e+00	3.276973e+00
-3.600000e+00	-3.400000e+00	1.102761e+02	3.782440e+00	3.782440e+00
-3.400000e+00	-3.200000e+00	1.486782e+02	4.391924e+00	4.391924e+00
-3.200000e+00	-3.000000e+00	1.922696e+02	4.994438e+00	4.994438e+00
-3.000000e+00	-2.800000e+00	2.295040e+02	5.456654e+00	5.456654e+00
-2.800000e+00	-2.600000e+00	2.755606e+02	5.979155e+00	5.979155e+00
-2.600000e+00	-2.400000e+00	3.086434e+02	6.327902e+00	6.327902e+00
-2.400000e+00	-2.200000e+00	3.563865e+02	6.799733e+00	6.799733e+00
-2.200000e+00	-2.000000e+00	3.984211e+02	7.189562e+00	7.189562e+00
-2.000000e+00	-1.800000e+00	4.250172e+02	7.425650e+00	7.425650e+00
-1.800000e+00	-1.600000e+00	4.623813e+02	7.745178e+00	7.745178e+00
-1.600000e+00	-1.400000e+00	4.867718e+02	7.946831e+00	7.946831e+00
-1.400000e+00	-1.200000e+00	5.285470e+02	8.280815e+00	8.280815e+00
-1.200000e+00	-1.000000e+00	5.419100e+02	8.384840e+00	8.384840e+00
-1.000000e+00	-8.000000e-01	5.537160e+02	8.475684e+00	8.475684e+00
-8.000000e-01	-6.000000e-01	5.646135e+02	8.558684e+00	8.558684e+00
-6.000000e-01	-4.000000e-01	5.795335e+02	8.671026e+00	8.671026e+00
-4.000000e-01	-2.000000e-01	5.910800e+02	8.756982e+00	8.756982e+00
-2.000000e-01	0.000000e+00	5.926370e+02	8.768506e+00	8.768506e+00
0.000000e+00	2.000000e-01	5.895230e+02	8.745442e+00	8.745442e+00
2.000000e-01	4.000000e-01	5.917285e+02	8.761785e+00	8.761785e+00
4.000000e-01	6.000000e-01	5.903015e+02	8.751213e+00	8.751213e+00
6.000000e-01	8.000000e-01	5.661705e+02	8.570475e+00	8.570475e+00
8.000000e-01	1.000000e+00	5.491750e+02	8.440860e+00	8.440860e+00
1.000000e+00	1.200000e+00	5.443750e+02	8.403889e+00	8.403889e+00
1.200000e+00	1.400000e+00	5.138865e+02	8.165165e+00	8.165165e+00
1.400000e+00	1.600000e+00	4.880691e+02	7.957415e+00	7.957415e+00
1.600000e+00	1.800000e+00	4.538187e+02	7.673128e+00	7.673128e+00
1.800000e+00	2.000000e+00	4.295580e+02	7.465213e+00	7.465213e+00
2.000000e+00	2.200000e+00	3.958264e+02	7.166113e+00	7.166113e+00
2.200000e+00	2.400000e+00	3.553486e+02	6.789825e+00	6.789825e+00
2.400000e+00	2.600000e+00	3.229144e+02	6.472544e+00	6.472544e+00
2.600000e+00	2.800000e+00	2.725767e+02	5.946694e+00	5.946694e+00
2.800000e+00	3.000000e+00	2.323583e+02	5.490480e+00	5.490480e+00
3.000000e+00	3.200000e+00	1.835773e+02	4.880235e+00	4.880235e+00
3.200000e+00	3.400000e+00	1.480295e+02	4.382333e+00	4.382333e+00
3.400000e+00	3.600000e+00	1.070327e+02	3.726400e+00	3.726400e+00
3.600000e+00	3.800000e+00	8.549645e+01	3.330468e+00	3.330468e+00
3.800000e+00	4.000000e+00	5.825175e+01	2.749069e+00	2.749069e+00
4.000000e+00	4.200000e+00	3.425046e+01	2.107971e+00	2.107971e+00
4.200000e+00	4.400000e+00	2.088759e+01	1.646173e+00	1.646173e+00
4.400000e+00	4.600000e+00	1.323314e+01	1.310276e+00	1.310276e+00
4.600000e+00	4.800000e+00	5.059730e+00	8.102049e-01	8.102049e-01
4.800000e+00	5.000000e+00	9.081565e-01	3.432508e-01	3.432508e-01
# END HISTO1D


# BEGIN HISTO1D //afs/cern.ch/user/z/zhijun/genValidation/LNu_LO_2j_v3/merged.yoda/MC_JETS:ENERGY=13600/jet_y_1
ErrorBars=1
LineColor=green
LineStyle=solid
Path=//afs/cern.ch/user/z/zhijun/genValidation/LNu_LO_2j_v3/merged.yoda/MC_JETS:ENERGY=13600/jet_y_1
ScaledBy=2.54802993073796995e-02
Title=LNu_LO_2j(v3_5_6)
# xlow	 xhigh	 val	 errminus	 errplus
-5.000000e+00	-4.800000e+00	2.038424e+00	5.096060e-01	5.096060e-01
-4.800000e+00	-4.600000e+00	6.497475e+00	9.098287e-01	9.098287e-01
-4.600000e+00	-4.400000e+00	1.146614e+01	1.208637e+00	1.208637e+00
-4.400000e+00	-4.200000e+00	1.949243e+01	1.575869e+00	1.575869e+00
-4.200000e+00	-4.000000e+00	3.376139e+01	2.073946e+00	2.073946e+00
-4.000000e+00	-3.800000e+00	5.401825e+01	2.623358e+00	2.623358e+00
-3.800000e+00	-3.600000e+00	7.758750e+01	3.144005e+00	3.144005e+00
-3.600000e+00	-3.400000e+00	1.140243e+02	3.811413e+00	3.811413e+00
-3.400000e+00	-3.200000e+00	1.452377e+02	4.301569e+00	4.301569e+00
-3.200000e+00	-3.000000e+00	1.809101e+02	4.800856e+00	4.800856e+00
-3.000000e+00	-2.800000e+00	2.232074e+02	5.332631e+00	5.332631e+00
-2.800000e+00	-2.600000e+00	2.658869e+02	5.820172e+00	5.820172e+00
-2.600000e+00	-2.400000e+00	3.037251e+02	6.220535e+00	6.220535e+00
-2.400000e+00	-2.200000e+00	3.488253e+02	6.666399e+00	6.666399e+00
-2.200000e+00	-2.000000e+00	3.773632e+02	6.933733e+00	6.933733e+00
-2.000000e+00	-1.800000e+00	4.231004e+02	7.341909e+00	7.341909e+00
-1.800000e+00	-1.600000e+00	4.437394e+02	7.518848e+00	7.518848e+00
-1.600000e+00	-1.400000e+00	4.601742e+02	7.656819e+00	7.656819e+00
-1.400000e+00	-1.200000e+00	4.963563e+02	7.952140e+00	7.952140e+00
-1.200000e+00	-1.000000e+00	5.355960e+02	8.260492e+00	8.260492e+00
-1.000000e+00	-8.000000e-01	5.520305e+02	8.386270e+00	8.386270e+00
-8.000000e-01	-6.000000e-01	5.592925e+02	8.441250e+00	8.441250e+00
-6.000000e-01	-4.000000e-01	5.599295e+02	8.446057e+00	8.446057e+00
-4.000000e-01	-2.000000e-01	5.782755e+02	8.583306e+00	8.583306e+00
-2.000000e-01	0.000000e+00	5.875755e+02	8.652053e+00	8.652053e+00
0.000000e+00	2.000000e-01	5.847730e+02	8.631393e+00	8.631393e+00
2.000000e-01	4.000000e-01	5.743260e+02	8.553945e+00	8.553945e+00
4.000000e-01	6.000000e-01	5.664270e+02	8.494919e+00	8.494919e+00
6.000000e-01	8.000000e-01	5.552155e+02	8.410430e+00	8.410430e+00
8.000000e-01	1.000000e+00	5.441320e+02	8.326055e+00	8.326055e+00
1.000000e+00	1.200000e+00	5.298630e+02	8.216162e+00	8.216162e+00
1.200000e+00	1.400000e+00	4.862915e+02	7.871104e+00	7.871104e+00
1.400000e+00	1.600000e+00	4.955918e+02	7.946015e+00	7.946015e+00
1.600000e+00	1.800000e+00	4.527849e+02	7.595095e+00	7.595095e+00
1.800000e+00	2.000000e+00	4.088314e+02	7.217044e+00	7.217044e+00
2.000000e+00	2.200000e+00	3.836059e+02	6.990849e+00	6.990849e+00
2.200000e+00	2.400000e+00	3.443663e+02	6.623653e+00	6.623653e+00
2.400000e+00	2.600000e+00	3.020689e+02	6.203549e+00	6.203549e+00
2.600000e+00	2.800000e+00	2.656321e+02	5.817381e+00	5.817381e+00
2.800000e+00	3.000000e+00	2.239718e+02	5.341755e+00	5.341755e+00
3.000000e+00	3.200000e+00	1.789991e+02	4.775432e+00	4.775432e+00
3.200000e+00	3.400000e+00	1.472762e+02	4.331651e+00	4.331651e+00
3.400000e+00	3.600000e+00	1.071446e+02	3.694643e+00	3.694643e+00
3.600000e+00	3.800000e+00	7.847930e+01	3.162022e+00	3.162022e+00
3.800000e+00	4.000000e+00	4.981398e+01	2.519202e+00	2.519202e+00
4.000000e+00	4.200000e+00	3.044896e+01	1.969579e+00	1.969579e+00
4.200000e+00	4.400000e+00	2.012943e+01	1.601412e+00	1.601412e+00
4.400000e+00	4.600000e+00	1.210314e+01	1.241756e+00	1.241756e+00
4.600000e+00	4.800000e+00	4.586454e+00	7.644089e-01	7.644089e-01
4.800000e+00	5.000000e+00	1.783621e+00	4.766927e-01	4.766927e-01
# END HISTO1D

