# BEGIN PLOT
Legend=1
LogY=1
Title=Pseudorapidity of second tau
XLabel=$\eta(\tau\mathrm{2})$
YLabel=$\mathrm{d}\sigma/\mathrm{d}\eta(\tau\mathrm{2})$ [pb]
LegendYPos=0.5
LegendXPos=0.30
DrawOnly=//afs/cern.ch/user/z/zhijun/genValidation/LNu_LO_0j_v2/merged.yoda/MC_TAUS:ENERGY=13600/tau_eta_2 //afs/cern.ch/user/z/zhijun/genValidation/old_v3/LNu_LO_0j_v3/merged.yoda/MC_TAUS:ENERGY=13600/tau_eta_2 //afs/cern.ch/user/z/zhijun/genValidation/LNu_LO_0j_v3/merged.yoda/MC_TAUS:ENERGY=13600/tau_eta_2
LegendOnly=//afs/cern.ch/user/z/zhijun/genValidation/LNu_LO_0j_v2/merged.yoda/MC_TAUS:ENERGY=13600/tau_eta_2 //afs/cern.ch/user/z/zhijun/genValidation/old_v3/LNu_LO_0j_v3/merged.yoda/MC_TAUS:ENERGY=13600/tau_eta_2 //afs/cern.ch/user/z/zhijun/genValidation/LNu_LO_0j_v3/merged.yoda/MC_TAUS:ENERGY=13600/tau_eta_2
RatioPlot=1
RatioPlotReference=//afs/cern.ch/user/z/zhijun/genValidation/LNu_LO_0j_v2/merged.yoda/MC_TAUS:ENERGY=13600/tau_eta_2
RatioPlotYLabel=Ratio
# END PLOT

# BEGIN HISTO1D //afs/cern.ch/user/z/zhijun/genValidation/LNu_LO_0j_v2/merged.yoda/MC_TAUS:ENERGY=13600/tau_eta_2
ErrorBars=1
LineColor=red
LineStyle=solid
Path=//afs/cern.ch/user/z/zhijun/genValidation/LNu_LO_0j_v2/merged.yoda/MC_TAUS:ENERGY=13600/tau_eta_2
ScaledBy=5.66335246212207599e-02
Title=LNu_LO_0j(v2_9_18)
# xlow	 xhigh	 val	 errminus	 errplus
-5.000000e+00	-4.800000e+00	7.645525e+00	1.471382e+00	1.471382e+00
-4.800000e+00	-4.600000e+00	7.645525e+00	1.471382e+00	1.471382e+00
-4.600000e+00	-4.400000e+00	7.645525e+00	1.471382e+00	1.471382e+00
-4.400000e+00	-4.200000e+00	7.645525e+00	1.471382e+00	1.471382e+00
-4.200000e+00	-4.000000e+00	1.274254e+01	1.899546e+00	1.899546e+00
-4.000000e+00	-3.800000e+00	9.344530e+00	1.626675e+00	1.626675e+00
-3.800000e+00	-3.600000e+00	1.189304e+01	1.835136e+00	1.835136e+00
-3.600000e+00	-3.400000e+00	9.910865e+00	1.675243e+00	1.675243e+00
-3.400000e+00	-3.200000e+00	1.274255e+01	1.899546e+00	1.899546e+00
-3.200000e+00	-3.000000e+00	1.444155e+01	2.022222e+00	2.022222e+00
-3.000000e+00	-2.800000e+00	1.415838e+01	2.002297e+00	2.002297e+00
-2.800000e+00	-2.600000e+00	1.415838e+01	2.002297e+00	2.002297e+00
-2.600000e+00	-2.400000e+00	1.245937e+01	1.878322e+00	1.878322e+00
-2.400000e+00	-2.200000e+00	1.614056e+01	2.137869e+00	2.137869e+00
-2.200000e+00	-2.000000e+00	1.160987e+01	1.813157e+00	1.813157e+00
-2.000000e+00	-1.800000e+00	1.727323e+01	2.211610e+00	2.211610e+00
-1.800000e+00	-1.600000e+00	1.047720e+01	1.722442e+00	1.722442e+00
-1.600000e+00	-1.400000e+00	1.444155e+01	2.022222e+00	2.022222e+00
-1.400000e+00	-1.200000e+00	1.330888e+01	1.941299e+00	1.941299e+00
-1.200000e+00	-1.000000e+00	1.387522e+01	1.982173e+00	1.982173e+00
-1.000000e+00	-8.000000e-01	1.585739e+01	2.119032e+00	2.119032e+00
-8.000000e-01	-6.000000e-01	1.472471e+01	2.041951e+00	2.041951e+00
-6.000000e-01	-4.000000e-01	1.104354e+01	1.768381e+00	1.768381e+00
-4.000000e-01	-2.000000e-01	1.614055e+01	2.137869e+00	2.137869e+00
-2.000000e-01	0.000000e+00	1.274254e+01	1.899546e+00	1.899546e+00
0.000000e+00	2.000000e-01	1.472471e+01	2.041951e+00	2.041951e+00
2.000000e-01	4.000000e-01	1.302571e+01	1.920536e+00	1.920536e+00
4.000000e-01	6.000000e-01	1.359205e+01	1.961843e+00	1.961843e+00
6.000000e-01	8.000000e-01	1.217621e+01	1.856854e+00	1.856854e+00
8.000000e-01	1.000000e+00	1.302571e+01	1.920536e+00	1.920536e+00
1.000000e+00	1.200000e+00	1.330888e+01	1.941299e+00	1.941299e+00
1.200000e+00	1.400000e+00	9.344530e+00	1.626675e+00	1.626675e+00
1.400000e+00	1.600000e+00	1.529105e+01	2.080848e+00	2.080848e+00
1.600000e+00	1.800000e+00	1.415838e+01	2.002297e+00	2.002297e+00
1.800000e+00	2.000000e+00	1.189304e+01	1.835136e+00	1.835136e+00
2.000000e+00	2.200000e+00	1.472471e+01	2.041951e+00	2.041951e+00
2.200000e+00	2.400000e+00	1.557422e+01	2.100027e+00	2.100027e+00
2.400000e+00	2.600000e+00	1.500788e+01	2.061492e+00	2.061492e+00
2.600000e+00	2.800000e+00	9.910865e+00	1.675243e+00	1.675243e+00
2.800000e+00	3.000000e+00	1.529105e+01	2.080848e+00	2.080848e+00
3.000000e+00	3.200000e+00	1.047720e+01	1.722442e+00	1.722442e+00
3.200000e+00	3.400000e+00	1.302571e+01	1.920536e+00	1.920536e+00
3.400000e+00	3.600000e+00	1.047720e+01	1.722442e+00	1.722442e+00
3.600000e+00	3.800000e+00	9.061365e+00	1.601838e+00	1.601838e+00
3.800000e+00	4.000000e+00	9.061365e+00	1.601838e+00	1.601838e+00
4.000000e+00	4.200000e+00	9.910865e+00	1.675243e+00	1.675243e+00
4.200000e+00	4.400000e+00	1.047720e+01	1.722442e+00	1.722442e+00
4.400000e+00	4.600000e+00	1.245938e+01	1.878322e+00	1.878322e+00
4.600000e+00	4.800000e+00	9.061365e+00	1.601838e+00	1.601838e+00
4.800000e+00	5.000000e+00	5.946520e+00	1.297637e+00	1.297637e+00
# END HISTO1D


# BEGIN HISTO1D //afs/cern.ch/user/z/zhijun/genValidation/old_v3/LNu_LO_0j_v3/merged.yoda/MC_TAUS:ENERGY=13600/tau_eta_2
ErrorBars=1
LineColor=blue
LineStyle=solid
Path=//afs/cern.ch/user/z/zhijun/genValidation/old_v3/LNu_LO_0j_v3/merged.yoda/MC_TAUS:ENERGY=13600/tau_eta_2
ScaledBy=5.43667733662304281e-02
Title=LNu_LO_0j(v3_5_2)
# xlow	 xhigh	 val	 errminus	 errplus
-5.000000e+00	-4.800000e+00	4.077508e+00	1.052808e+00	1.052808e+00
-4.800000e+00	-4.600000e+00	7.067680e+00	1.386086e+00	1.386086e+00
-4.600000e+00	-4.400000e+00	5.980345e+00	1.275014e+00	1.275014e+00
-4.400000e+00	-4.200000e+00	8.426850e+00	1.513507e+00	1.513507e+00
-4.200000e+00	-4.000000e+00	1.114519e+01	1.740586e+00	1.740586e+00
-4.000000e+00	-3.800000e+00	9.242350e+00	1.585050e+00	1.585050e+00
-3.800000e+00	-3.600000e+00	1.223253e+01	1.823517e+00	1.823517e+00
-3.600000e+00	-3.400000e+00	9.786020e+00	1.631004e+00	1.631004e+00
-3.400000e+00	-3.200000e+00	1.196069e+01	1.803142e+00	1.803142e+00
-3.200000e+00	-3.000000e+00	1.440719e+01	1.978980e+00	1.978980e+00
-3.000000e+00	-2.800000e+00	1.413536e+01	1.960222e+00	1.960222e+00
-2.800000e+00	-2.600000e+00	1.495087e+01	2.015974e+00	2.015974e+00
-2.600000e+00	-2.400000e+00	1.196069e+01	1.803142e+00	1.803142e+00
-2.400000e+00	-2.200000e+00	1.331986e+01	1.902837e+00	1.902837e+00
-2.200000e+00	-2.000000e+00	1.549453e+01	2.052301e+00	2.052301e+00
-2.000000e+00	-1.800000e+00	1.685370e+01	2.140422e+00	2.140422e+00
-1.800000e+00	-1.600000e+00	1.631003e+01	2.105616e+00	2.105616e+00
-1.600000e+00	-1.400000e+00	1.359169e+01	1.922156e+00	1.922156e+00
-1.400000e+00	-1.200000e+00	1.440720e+01	1.978980e+00	1.978980e+00
-1.200000e+00	-1.000000e+00	1.114519e+01	1.740586e+00	1.740586e+00
-1.000000e+00	-8.000000e-01	1.005786e+01	1.653501e+00	1.653501e+00
-8.000000e-01	-6.000000e-01	1.060152e+01	1.697602e+00	1.697602e+00
-6.000000e-01	-4.000000e-01	1.250436e+01	1.843667e+00	1.843667e+00
-4.000000e-01	-2.000000e-01	1.277619e+01	1.863599e+00	1.863599e+00
-2.000000e-01	0.000000e+00	9.242350e+00	1.585050e+00	1.585050e+00
0.000000e+00	2.000000e-01	8.698685e+00	1.537725e+00	1.537725e+00
2.000000e-01	4.000000e-01	1.359169e+01	1.922156e+00	1.922156e+00
4.000000e-01	6.000000e-01	1.141702e+01	1.761685e+00	1.761685e+00
6.000000e-01	8.000000e-01	1.060152e+01	1.697602e+00	1.697602e+00
8.000000e-01	1.000000e+00	1.386353e+01	1.941282e+00	1.941282e+00
1.000000e+00	1.200000e+00	1.386353e+01	1.941282e+00	1.941282e+00
1.200000e+00	1.400000e+00	1.603820e+01	2.087995e+00	2.087995e+00
1.400000e+00	1.600000e+00	1.603820e+01	2.087995e+00	2.087995e+00
1.600000e+00	1.800000e+00	1.196069e+01	1.803142e+00	1.803142e+00
1.800000e+00	2.000000e+00	1.223253e+01	1.823517e+00	1.823517e+00
2.000000e+00	2.200000e+00	1.196069e+01	1.803142e+00	1.803142e+00
2.200000e+00	2.400000e+00	1.603820e+01	2.087995e+00	2.087995e+00
2.400000e+00	2.600000e+00	1.141702e+01	1.761685e+00	1.761685e+00
2.600000e+00	2.800000e+00	1.386353e+01	1.941282e+00	1.941282e+00
2.800000e+00	3.000000e+00	1.386352e+01	1.941282e+00	1.941282e+00
3.000000e+00	3.200000e+00	1.168885e+01	1.782534e+00	1.782534e+00
3.200000e+00	3.400000e+00	1.277619e+01	1.863599e+00	1.863599e+00
3.400000e+00	3.600000e+00	1.168885e+01	1.782534e+00	1.782534e+00
3.600000e+00	3.800000e+00	1.087336e+01	1.719228e+00	1.719228e+00
3.800000e+00	4.000000e+00	9.514185e+00	1.608191e+00	1.608191e+00
4.000000e+00	4.200000e+00	9.786020e+00	1.631004e+00	1.631004e+00
4.200000e+00	4.400000e+00	1.087335e+01	1.719228e+00	1.719228e+00
4.400000e+00	4.600000e+00	8.155015e+00	1.488895e+00	1.488895e+00
4.600000e+00	4.800000e+00	8.970520e+00	1.561567e+00	1.561567e+00
4.800000e+00	5.000000e+00	8.698685e+00	1.537725e+00	1.537725e+00
# END HISTO1D


# BEGIN HISTO1D //afs/cern.ch/user/z/zhijun/genValidation/LNu_LO_0j_v3/merged.yoda/MC_TAUS:ENERGY=13600/tau_eta_2
ErrorBars=1
LineColor=green
LineStyle=solid
Path=//afs/cern.ch/user/z/zhijun/genValidation/LNu_LO_0j_v3/merged.yoda/MC_TAUS:ENERGY=13600/tau_eta_2
ScaledBy=5.43687413244782272e-02
Title=LNu_LO_0j(v3_5_6)
# xlow	 xhigh	 val	 errminus	 errplus
-5.000000e+00	-4.800000e+00	5.980560e+00	1.275060e+00	1.275060e+00
-4.800000e+00	-4.600000e+00	7.611625e+00	1.438462e+00	1.438462e+00
-4.600000e+00	-4.400000e+00	9.786375e+00	1.631063e+00	1.631063e+00
-4.400000e+00	-4.200000e+00	8.155310e+00	1.488949e+00	1.488949e+00
-4.200000e+00	-4.000000e+00	1.005821e+01	1.653561e+00	1.653561e+00
-4.000000e+00	-3.800000e+00	1.196112e+01	1.803207e+00	1.803207e+00
-3.800000e+00	-3.600000e+00	1.359219e+01	1.922225e+00	1.922225e+00
-3.600000e+00	-3.400000e+00	1.359218e+01	1.922225e+00	1.922225e+00
-3.400000e+00	-3.200000e+00	1.413588e+01	1.960293e+00	1.960293e+00
-3.200000e+00	-3.000000e+00	8.970840e+00	1.561623e+00	1.561623e+00
-3.000000e+00	-2.800000e+00	1.196112e+01	1.803207e+00	1.803207e+00
-2.800000e+00	-2.600000e+00	1.277666e+01	1.863666e+00	1.863666e+00
-2.600000e+00	-2.400000e+00	1.304850e+01	1.883389e+00	1.883389e+00
-2.400000e+00	-2.200000e+00	1.658247e+01	2.123167e+00	2.123167e+00
-2.200000e+00	-2.000000e+00	1.467956e+01	1.997635e+00	1.997635e+00
-2.000000e+00	-1.800000e+00	1.141744e+01	1.761748e+00	1.761748e+00
-1.800000e+00	-1.600000e+00	1.658247e+01	2.123167e+00	2.123167e+00
-1.600000e+00	-1.400000e+00	1.413587e+01	1.960293e+00	1.960293e+00
-1.400000e+00	-1.200000e+00	1.386403e+01	1.941353e+00	1.941353e+00
-1.200000e+00	-1.000000e+00	1.386403e+01	1.941353e+00	1.941353e+00
-1.000000e+00	-8.000000e-01	1.386403e+01	1.941353e+00	1.941353e+00
-8.000000e-01	-6.000000e-01	1.114559e+01	1.740649e+00	1.740649e+00
-6.000000e-01	-4.000000e-01	1.114559e+01	1.740649e+00	1.740649e+00
-4.000000e-01	-2.000000e-01	9.786375e+00	1.631063e+00	1.631063e+00
-2.000000e-01	0.000000e+00	1.277665e+01	1.863666e+00	1.863666e+00
0.000000e+00	2.000000e-01	1.223297e+01	1.823583e+00	1.823583e+00
2.000000e-01	4.000000e-01	1.277665e+01	1.863666e+00	1.863666e+00
4.000000e-01	6.000000e-01	1.250481e+01	1.843734e+00	1.843734e+00
6.000000e-01	8.000000e-01	1.304850e+01	1.883389e+00	1.883389e+00
8.000000e-01	1.000000e+00	1.359219e+01	1.922225e+00	1.922225e+00
1.000000e+00	1.200000e+00	1.141744e+01	1.761748e+00	1.761748e+00
1.200000e+00	1.400000e+00	1.467956e+01	1.997635e+00	1.997635e+00
1.400000e+00	1.600000e+00	1.304850e+01	1.883389e+00	1.883389e+00
1.600000e+00	1.800000e+00	1.359219e+01	1.922225e+00	1.922225e+00
1.800000e+00	2.000000e+00	1.332034e+01	1.902906e+00	1.902906e+00
2.000000e+00	2.200000e+00	1.332034e+01	1.902906e+00	1.902906e+00
2.200000e+00	2.400000e+00	1.277666e+01	1.863666e+00	1.863666e+00
2.400000e+00	2.600000e+00	1.413587e+01	1.960293e+00	1.960293e+00
2.600000e+00	2.800000e+00	1.386403e+01	1.941353e+00	1.941353e+00
2.800000e+00	3.000000e+00	1.413587e+01	1.960293e+00	1.960293e+00
3.000000e+00	3.200000e+00	1.386403e+01	1.941353e+00	1.941353e+00
3.200000e+00	3.400000e+00	1.168928e+01	1.782599e+00	1.782599e+00
3.400000e+00	3.600000e+00	1.168928e+01	1.782599e+00	1.782599e+00
3.600000e+00	3.800000e+00	1.250481e+01	1.843734e+00	1.843734e+00
3.800000e+00	4.000000e+00	1.413587e+01	1.960293e+00	1.960293e+00
4.000000e+00	4.200000e+00	1.549509e+01	2.052375e+00	2.052375e+00
4.200000e+00	4.400000e+00	9.514530e+00	1.608249e+00	1.608249e+00
4.400000e+00	4.600000e+00	5.436875e+00	1.215722e+00	1.215722e+00
4.600000e+00	4.800000e+00	8.155310e+00	1.488949e+00	1.488949e+00
4.800000e+00	5.000000e+00	7.067935e+00	1.386136e+00	1.386136e+00
# END HISTO1D

