# BEGIN PLOT
Legend=1
LogY=1
Title=$p_\perp/R$-weighted $\Delta{R}_{\gamma\ell}$ vs. lepton $p_\perp$
XLabel=Lepton $p_\perp$ [GeV]
YLabel=$\langle\mathrm{Weighted}\quad\Delta{R}_{\gamma\ell}\rangle$
DrawOnly=//afs/cern.ch/user/z/zhijun/genValidation/LNu_LO_1j_v2/merged.yoda/MC_PHOTONS:ENERGY=13600/DeltaR_R_ptweighted_vs_pTlep //afs/cern.ch/user/z/zhijun/genValidation/LNu_LO_1j_v3/merged.yoda/MC_PHOTONS:ENERGY=13600/DeltaR_R_ptweighted_vs_pTlep
LegendOnly=//afs/cern.ch/user/z/zhijun/genValidation/LNu_LO_1j_v2/merged.yoda/MC_PHOTONS:ENERGY=13600/DeltaR_R_ptweighted_vs_pTlep //afs/cern.ch/user/z/zhijun/genValidation/LNu_LO_1j_v3/merged.yoda/MC_PHOTONS:ENERGY=13600/DeltaR_R_ptweighted_vs_pTlep
RatioPlot=1
RatioPlotReference=//afs/cern.ch/user/z/zhijun/genValidation/LNu_LO_1j_v2/merged.yoda/MC_PHOTONS:ENERGY=13600/DeltaR_R_ptweighted_vs_pTlep
RatioPlotYLabel=Ratio
# END PLOT

# BEGIN HISTO1D //afs/cern.ch/user/z/zhijun/genValidation/LNu_LO_1j_v2/merged.yoda/MC_PHOTONS:ENERGY=13600/DeltaR_R_ptweighted_vs_pTlep
ErrorBars=1
LineColor=red
LineStyle=solid
Path=//afs/cern.ch/user/z/zhijun/genValidation/LNu_LO_1j_v2/merged.yoda/MC_PHOTONS:ENERGY=13600/DeltaR_R_ptweighted_vs_pTlep
Title=LNu_LO_1j(v2_9_18)
# xlow	 xhigh	 val	 errminus	 errplus
1.000000e+01	1.220000e+01	2.878144e-02	7.073056e-02	7.073056e-02
1.220000e+01	1.440000e+01	2.118106e-02	5.876675e-02	5.876675e-02
1.440000e+01	1.660000e+01	3.408507e-02	5.856608e-02	5.856608e-02
1.660000e+01	1.880000e+01	3.378105e-02	5.298677e-02	5.298677e-02
1.880000e+01	2.100000e+01	2.797840e-02	4.225374e-02	4.225374e-02
2.100000e+01	2.320000e+01	1.745793e-02	5.690466e-02	5.690466e-02
2.320000e+01	2.540000e+01	2.997978e-02	4.468387e-02	4.468387e-02
2.540000e+01	2.760000e+01	3.275392e-02	4.749748e-02	4.749748e-02
2.760000e+01	2.980000e+01	2.591933e-02	5.339574e-02	5.339574e-02
2.980000e+01	3.200000e+01	2.936334e-02	4.823827e-02	4.823827e-02
3.200000e+01	3.420000e+01	2.346333e-02	4.597544e-02	4.597544e-02
3.420000e+01	3.640000e+01	1.585596e-02	5.435736e-02	5.435736e-02
3.640000e+01	3.860000e+01	2.200996e-02	4.161924e-02	4.161924e-02
3.860000e+01	4.080000e+01	2.073100e-02	4.680878e-02	4.680878e-02
4.080000e+01	4.300000e+01	2.724312e-02	4.811170e-02	4.811170e-02
4.300000e+01	4.520000e+01	1.958122e-02	4.601963e-02	4.601963e-02
4.520000e+01	4.740000e+01	1.793056e-02	5.969118e-02	5.969118e-02
4.740000e+01	4.960000e+01	2.133306e-02	5.036952e-02	5.036952e-02
4.960000e+01	5.180000e+01	1.981922e-02	4.990809e-02	4.990809e-02
5.180000e+01	5.400000e+01	1.864832e-02	4.545524e-02	4.545524e-02
5.400000e+01	5.620000e+01	3.109999e-02	7.480810e-02	7.480810e-02
5.620000e+01	5.840000e+01	2.004343e-02	1.370553e-01	1.370553e-01
5.840000e+01	6.060000e+01	1.808794e-02	7.642085e-02	7.642085e-02
6.060000e+01	6.280000e+01	2.316431e-02	6.217501e-02	6.217501e-02
6.280000e+01	6.500000e+01	3.785378e-02	1.251092e-01	1.251092e-01
6.500000e+01	6.720000e+01	3.250577e-02	1.016709e-01	1.016709e-01
6.720000e+01	6.940000e+01	2.007408e-02	8.707162e-02	8.707162e-02
6.940000e+01	7.160000e+01	2.237210e-02	7.851857e-02	7.851857e-02
7.160000e+01	7.380000e+01	2.569639e-02	1.094153e-01	1.094153e-01
7.380000e+01	7.600000e+01	1.264482e-02	1.391634e-01	1.391634e-01
7.600000e+01	7.820000e+01	2.339856e-02	7.451301e-02	7.451301e-02
7.820000e+01	8.040000e+01	3.832546e-02	2.845914e-01	2.845914e-01
8.040000e+01	8.260000e+01	9.932526e-03	8.262727e-02	8.262727e-02
8.260000e+01	8.480000e+01	2.558457e-02	1.442849e-01	1.442849e-01
8.480000e+01	8.700000e+01	7.797714e-03	1.088547e-01	1.088547e-01
8.700000e+01	8.920000e+01	7.058777e-02	1.554031e-01	1.554031e-01
8.920000e+01	9.140000e+01	9.286088e-02	4.133961e-01	4.133961e-01
9.140000e+01	9.360000e+01	2.729396e-02	2.454365e-01	2.454365e-01
9.360000e+01	9.580000e+01	2.704721e-02	1.401604e-01	1.401604e-01
9.580000e+01	9.800000e+01	2.650275e-02	1.856989e-01	1.856989e-01
9.800000e+01	1.002000e+02	5.044200e-02	1.704124e-01	1.704124e-01
1.002000e+02	1.024000e+02	6.173099e-03	2.086220e-01	2.086220e-01
1.024000e+02	1.046000e+02	2.758609e-02	1.814840e-01	1.814840e-01
1.046000e+02	1.068000e+02	3.304019e-02	6.242721e-01	6.242721e-01
1.068000e+02	1.090000e+02	3.908125e-03	4.326427e-01	4.326427e-01
1.090000e+02	1.112000e+02	1.672462e-02	1.244244e-01	1.244244e-01
1.112000e+02	1.134000e+02	6.864522e-03	7.891727e-02	7.891727e-02
1.134000e+02	1.156000e+02	3.702391e-02	2.616635e-01	2.616635e-01
1.156000e+02	1.178000e+02	2.479640e-02	2.310302e-01	2.310302e-01
1.178000e+02	1.200000e+02	1.058699e-01	3.648430e-01	3.648430e-01
# END HISTO1D


# BEGIN HISTO1D //afs/cern.ch/user/z/zhijun/genValidation/LNu_LO_1j_v3/merged.yoda/MC_PHOTONS:ENERGY=13600/DeltaR_R_ptweighted_vs_pTlep
ErrorBars=1
LineColor=blue
LineStyle=solid
Path=//afs/cern.ch/user/z/zhijun/genValidation/LNu_LO_1j_v3/merged.yoda/MC_PHOTONS:ENERGY=13600/DeltaR_R_ptweighted_vs_pTlep
Title=LNu_LO_1j(v3_5_2)
# xlow	 xhigh	 val	 errminus	 errplus
1.000000e+01	1.220000e+01	3.063025e-02	8.520529e-02	8.520529e-02
1.220000e+01	1.440000e+01	2.199404e-02	8.171276e-02	8.171276e-02
1.440000e+01	1.660000e+01	4.000375e-02	4.798211e-02	4.798211e-02
1.660000e+01	1.880000e+01	2.612465e-02	5.150473e-02	5.150473e-02
1.880000e+01	2.100000e+01	3.450438e-02	5.340174e-02	5.340174e-02
2.100000e+01	2.320000e+01	4.341986e-02	5.437129e-02	5.437129e-02
2.320000e+01	2.540000e+01	2.429901e-02	5.958486e-02	5.958486e-02
2.540000e+01	2.760000e+01	2.603425e-02	4.480175e-02	4.480175e-02
2.760000e+01	2.980000e+01	2.631546e-02	3.897159e-02	3.897159e-02
2.980000e+01	3.200000e+01	2.562386e-02	3.951742e-02	3.951742e-02
3.200000e+01	3.420000e+01	3.064888e-02	5.111553e-02	5.111553e-02
3.420000e+01	3.640000e+01	1.569596e-02	3.773057e-02	3.773057e-02
3.640000e+01	3.860000e+01	2.354609e-02	4.072936e-02	4.072936e-02
3.860000e+01	4.080000e+01	2.767765e-02	5.108831e-02	5.108831e-02
4.080000e+01	4.300000e+01	2.357499e-02	7.301167e-02	7.301167e-02
4.300000e+01	4.520000e+01	2.098293e-02	4.796736e-02	4.796736e-02
4.520000e+01	4.740000e+01	2.170207e-02	6.185812e-02	6.185812e-02
4.740000e+01	4.960000e+01	2.588392e-02	6.209724e-02	6.209724e-02
4.960000e+01	5.180000e+01	2.934605e-02	5.263984e-02	5.263984e-02
5.180000e+01	5.400000e+01	1.712642e-02	4.424214e-02	4.424214e-02
5.400000e+01	5.620000e+01	1.636127e-02	9.410464e-02	9.410464e-02
5.620000e+01	5.840000e+01	2.510931e-02	6.311816e-02	6.311816e-02
5.840000e+01	6.060000e+01	3.706068e-02	6.407293e-02	6.407293e-02
6.060000e+01	6.280000e+01	4.420343e-02	8.139162e-02	8.139162e-02
6.280000e+01	6.500000e+01	4.851710e-02	9.147637e-02	9.147637e-02
6.500000e+01	6.720000e+01	3.074218e-02	8.619091e-02	8.619091e-02
6.720000e+01	6.940000e+01	5.243046e-02	8.769911e-02	8.769911e-02
6.940000e+01	7.160000e+01	2.473258e-02	8.580503e-02	8.580503e-02
7.160000e+01	7.380000e+01	4.950692e-02	1.062806e-01	1.062806e-01
7.380000e+01	7.600000e+01	1.146525e-02	8.639503e-02	8.639503e-02
7.600000e+01	7.820000e+01	2.831523e-02	1.119783e-01	1.119783e-01
7.820000e+01	8.040000e+01	1.998291e-02	1.004020e-01	1.004020e-01
8.040000e+01	8.260000e+01	2.844164e-02	2.114674e-01	2.114674e-01
8.260000e+01	8.480000e+01	2.244107e-02	1.030360e-01	1.030360e-01
8.480000e+01	8.700000e+01	1.516413e-02	2.913234e-01	2.913234e-01
8.700000e+01	8.920000e+01	9.773817e-03	9.340187e-02	9.340187e-02
8.920000e+01	9.140000e+01	1.743894e-02	2.051061e-01	2.051061e-01
9.140000e+01	9.360000e+01	4.360272e-02	2.061795e-01	2.061795e-01
9.360000e+01	9.580000e+01	3.933449e-02	2.037286e-01	2.037286e-01
9.580000e+01	9.800000e+01	1.888414e-01	4.584525e-01	4.584525e-01
9.800000e+01	1.002000e+02	1.277281e-01	4.559180e-01	4.559180e-01
1.002000e+02	1.024000e+02	2.299103e-02	1.170547e-01	1.170547e-01
1.024000e+02	1.046000e+02	1.873623e-02	2.732023e-01	2.732023e-01
1.046000e+02	1.068000e+02	4.648862e-02	2.640096e-01	2.640096e-01
1.068000e+02	1.090000e+02	1.764932e-02	4.724656e-01	4.724656e-01
1.090000e+02	1.112000e+02	6.724819e-02	3.400108e-01	3.400108e-01
1.112000e+02	1.134000e+02	3.021361e-02	3.783358e-01	3.783358e-01
1.134000e+02	1.156000e+02	6.086757e-03	3.270724e-01	3.270724e-01
1.156000e+02	1.178000e+02	3.033040e-02	2.034122e-01	2.034122e-01
1.178000e+02	1.200000e+02	4.505351e-02	3.293670e-01	3.293670e-01
# END HISTO1D

