# BEGIN PLOT
Legend=1
LogY=0
Title=Number of positive and negative weighted events
XLabel=$\mathrm{sgn}(w)$
YLabel=$N_\pm$
ShowZero=0
XCustomMajorTicks=-0.5	$w<0$	0.5	$w\geq0$
XMinorTickMarks=0
XMin=-1
XMax=1
LegendXPos=0.05
DrawOnly=//afs/cern.ch/user/z/zhijun/genValidation/LNu_NLO_1j_NoMu_v2/merged.yoda/MC_XS:ENERGY=13600/pmN //afs/cern.ch/user/z/zhijun/genValidation/old_v3/LNu_NLO_1j_NoMu_v3/merged.yoda/MC_XS:ENERGY=13600/pmN //afs/cern.ch/user/z/zhijun/genValidation/LNu_NLO_1j_NoMu_v3/merged.yoda/MC_XS:ENERGY=13600/pmN
LegendOnly=//afs/cern.ch/user/z/zhijun/genValidation/LNu_NLO_1j_NoMu_v2/merged.yoda/MC_XS:ENERGY=13600/pmN //afs/cern.ch/user/z/zhijun/genValidation/old_v3/LNu_NLO_1j_NoMu_v3/merged.yoda/MC_XS:ENERGY=13600/pmN //afs/cern.ch/user/z/zhijun/genValidation/LNu_NLO_1j_NoMu_v3/merged.yoda/MC_XS:ENERGY=13600/pmN
RatioPlot=1
RatioPlotReference=//afs/cern.ch/user/z/zhijun/genValidation/LNu_NLO_1j_NoMu_v2/merged.yoda/MC_XS:ENERGY=13600/pmN
RatioPlotYLabel=Ratio
# END PLOT

# BEGIN HISTO1D //afs/cern.ch/user/z/zhijun/genValidation/LNu_NLO_1j_NoMu_v2/merged.yoda/MC_XS:ENERGY=13600/pmN
ErrorBars=1
LineColor=red
LineStyle=solid
Path=//afs/cern.ch/user/z/zhijun/genValidation/LNu_NLO_1j_NoMu_v2/merged.yoda/MC_XS:ENERGY=13600/pmN
ScaledBy=1.00000000000000000e+00
Title=LNu_NLO_1j(v2_9_18)
# xlow	 xhigh	 val	 errminus	 errplus
-1.000000e+00	0.000000e+00	4.992670e+05	7.065883e+02	7.065883e+02
0.000000e+00	1.000000e+00	1.408446e+06	1.186780e+03	1.186780e+03
# END HISTO1D


# BEGIN HISTO1D //afs/cern.ch/user/z/zhijun/genValidation/old_v3/LNu_NLO_1j_NoMu_v3/merged.yoda/MC_XS:ENERGY=13600/pmN
ErrorBars=1
LineColor=blue
LineStyle=solid
Path=//afs/cern.ch/user/z/zhijun/genValidation/old_v3/LNu_NLO_1j_NoMu_v3/merged.yoda/MC_XS:ENERGY=13600/pmN
ScaledBy=1.00000000000000000e+00
Title=LNu_NLO_1j(v3_5_2)
# xlow	 xhigh	 val	 errminus	 errplus
-1.000000e+00	0.000000e+00	5.434770e+05	7.372089e+02	7.372089e+02
0.000000e+00	1.000000e+00	1.554382e+06	1.246749e+03	1.246749e+03
# END HISTO1D


# BEGIN HISTO1D //afs/cern.ch/user/z/zhijun/genValidation/LNu_NLO_1j_NoMu_v3/merged.yoda/MC_XS:ENERGY=13600/pmN
ErrorBars=1
LineColor=green
LineStyle=solid
Path=//afs/cern.ch/user/z/zhijun/genValidation/LNu_NLO_1j_NoMu_v3/merged.yoda/MC_XS:ENERGY=13600/pmN
ScaledBy=1.00000000000000000e+00
Title=LNu_NLO_1j(v3_5_6)
# xlow	 xhigh	 val	 errminus	 errplus
-1.000000e+00	0.000000e+00	5.443250e+05	7.377838e+02	7.377838e+02
0.000000e+00	1.000000e+00	1.538190e+06	1.240238e+03	1.240238e+03
# END HISTO1D

