# BEGIN PLOT
Legend=1
LogY=1
Title=Rapidity $+/-$ ratio of second jet
XLabel=$y(\mathrm{jet~2})_+/y(\mathrm{jet~2})_-$
YLabel=$|y(\mathrm{jet~2}|$
DrawOnly=//afs/cern.ch/user/z/zhijun/genValidation/LNu_NLO_1j_NoMu_v2/merged.yoda/MC_WJETS:ENERGY=13600/jet_y_pmratio_2 //afs/cern.ch/user/z/zhijun/genValidation/old_v3/LNu_NLO_1j_NoMu_v3/merged.yoda/MC_WJETS:ENERGY=13600/jet_y_pmratio_2 //afs/cern.ch/user/z/zhijun/genValidation/LNu_NLO_1j_NoMu_v3/merged.yoda/MC_WJETS:ENERGY=13600/jet_y_pmratio_2
LegendOnly=//afs/cern.ch/user/z/zhijun/genValidation/LNu_NLO_1j_NoMu_v2/merged.yoda/MC_WJETS:ENERGY=13600/jet_y_pmratio_2 //afs/cern.ch/user/z/zhijun/genValidation/old_v3/LNu_NLO_1j_NoMu_v3/merged.yoda/MC_WJETS:ENERGY=13600/jet_y_pmratio_2 //afs/cern.ch/user/z/zhijun/genValidation/LNu_NLO_1j_NoMu_v3/merged.yoda/MC_WJETS:ENERGY=13600/jet_y_pmratio_2
RatioPlot=1
RatioPlotReference=//afs/cern.ch/user/z/zhijun/genValidation/LNu_NLO_1j_NoMu_v2/merged.yoda/MC_WJETS:ENERGY=13600/jet_y_pmratio_2
RatioPlotYLabel=Ratio
# END PLOT

# BEGIN HISTO1D //afs/cern.ch/user/z/zhijun/genValidation/LNu_NLO_1j_NoMu_v2/merged.yoda/MC_WJETS:ENERGY=13600/jet_y_pmratio_2
ErrorBars=1
ErrorBreakdown={0: {"": {up: 0.05379659995916834, dn: 0.05379659995916834}}, 1: {"": {up: 0.05149286675410147, dn: 0.05149286675410147}}, 2: {"": {up: 0.0496335085219068, dn: 0.0496335085219068}}, 3: {"": {up: 0.04996314978330409, dn: 0.04996314978330409}}, 4: {"": {up: 0.04572032761929661, dn: 0.04572032761929661}}, 5: {"": {up: 0.05253599219334294, dn: 0.05253599219334294}}, 6: {"": {up: 0.04913170369957153, dn: 0.04913170369957153}}, 7: {"": {up: 0.05021752019214577, dn: 0.05021752019214577}}, 8: {"": {up: 0.05548311374734811, dn: 0.05548311374734811}}, 9: {"": {up: 0.05713999915905033, dn: 0.05713999915905033}}, 10: {"": {up: 0.05524533184267037, dn: 0.05524533184267037}}, 11: {"": {up: 0.05765765008571213, dn: 0.05765765008571213}}, 12: {"": {up: 0.06372948748724379, dn: 0.06372948748724379}}, 13: {"": {up: 0.06295947726026668, dn: 0.06295947726026668}}, 14: {"": {up: 0.06762268811173777, dn: 0.06762268811173777}}, 15: {"": {up: 0.06971695603791889, dn: 0.06971695603791889}}, 16: {"": {up: 0.08164322869332215, dn: 0.08164322869332215}}, 17: {"": {up: 0.09466165700651247, dn: 0.09466165700651247}}, 18: {"": {up: 0.1000804213255572, dn: 0.1000804213255572}}, 19: {"": {up: 0.1130830150839614, dn: 0.1130830150839614}}, 20: {"": {up: 0.1087708823450057, dn: 0.1087708823450057}}, 21: {"": {up: 0.1442043080564733, dn: 0.1442043080564733}}, 22: {"": {up: 0.1317459818075143, dn: 0.1317459818075143}}, 23: {"": {up: 0.1973196479458356, dn: 0.1973196479458356}}, 24: {"": {up: 0.2152064289605875, dn: 0.2152064289605875}}}
LineColor=red
LineStyle=solid
Path=//afs/cern.ch/user/z/zhijun/genValidation/LNu_NLO_1j_NoMu_v2/merged.yoda/MC_WJETS:ENERGY=13600/jet_y_pmratio_2
Title=LNu_NLO_1j(v2_9_18)
# xlow	 xhigh	 val	 errminus	 errplus
0.000000e+00	2.000000e-01	1.116112e+00	5.379660e-02	5.379660e-02
2.000000e-01	4.000000e-01	1.076825e+00	5.149287e-02	5.149287e-02
4.000000e-01	6.000000e-01	9.987147e-01	4.963351e-02	4.963351e-02
6.000000e-01	8.000000e-01	1.052598e+00	4.996315e-02	4.996315e-02
8.000000e-01	1.000000e+00	9.574861e-01	4.572033e-02	4.572033e-02
1.000000e+00	1.200000e+00	1.069153e+00	5.253599e-02	5.253599e-02
1.200000e+00	1.400000e+00	9.699248e-01	4.913170e-02	4.913170e-02
1.400000e+00	1.600000e+00	9.765458e-01	5.021752e-02	5.021752e-02
1.600000e+00	1.800000e+00	1.044323e+00	5.548311e-02	5.548311e-02
1.800000e+00	2.000000e+00	1.055780e+00	5.714000e-02	5.714000e-02
2.000000e+00	2.200000e+00	9.765690e-01	5.524533e-02	5.524533e-02
2.200000e+00	2.400000e+00	9.751381e-01	5.765765e-02	5.765765e-02
2.400000e+00	2.600000e+00	1.047379e+00	6.372949e-02	6.372949e-02
2.600000e+00	2.800000e+00	9.848975e-01	6.295948e-02	6.295948e-02
2.800000e+00	3.000000e+00	1.039906e+00	6.762269e-02	6.762269e-02
3.000000e+00	3.200000e+00	9.510204e-01	6.971696e-02	6.971696e-02
3.200000e+00	3.400000e+00	1.076923e+00	8.164323e-02	8.164323e-02
3.400000e+00	3.600000e+00	1.156436e+00	9.466166e-02	9.466166e-02
3.600000e+00	3.800000e+00	1.116114e+00	1.000804e-01	1.000804e-01
3.800000e+00	4.000000e+00	1.119534e+00	1.130830e-01	1.130830e-01
4.000000e+00	4.200000e+00	9.934426e-01	1.087709e-01	1.087709e-01
4.200000e+00	4.400000e+00	1.161435e+00	1.442043e-01	1.442043e-01
4.400000e+00	4.600000e+00	9.032258e-01	1.317460e-01	1.317460e-01
4.600000e+00	4.800000e+00	1.097561e+00	1.973196e-01	1.973196e-01
4.800000e+00	5.000000e+00	1.000000e+00	2.152064e-01	2.152064e-01
# END HISTO1D


# BEGIN HISTO1D //afs/cern.ch/user/z/zhijun/genValidation/old_v3/LNu_NLO_1j_NoMu_v3/merged.yoda/MC_WJETS:ENERGY=13600/jet_y_pmratio_2
ErrorBars=1
ErrorBreakdown={0: {"": {up: 0.04857096924370315, dn: 0.04857096924370315}}, 1: {"": {up: 0.0440112581589829, dn: 0.0440112581589829}}, 2: {"": {up: 0.04948865267210269, dn: 0.04948865267210269}}, 3: {"": {up: 0.047992580458951, dn: 0.047992580458951}}, 4: {"": {up: 0.04902635865287878, dn: 0.04902635865287878}}, 5: {"": {up: 0.04909343398468269, dn: 0.04909343398468269}}, 6: {"": {up: 0.05098374855944417, dn: 0.05098374855944417}}, 7: {"": {up: 0.05110728924796902, dn: 0.05110728924796902}}, 8: {"": {up: 0.05069718914422957, dn: 0.05069718914422957}}, 9: {"": {up: 0.05284513738240421, dn: 0.05284513738240421}}, 10: {"": {up: 0.0562997909239461, dn: 0.0562997909239461}}, 11: {"": {up: 0.05851247005969172, dn: 0.05851247005969172}}, 12: {"": {up: 0.06081934071082158, dn: 0.06081934071082158}}, 13: {"": {up: 0.05848501236678266, dn: 0.05848501236678266}}, 14: {"": {up: 0.0693173271437157, dn: 0.0693173271437157}}, 15: {"": {up: 0.07071079449039809, dn: 0.07071079449039809}}, 16: {"": {up: 0.07494526587619497, dn: 0.07494526587619497}}, 17: {"": {up: 0.08832317714760053, dn: 0.08832317714760053}}, 18: {"": {up: 0.1203950299814296, dn: 0.1203950299814296}}, 19: {"": {up: 0.1005510428278454, dn: 0.1005510428278454}}, 20: {"": {up: 0.1142233219680888, dn: 0.1142233219680888}}, 21: {"": {up: 0.106959733873475, dn: 0.106959733873475}}, 22: {"": {up: 0.145265944626249, dn: 0.145265944626249}}, 23: {"": {up: 0.1417240564226642, dn: 0.1417240564226642}}, 24: {"": {up: 0.1627927011765949, dn: 0.1627927011765949}}}
LineColor=blue
LineStyle=solid
Path=//afs/cern.ch/user/z/zhijun/genValidation/old_v3/LNu_NLO_1j_NoMu_v3/merged.yoda/MC_WJETS:ENERGY=13600/jet_y_pmratio_2
Title=LNu_NLO_1j(v3_5_2)
# xlow	 xhigh	 val	 errminus	 errplus
0.000000e+00	2.000000e-01	9.845679e-01	4.857097e-02	4.857097e-02
2.000000e-01	4.000000e-01	9.146974e-01	4.401126e-02	4.401126e-02
4.000000e-01	6.000000e-01	1.011765e+00	4.948865e-02	4.948865e-02
6.000000e-01	8.000000e-01	1.007273e+00	4.799258e-02	4.799258e-02
8.000000e-01	1.000000e+00	9.742268e-01	4.902636e-02	4.902636e-02
1.000000e+00	1.200000e+00	9.618672e-01	4.909343e-02	4.909343e-02
1.200000e+00	1.400000e+00	9.939435e-01	5.098375e-02	5.098375e-02
1.400000e+00	1.600000e+00	9.567988e-01	5.110729e-02	5.110729e-02
1.600000e+00	1.800000e+00	9.677645e-01	5.069719e-02	5.069719e-02
1.800000e+00	2.000000e+00	9.767790e-01	5.284514e-02	5.284514e-02
2.000000e+00	2.200000e+00	1.000000e+00	5.629979e-02	5.629979e-02
2.200000e+00	2.400000e+00	9.472727e-01	5.851247e-02	5.851247e-02
2.400000e+00	2.600000e+00	9.961127e-01	6.081934e-02	6.081934e-02
2.600000e+00	2.800000e+00	8.968335e-01	5.848501e-02	5.848501e-02
2.800000e+00	3.000000e+00	1.055879e+00	6.931733e-02	6.931733e-02
3.000000e+00	3.200000e+00	1.052830e+00	7.071079e-02	7.071079e-02
3.200000e+00	3.400000e+00	1.040462e+00	7.494527e-02	7.494527e-02
3.400000e+00	3.600000e+00	9.980393e-01	8.832318e-02	8.832318e-02
3.600000e+00	3.800000e+00	1.187335e+00	1.203950e-01	1.203950e-01
3.800000e+00	4.000000e+00	9.564033e-01	1.005510e-01	1.005510e-01
4.000000e+00	4.200000e+00	9.275862e-01	1.142233e-01	1.142233e-01
4.200000e+00	4.400000e+00	8.199234e-01	1.069597e-01	1.069597e-01
4.400000e+00	4.600000e+00	9.945055e-01	1.452659e-01	1.452659e-01
4.600000e+00	4.800000e+00	8.223684e-01	1.417241e-01	1.417241e-01
4.800000e+00	5.000000e+00	8.823530e-01	1.627927e-01	1.627927e-01
# END HISTO1D


# BEGIN HISTO1D //afs/cern.ch/user/z/zhijun/genValidation/LNu_NLO_1j_NoMu_v3/merged.yoda/MC_WJETS:ENERGY=13600/jet_y_pmratio_2
ErrorBars=1
ErrorBreakdown={0: {"": {up: 0.04615768703733321, dn: 0.04615768703733321}}, 1: {"": {up: 0.04614782740831643, dn: 0.04614782740831643}}, 2: {"": {up: 0.04730260213759869, dn: 0.04730260213759869}}, 3: {"": {up: 0.04968164123877958, dn: 0.04968164123877958}}, 4: {"": {up: 0.0488589481857167, dn: 0.0488589481857167}}, 5: {"": {up: 0.04964722680854427, dn: 0.04964722680854427}}, 6: {"": {up: 0.04934584669522038, dn: 0.04934584669522038}}, 7: {"": {up: 0.04964645132241227, dn: 0.04964645132241227}}, 8: {"": {up: 0.05405358407989522, dn: 0.05405358407989522}}, 9: {"": {up: 0.05453957191318404, dn: 0.05453957191318404}}, 10: {"": {up: 0.04978899512769042, dn: 0.04978899512769042}}, 11: {"": {up: 0.05501030675335501, dn: 0.05501030675335501}}, 12: {"": {up: 0.05621107426905343, dn: 0.05621107426905343}}, 13: {"": {up: 0.06816280373077316, dn: 0.06816280373077316}}, 14: {"": {up: 0.07286811651165644, dn: 0.07286811651165644}}, 15: {"": {up: 0.06108577102496261, dn: 0.06108577102496261}}, 16: {"": {up: 0.07470686496859487, dn: 0.07470686496859487}}, 17: {"": {up: 0.07295188146808969, dn: 0.07295188146808969}}, 18: {"": {up: 0.08541727935663489, dn: 0.08541727935663489}}, 19: {"": {up: 0.08177161826748651, dn: 0.08177161826748651}}, 20: {"": {up: 0.1051196710891365, dn: 0.1051196710891365}}, 21: {"": {up: 0.1523993494231129, dn: 0.1523993494231129}}, 22: {"": {up: 0.1205816055059616, dn: 0.1205816055059616}}, 23: {"": {up: 0.1772039015954066, dn: 0.1772039015954066}}, 24: {"": {up: 0.1777508566686072, dn: 0.1777508566686072}}}
LineColor=green
LineStyle=solid
Path=//afs/cern.ch/user/z/zhijun/genValidation/LNu_NLO_1j_NoMu_v3/merged.yoda/MC_WJETS:ENERGY=13600/jet_y_pmratio_2
Title=LNu_NLO_1j(v3_5_6)
# xlow	 xhigh	 val	 errminus	 errplus
0.000000e+00	2.000000e-01	9.642032e-01	4.615769e-02	4.615769e-02
2.000000e-01	4.000000e-01	9.897436e-01	4.614783e-02	4.614783e-02
4.000000e-01	6.000000e-01	9.906214e-01	4.730260e-02	4.730260e-02
6.000000e-01	8.000000e-01	1.018484e+00	4.968164e-02	4.968164e-02
8.000000e-01	1.000000e+00	1.020233e+00	4.885895e-02	4.885895e-02
1.000000e+00	1.200000e+00	1.013784e+00	4.964723e-02	4.964723e-02
1.200000e+00	1.400000e+00	9.631336e-01	4.934585e-02	4.934585e-02
1.400000e+00	1.600000e+00	9.617706e-01	4.964645e-02	4.964645e-02
1.600000e+00	1.800000e+00	9.985412e-01	5.405358e-02	5.405358e-02
1.800000e+00	2.000000e+00	1.010638e+00	5.453957e-02	5.453957e-02
2.000000e+00	2.200000e+00	9.141377e-01	4.978900e-02	4.978900e-02
2.200000e+00	2.400000e+00	9.689796e-01	5.501031e-02	5.501031e-02
2.400000e+00	2.600000e+00	9.663419e-01	5.621107e-02	5.621107e-02
2.600000e+00	2.800000e+00	1.104822e+00	6.816280e-02	6.816280e-02
2.800000e+00	3.000000e+00	1.071515e+00	7.286812e-02	7.286812e-02
3.000000e+00	3.200000e+00	8.469751e-01	6.108577e-02	6.108577e-02
3.200000e+00	3.400000e+00	9.554896e-01	7.470686e-02	7.470686e-02
3.400000e+00	3.600000e+00	9.290322e-01	7.295188e-02	7.295188e-02
3.600000e+00	3.800000e+00	9.351464e-01	8.541728e-02	8.541728e-02
3.800000e+00	4.000000e+00	8.242009e-01	8.177162e-02	8.177162e-02
4.000000e+00	4.200000e+00	9.483282e-01	1.051197e-01	1.051197e-01
4.200000e+00	4.400000e+00	1.212389e+00	1.523993e-01	1.523993e-01
4.400000e+00	4.600000e+00	8.915095e-01	1.205816e-01	1.205816e-01
4.600000e+00	4.800000e+00	1.098592e+00	1.772039e-01	1.772039e-01
4.800000e+00	5.000000e+00	9.829060e-01	1.777509e-01	1.777509e-01
# END HISTO1D

