# BEGIN PLOT
Legend=1
LogY=1
Title=Pseudorapidity separation between jets
LegendXPos=0.1
XLabel=$\Delta\phi(\mathrm{jet~1,~jet~2})$
YLabel=$\mathrm{d}\sigma/\mathrm{d}\Delta\phi(\mathrm{jet~1,~jet~2})$ [pb]
DrawOnly=//afs/cern.ch/user/z/zhijun/genValidation/LNu_NLO_0j_v2/merged.yoda/MC_WJETS:ENERGY=13600/jets_dphi_12 //afs/cern.ch/user/z/zhijun/genValidation/LNu_NLO_0j_v3/merged.yoda/MC_WJETS:ENERGY=13600/jets_dphi_12
LegendOnly=//afs/cern.ch/user/z/zhijun/genValidation/LNu_NLO_0j_v2/merged.yoda/MC_WJETS:ENERGY=13600/jets_dphi_12 //afs/cern.ch/user/z/zhijun/genValidation/LNu_NLO_0j_v3/merged.yoda/MC_WJETS:ENERGY=13600/jets_dphi_12
RatioPlot=1
RatioPlotReference=//afs/cern.ch/user/z/zhijun/genValidation/LNu_NLO_0j_v2/merged.yoda/MC_WJETS:ENERGY=13600/jets_dphi_12
RatioPlotYLabel=Ratio
# END PLOT

# BEGIN HISTO1D //afs/cern.ch/user/z/zhijun/genValidation/LNu_NLO_0j_v2/merged.yoda/MC_WJETS:ENERGY=13600/jets_dphi_12
ErrorBars=1
LineColor=red
LineStyle=solid
Path=//afs/cern.ch/user/z/zhijun/genValidation/LNu_NLO_0j_v2/merged.yoda/MC_WJETS:ENERGY=13600/jets_dphi_12
ScaledBy=9.98887698110747368e-07
Title=LNu_NLO_0j(v2_9_18)
# xlow	 xhigh	 val	 errminus	 errplus
0.000000e+00	1.256637e-01	1.807808e+01	3.408837e+00	3.408837e+00
1.256637e-01	2.513274e-01	1.084685e+01	2.826457e+00	2.826457e+00
2.513274e-01	3.769911e-01	1.627028e+01	3.131216e+00	3.131216e+00
3.769911e-01	5.026548e-01	2.350150e+01	4.042382e+00	4.042382e+00
5.026548e-01	6.283185e-01	1.627028e+01	3.355150e+00	3.355150e+00
6.283185e-01	7.539822e-01	1.385987e+01	3.245115e+00	3.245115e+00
7.539822e-01	8.796459e-01	2.892493e+01	4.261045e+00	4.261045e+00
8.796459e-01	1.005310e+00	2.892484e+01	4.345417e+00	4.345417e+00
1.005310e+00	1.130973e+00	3.073290e+01	4.387039e+00	4.387039e+00
1.130973e+00	1.256637e+00	3.374567e+01	5.041724e+00	5.041724e+00
1.256637e+00	1.382301e+00	3.133527e+01	4.895557e+00	4.895557e+00
1.382301e+00	1.507964e+00	3.434854e+01	4.783038e+00	4.783038e+00
1.507964e+00	1.633628e+00	4.338729e+01	5.113242e+00	5.113242e+00
1.633628e+00	1.759292e+00	3.314307e+01	4.783000e+00	4.783000e+00
1.759292e+00	1.884956e+00	3.856648e+01	5.041724e+00	5.041724e+00
1.884956e+00	2.010619e+00	4.760587e+01	5.684975e+00	5.684975e+00
2.010619e+00	2.136283e+00	4.519509e+01	5.489960e+00	5.489960e+00
2.136283e+00	2.261947e+00	4.820810e+01	5.842437e+00	5.842437e+00
2.261947e+00	2.387610e+00	6.086321e+01	6.348850e+00	6.348850e+00
2.387610e+00	2.513274e+00	6.628614e+01	6.923362e+00	6.923362e+00
2.513274e+00	2.638938e+00	8.978761e+01	8.151841e+00	8.151841e+00
2.638938e+00	2.764602e+00	1.042500e+02	8.457913e+00	8.457913e+00
2.764602e+00	2.890265e+00	1.385994e+02	1.011948e+01	1.011948e+01
2.890265e+00	3.015929e+00	1.753570e+02	1.160692e+01	1.160692e+01
3.015929e+00	3.141593e+00	2.283859e+02	1.305018e+01	1.305018e+01
# END HISTO1D


# BEGIN HISTO1D //afs/cern.ch/user/z/zhijun/genValidation/LNu_NLO_0j_v3/merged.yoda/MC_WJETS:ENERGY=13600/jets_dphi_12
ErrorBars=1
LineColor=blue
LineStyle=solid
Path=//afs/cern.ch/user/z/zhijun/genValidation/LNu_NLO_0j_v3/merged.yoda/MC_WJETS:ENERGY=13600/jets_dphi_12
ScaledBy=1.01006287099596851e-06
Title=LNu_NLO_0j(v3_5_2)
# xlow	 xhigh	 val	 errminus	 errplus
0.000000e+00	1.256637e-01	1.522968e+01	3.045935e+00	3.045935e+00
1.256637e-01	2.513274e-01	2.071236e+01	3.655123e+00	3.655123e+00
2.513274e-01	3.769911e-01	1.522968e+01	3.280573e+00	3.280573e+00
3.769911e-01	5.026548e-01	1.949399e+01	3.852838e+00	3.852838e+00
5.026548e-01	6.283185e-01	2.619504e+01	3.994707e+00	3.994707e+00
6.283185e-01	7.539822e-01	2.071236e+01	3.947984e+00	3.947984e+00
7.539822e-01	8.796459e-01	2.314911e+01	3.852838e+00	3.852838e+00
8.796459e-01	1.005310e+00	1.888474e+01	3.705529e+00	3.705529e+00
1.005310e+00	1.130973e+00	3.350548e+01	4.679281e+00	4.679281e+00
1.130973e+00	1.256637e+00	2.863172e+01	4.350455e+00	4.350455e+00
1.256637e+00	1.382301e+00	2.802254e+01	4.392900e+00	4.392900e+00
1.382301e+00	1.507964e+00	3.472386e+01	4.911451e+00	4.911451e+00
1.507964e+00	1.633628e+00	2.985010e+01	4.911412e+00	4.911412e+00
1.633628e+00	1.759292e+00	4.934404e+01	5.937607e+00	5.937607e+00
1.759292e+00	1.884956e+00	4.081544e+01	5.204884e+00	5.204884e+00
1.884956e+00	2.010619e+00	4.081576e+01	5.345625e+00	5.345625e+00
2.010619e+00	2.136283e+00	5.299916e+01	5.999783e+00	5.999783e+00
2.136283e+00	2.261947e+00	5.909101e+01	6.418169e+00	6.418169e+00
2.261947e+00	2.387610e+00	5.543633e+01	6.360135e+00	6.360135e+00
2.387610e+00	2.513274e+00	7.553902e+01	7.051834e+00	7.051834e+00
2.513274e+00	2.638938e+00	8.163086e+01	7.608726e+00	7.608726e+00
2.638938e+00	2.764602e+00	1.059983e+02	9.117456e+00	9.117456e+00
2.764602e+00	2.890265e+00	1.407230e+02	1.017549e+01	1.017549e+01
2.890265e+00	3.015929e+00	1.882384e+02	1.189083e+01	1.189083e+01
3.015929e+00	3.141593e+00	2.692601e+02	1.383804e+01	1.383804e+01
# END HISTO1D

