# BEGIN PLOT
Legend=1
LogY=1
Title=Inclusive jet multiplicity
XLabel=$N_{\mathrm{jet}}$
YLabel=$\sigma(\geq N_{\mathrm{jet}})$ [pb]
XMajorTickMarks=10
XMinorTickMarks=0
ErrorBands=1
DrawOnly=//afs/cern.ch/user/z/zhijun/genValidation/LNu_NLO_1j_v2/merged.yoda/MC_WJETS:ENERGY=13600/jet_multi_inclusive //afs/cern.ch/user/z/zhijun/genValidation/LNu_NLO_1j_v3/merged.yoda/MC_WJETS:ENERGY=13600/jet_multi_inclusive
LegendOnly=//afs/cern.ch/user/z/zhijun/genValidation/LNu_NLO_1j_v2/merged.yoda/MC_WJETS:ENERGY=13600/jet_multi_inclusive //afs/cern.ch/user/z/zhijun/genValidation/LNu_NLO_1j_v3/merged.yoda/MC_WJETS:ENERGY=13600/jet_multi_inclusive
RatioPlot=1
RatioPlotReference=//afs/cern.ch/user/z/zhijun/genValidation/LNu_NLO_1j_v2/merged.yoda/MC_WJETS:ENERGY=13600/jet_multi_inclusive
RatioPlotYLabel=Ratio
# END PLOT

# BEGIN HISTO1D //afs/cern.ch/user/z/zhijun/genValidation/LNu_NLO_1j_v2/merged.yoda/MC_WJETS:ENERGY=13600/jet_multi_inclusive
ErrorBars=1
LineColor=red
LineStyle=solid
Path=//afs/cern.ch/user/z/zhijun/genValidation/LNu_NLO_1j_v2/merged.yoda/MC_WJETS:ENERGY=13600/jet_multi_inclusive
ScaledBy=9.94774526707283853e-07
Title=LNu_NLO_1j(v2_9_18)
# xlow	 xhigh	 val	 errminus	 errplus
-5.000000e-01	5.000000e-01	1.347953e+03	1.645795e+01	1.645795e+01
5.000000e-01	1.500000e+00	1.323407e+03	1.623602e+01	1.623602e+01
1.500000e+00	2.500000e+00	2.998554e+02	7.353163e+00	7.353163e+00
2.500000e+00	3.500000e+00	4.707200e+01	2.801532e+00	2.801532e+00
3.500000e+00	4.500000e+00	8.182249e+00	1.126715e+00	1.126715e+00
4.500000e+00	5.500000e+00	1.443926e+00	4.411267e-01	4.411267e-01
5.500000e+00	6.500000e+00	0.000000e+00	0.000000e+00	0.000000e+00
# END HISTO1D


# BEGIN HISTO1D //afs/cern.ch/user/z/zhijun/genValidation/LNu_NLO_1j_v3/merged.yoda/MC_WJETS:ENERGY=13600/jet_multi_inclusive
ErrorBars=1
LineColor=blue
LineStyle=solid
Path=//afs/cern.ch/user/z/zhijun/genValidation/LNu_NLO_1j_v3/merged.yoda/MC_WJETS:ENERGY=13600/jet_multi_inclusive
ScaledBy=1.01782050894770904e-06
Title=LNu_NLO_1j(v3_5_2)
# xlow	 xhigh	 val	 errminus	 errplus
-5.000000e-01	5.000000e-01	1.323663e+03	1.533740e+01	1.533740e+01
5.000000e-01	1.500000e+00	1.301758e+03	1.514425e+01	1.514425e+01
1.500000e+00	2.500000e+00	2.951559e+02	7.005765e+00	7.005765e+00
2.500000e+00	3.500000e+00	4.424720e+01	2.708264e+00	2.708264e+00
3.500000e+00	4.500000e+00	5.934535e+00	1.032623e+00	1.032623e+00
4.500000e+00	5.500000e+00	1.309089e+00	4.859132e-01	4.859132e-01
5.500000e+00	6.500000e+00	0.000000e+00	0.000000e+00	0.000000e+00
# END HISTO1D

