# BEGIN PLOT
Legend=1
LogY=1
Title=Pseudorapidity separation between jets
LegendYPos=0.5
LegendXPos=0.30
XLabel=$\Delta\eta(\mathrm{jet~1,~jet~2})$
YLabel=$\mathrm{d}\sigma/\mathrm{d}\Delta\eta(\mathrm{jet~1,~jet~2})$ [pb]
DrawOnly=//afs/cern.ch/user/z/zhijun/genValidation/LNu_NLO_1j_v2/merged.yoda/MC_WJETS:ENERGY=13600/jets_deta_12 //afs/cern.ch/user/z/zhijun/genValidation/LNu_NLO_1j_v3/merged.yoda/MC_WJETS:ENERGY=13600/jets_deta_12
LegendOnly=//afs/cern.ch/user/z/zhijun/genValidation/LNu_NLO_1j_v2/merged.yoda/MC_WJETS:ENERGY=13600/jets_deta_12 //afs/cern.ch/user/z/zhijun/genValidation/LNu_NLO_1j_v3/merged.yoda/MC_WJETS:ENERGY=13600/jets_deta_12
RatioPlot=1
RatioPlotReference=//afs/cern.ch/user/z/zhijun/genValidation/LNu_NLO_1j_v2/merged.yoda/MC_WJETS:ENERGY=13600/jets_deta_12
RatioPlotYLabel=Ratio
# END PLOT

# BEGIN HISTO1D //afs/cern.ch/user/z/zhijun/genValidation/LNu_NLO_1j_v2/merged.yoda/MC_WJETS:ENERGY=13600/jets_deta_12
ErrorBars=1
LineColor=red
LineStyle=solid
Path=//afs/cern.ch/user/z/zhijun/genValidation/LNu_NLO_1j_v2/merged.yoda/MC_WJETS:ENERGY=13600/jets_deta_12
ScaledBy=9.94774526707283853e-07
Title=LNu_NLO_1j(v2_9_18)
# xlow	 xhigh	 val	 errminus	 errplus
-5.000000e+00	-4.600000e+00	7.700940e+00	1.864101e+00	1.864101e+00
-4.600000e+00	-4.200000e+00	9.626175e+00	2.152478e+00	2.152478e+00
-4.200000e+00	-3.800000e+00	1.275468e+01	2.320787e+00	2.320787e+00
-3.800000e+00	-3.400000e+00	1.901170e+01	2.754416e+00	2.754416e+00
-3.400000e+00	-3.000000e+00	2.310282e+01	2.887853e+00	2.887853e+00
-3.000000e+00	-2.600000e+00	2.382478e+01	3.308450e+00	3.308450e+00
-2.600000e+00	-2.200000e+00	3.393228e+01	3.577585e+00	3.577585e+00
-2.200000e+00	-1.800000e+00	4.067060e+01	3.857984e+00	3.857984e+00
-1.800000e+00	-1.400000e+00	3.176637e+01	3.983539e+00	3.983539e+00
-1.400000e+00	-1.000000e+00	3.946733e+01	4.223467e+00	4.223467e+00
-1.000000e+00	-6.000000e-01	5.125937e+01	4.734229e+00	4.734229e+00
-6.000000e-01	-2.000000e-01	5.944163e+01	5.222810e+00	5.222810e+00
-2.000000e-01	2.000000e-01	4.668695e+01	5.025011e+00	5.025011e+00
2.000000e-01	6.000000e-01	5.751640e+01	5.222811e+00	5.222811e+00
6.000000e-01	1.000000e+00	4.283647e+01	4.527885e+00	4.527885e+00
1.000000e+00	1.400000e+00	4.018928e+01	4.133375e+00	4.133375e+00
1.400000e+00	1.800000e+00	3.128507e+01	4.041275e+00	4.041275e+00
1.800000e+00	2.200000e+00	2.887852e+01	3.759142e+00	3.759142e+00
2.200000e+00	2.600000e+00	2.454675e+01	3.386307e+00	3.386307e+00
2.600000e+00	3.000000e+00	2.550938e+01	3.487413e+00	3.487413e+00
3.000000e+00	3.400000e+00	2.286217e+01	2.996122e+00	2.996122e+00
3.400000e+00	3.800000e+00	1.612384e+01	2.690598e+00	2.690598e+00
3.800000e+00	4.200000e+00	1.010748e+01	2.257538e+00	2.257538e+00
4.200000e+00	4.600000e+00	9.385520e+00	1.910135e+00	1.910135e+00
4.600000e+00	5.000000e+00	5.535050e+00	1.578076e+00	1.578076e+00
# END HISTO1D


# BEGIN HISTO1D //afs/cern.ch/user/z/zhijun/genValidation/LNu_NLO_1j_v3/merged.yoda/MC_WJETS:ENERGY=13600/jets_deta_12
ErrorBars=1
LineColor=blue
LineStyle=solid
Path=//afs/cern.ch/user/z/zhijun/genValidation/LNu_NLO_1j_v3/merged.yoda/MC_WJETS:ENERGY=13600/jets_deta_12
ScaledBy=1.01782050894770904e-06
Title=LNu_NLO_1j(v3_5_2)
# xlow	 xhigh	 val	 errminus	 errplus
-5.000000e+00	-4.600000e+00	1.025453e+01	1.759035e+00	1.759035e+00
-4.600000e+00	-4.200000e+00	6.763625e+00	1.939239e+00	1.939239e+00
-4.200000e+00	-3.800000e+00	1.636361e+01	2.419749e+00	2.419749e+00
-3.800000e+00	-3.400000e+00	1.789088e+01	2.672166e+00	2.672166e+00
-3.400000e+00	-3.000000e+00	2.705450e+01	2.878011e+00	2.878011e+00
-3.000000e+00	-2.600000e+00	2.639995e+01	3.184253e+00	3.184253e+00
-2.600000e+00	-2.200000e+00	2.487269e+01	3.323241e+00	3.323241e+00
-2.200000e+00	-1.800000e+00	3.229085e+01	3.531575e+00	3.531575e+00
-1.800000e+00	-1.400000e+00	3.054540e+01	3.676859e+00	3.676859e+00
-1.400000e+00	-1.000000e+00	3.665448e+01	4.128187e+00	4.128187e+00
-1.000000e+00	-6.000000e-01	4.821810e+01	4.466063e+00	4.466063e+00
-6.000000e-01	-2.000000e-01	4.036358e+01	4.725026e+00	4.725026e+00
-2.000000e-01	2.000000e-01	4.930900e+01	4.628328e+00	4.628328e+00
2.000000e-01	6.000000e-01	5.759990e+01	5.079459e+00	5.079459e+00
6.000000e-01	1.000000e+00	4.210903e+01	4.401645e+00	4.401645e+00
1.000000e+00	1.400000e+00	3.425448e+01	3.981438e+00	3.981438e+00
1.400000e+00	1.800000e+00	4.058175e+01	3.728286e+00	3.728286e+00
1.800000e+00	2.200000e+00	2.770905e+01	3.373003e+00	3.373003e+00
2.200000e+00	2.600000e+00	3.272723e+01	3.435925e+00	3.435925e+00
2.600000e+00	3.000000e+00	2.530905e+01	3.161750e+00	3.161750e+00
3.000000e+00	3.400000e+00	2.159996e+01	3.108607e+00	3.108607e+00
3.400000e+00	3.800000e+00	2.094542e+01	2.794085e+00	2.794085e+00
3.800000e+00	4.200000e+00	1.549088e+01	2.319301e+00	2.319301e+00
4.200000e+00	4.600000e+00	1.025453e+01	2.011533e+00	2.011533e+00
4.600000e+00	5.000000e+00	8.072712e+00	1.588385e+00	1.588385e+00
# END HISTO1D

