# BEGIN PLOT
Legend=1
LogY=1
Title=Inclusive electron multiplicity
XLabel=$N_{\mathrm{electron}}$
YLabel=$\sigma(\geq N_{\mathrm{electron}})$ [pb]
XMajorTickMarks=10
XMinorTickMarks=0
ErrorBands=1
DrawOnly=//afs/cern.ch/user/z/zhijun/genValidation/LNu_LO_1j_v2/merged.yoda/MC_ELECTRONS:ENERGY=13600/electron_multi_inclusive //afs/cern.ch/user/z/zhijun/genValidation/old_v3/LNu_LO_1j_v3/merged.yoda/MC_ELECTRONS:ENERGY=13600/electron_multi_inclusive //afs/cern.ch/user/z/zhijun/genValidation/LNu_LO_1j_v3/merged.yoda/MC_ELECTRONS:ENERGY=13600/electron_multi_inclusive
LegendOnly=//afs/cern.ch/user/z/zhijun/genValidation/LNu_LO_1j_v2/merged.yoda/MC_ELECTRONS:ENERGY=13600/electron_multi_inclusive //afs/cern.ch/user/z/zhijun/genValidation/old_v3/LNu_LO_1j_v3/merged.yoda/MC_ELECTRONS:ENERGY=13600/electron_multi_inclusive //afs/cern.ch/user/z/zhijun/genValidation/LNu_LO_1j_v3/merged.yoda/MC_ELECTRONS:ENERGY=13600/electron_multi_inclusive
RatioPlot=1
RatioPlotReference=//afs/cern.ch/user/z/zhijun/genValidation/LNu_LO_1j_v2/merged.yoda/MC_ELECTRONS:ENERGY=13600/electron_multi_inclusive
RatioPlotYLabel=Ratio
# END PLOT

# BEGIN HISTO1D //afs/cern.ch/user/z/zhijun/genValidation/LNu_LO_1j_v2/merged.yoda/MC_ELECTRONS:ENERGY=13600/electron_multi_inclusive
ErrorBars=1
LineColor=red
LineStyle=solid
Path=//afs/cern.ch/user/z/zhijun/genValidation/LNu_LO_1j_v2/merged.yoda/MC_ELECTRONS:ENERGY=13600/electron_multi_inclusive
ScaledBy=3.84269747225734967e-02
Title=LNu_LO_1j(v2_9_18)
# xlow	 xhigh	 val	 errminus	 errplus
-5.000000e-01	5.000000e-01	7.292133e+03	1.673961e+01	1.673961e+01
5.000000e-01	1.500000e+00	3.747591e+03	1.200036e+01	1.200036e+01
1.500000e+00	2.500000e+00	7.998575e+02	5.544015e+00	5.544015e+00
2.500000e+00	3.500000e+00	1.725755e+02	2.575181e+00	2.575181e+00
3.500000e+00	4.500000e+00	0.000000e+00	0.000000e+00	0.000000e+00
# END HISTO1D


# BEGIN HISTO1D //afs/cern.ch/user/z/zhijun/genValidation/old_v3/LNu_LO_1j_v3/merged.yoda/MC_ELECTRONS:ENERGY=13600/electron_multi_inclusive
ErrorBars=1
LineColor=blue
LineStyle=solid
Path=//afs/cern.ch/user/z/zhijun/genValidation/old_v3/LNu_LO_1j_v3/merged.yoda/MC_ELECTRONS:ENERGY=13600/electron_multi_inclusive
ScaledBy=3.72766293670276361e-02
Title=LNu_LO_1j(v3_5_2)
# xlow	 xhigh	 val	 errminus	 errplus
-5.000000e-01	5.000000e-01	7.279604e+03	1.647298e+01	1.647298e+01
5.000000e-01	1.500000e+00	3.736386e+03	1.180169e+01	1.180169e+01
1.500000e+00	2.500000e+00	7.862014e+02	5.413588e+00	5.413588e+00
2.500000e+00	3.500000e+00	1.758339e+02	2.560175e+00	2.560175e+00
3.500000e+00	4.500000e+00	0.000000e+00	0.000000e+00	0.000000e+00
# END HISTO1D


# BEGIN HISTO1D //afs/cern.ch/user/z/zhijun/genValidation/LNu_LO_1j_v3/merged.yoda/MC_ELECTRONS:ENERGY=13600/electron_multi_inclusive
ErrorBars=1
LineColor=green
LineStyle=solid
Path=//afs/cern.ch/user/z/zhijun/genValidation/LNu_LO_1j_v3/merged.yoda/MC_ELECTRONS:ENERGY=13600/electron_multi_inclusive
ScaledBy=3.80242913615324654e-02
Title=LNu_LO_1j(v3_5_6)
# xlow	 xhigh	 val	 errminus	 errplus
-5.000000e-01	5.000000e-01	7.273667e+03	1.663057e+01	1.663057e+01
5.000000e-01	1.500000e+00	3.732921e+03	1.191393e+01	1.191393e+01
1.500000e+00	2.500000e+00	7.896505e+02	5.479589e+00	5.479589e+00
2.500000e+00	3.500000e+00	1.722500e+02	2.559235e+00	2.559235e+00
3.500000e+00	4.500000e+00	0.000000e+00	0.000000e+00	0.000000e+00
# END HISTO1D

