# BEGIN PLOT
Legend=1
LogY=1
Title=Pseudorapidity $+/-$ ratio of first electron
XLabel=$|\eta(\mathrm{e1}|$
YLabel=$\eta(\mathrm{e1})_+/\eta(\mathrm{e1})_-$
DrawOnly=//afs/cern.ch/user/z/zhijun/genValidation/LNu_LO_1j_v2/merged.yoda/MC_ELECTRONS:ENERGY=13600/electron_eta_pmratio_1 //afs/cern.ch/user/z/zhijun/genValidation/old_v3/LNu_LO_1j_v3/merged.yoda/MC_ELECTRONS:ENERGY=13600/electron_eta_pmratio_1 //afs/cern.ch/user/z/zhijun/genValidation/LNu_LO_1j_v3/merged.yoda/MC_ELECTRONS:ENERGY=13600/electron_eta_pmratio_1
LegendOnly=//afs/cern.ch/user/z/zhijun/genValidation/LNu_LO_1j_v2/merged.yoda/MC_ELECTRONS:ENERGY=13600/electron_eta_pmratio_1 //afs/cern.ch/user/z/zhijun/genValidation/old_v3/LNu_LO_1j_v3/merged.yoda/MC_ELECTRONS:ENERGY=13600/electron_eta_pmratio_1 //afs/cern.ch/user/z/zhijun/genValidation/LNu_LO_1j_v3/merged.yoda/MC_ELECTRONS:ENERGY=13600/electron_eta_pmratio_1
RatioPlot=1
RatioPlotReference=//afs/cern.ch/user/z/zhijun/genValidation/LNu_LO_1j_v2/merged.yoda/MC_ELECTRONS:ENERGY=13600/electron_eta_pmratio_1
RatioPlotYLabel=Ratio
# END PLOT

# BEGIN HISTO1D //afs/cern.ch/user/z/zhijun/genValidation/LNu_LO_1j_v2/merged.yoda/MC_ELECTRONS:ENERGY=13600/electron_eta_pmratio_1
ErrorBars=1
ErrorBreakdown={0: {"": {up: 0.02713910432587369, dn: 0.02713910432587369}}, 1: {"": {up: 0.02650431187698109, dn: 0.02650431187698109}}, 2: {"": {up: 0.02661661156313529, dn: 0.02661661156313529}}, 3: {"": {up: 0.02692392374213021, dn: 0.02692392374213021}}, 4: {"": {up: 0.0266495204736718, dn: 0.0266495204736718}}, 5: {"": {up: 0.02780434199085462, dn: 0.02780434199085462}}, 6: {"": {up: 0.02741870711119622, dn: 0.02741870711119622}}, 7: {"": {up: 0.02844636871817008, dn: 0.02844636871817008}}, 8: {"": {up: 0.02612214793754523, dn: 0.02612214793754523}}, 9: {"": {up: 0.02894755353587475, dn: 0.02894755353587475}}, 10: {"": {up: 0.02874141507612185, dn: 0.02874141507612185}}, 11: {"": {up: 0.02927600090174928, dn: 0.02927600090174928}}, 12: {"": {up: 0.0310471508516521, dn: 0.0310471508516521}}, 13: {"": {up: 0.03153209002862969, dn: 0.03153209002862969}}, 14: {"": {up: 0.03184993819862562, dn: 0.03184993819862562}}, 15: {"": {up: 0.03449632591218459, dn: 0.03449632591218459}}, 16: {"": {up: 0.03630876642820807, dn: 0.03630876642820807}}, 17: {"": {up: 0.03921216756986776, dn: 0.03921216756986776}}, 18: {"": {up: 0.04001619254850429, dn: 0.04001619254850429}}, 19: {"": {up: 0.0471857905888924, dn: 0.0471857905888924}}, 20: {"": {up: 0.05335115398072144, dn: 0.05335115398072144}}, 21: {"": {up: 0.05759289697058464, dn: 0.05759289697058464}}, 22: {"": {up: 0.06537101178191436, dn: 0.06537101178191436}}, 23: {"": {up: 0.07247945207751709, dn: 0.07247945207751709}}, 24: {"": {up: 0.07504290686848904, dn: 0.07504290686848904}}}
LineColor=red
LineStyle=solid
Path=//afs/cern.ch/user/z/zhijun/genValidation/LNu_LO_1j_v2/merged.yoda/MC_ELECTRONS:ENERGY=13600/electron_eta_pmratio_1
Title=LNu_LO_1j(v2_9_18)
# xlow	 xhigh	 val	 errminus	 errplus
0.000000e+00	2.000000e-01	1.028592e+00	2.713910e-02	2.713910e-02
2.000000e-01	4.000000e-01	9.964689e-01	2.650431e-02	2.650431e-02
4.000000e-01	6.000000e-01	1.004224e+00	2.661661e-02	2.661661e-02
6.000000e-01	8.000000e-01	1.001447e+00	2.692392e-02	2.692392e-02
8.000000e-01	1.000000e+00	1.004935e+00	2.664952e-02	2.664952e-02
1.000000e+00	1.200000e+00	1.018428e+00	2.780434e-02	2.780434e-02
1.200000e+00	1.400000e+00	1.016862e+00	2.741871e-02	2.741871e-02
1.400000e+00	1.600000e+00	1.030549e+00	2.844637e-02	2.844637e-02
1.600000e+00	1.800000e+00	9.351433e-01	2.612215e-02	2.612215e-02
1.800000e+00	2.000000e+00	1.023077e+00	2.894755e-02	2.894755e-02
2.000000e+00	2.200000e+00	9.950062e-01	2.874142e-02	2.874142e-02
2.200000e+00	2.400000e+00	1.010961e+00	2.927600e-02	2.927600e-02
2.400000e+00	2.600000e+00	1.034356e+00	3.104715e-02	3.104715e-02
2.600000e+00	2.800000e+00	1.016966e+00	3.153209e-02	3.153209e-02
2.800000e+00	3.000000e+00	9.954035e-01	3.184994e-02	3.184994e-02
3.000000e+00	3.200000e+00	1.015125e+00	3.449633e-02	3.449633e-02
3.200000e+00	3.400000e+00	9.946844e-01	3.630877e-02	3.630877e-02
3.400000e+00	3.600000e+00	9.898517e-01	3.921217e-02	3.921217e-02
3.600000e+00	3.800000e+00	9.517241e-01	4.001619e-02	4.001619e-02
3.800000e+00	4.000000e+00	1.013100e+00	4.718579e-02	4.718579e-02
4.000000e+00	4.200000e+00	1.041499e+00	5.335115e-02	5.335115e-02
4.200000e+00	4.400000e+00	1.020900e+00	5.759290e-02	5.759290e-02
4.400000e+00	4.600000e+00	1.004246e+00	6.537101e-02	6.537101e-02
4.600000e+00	4.800000e+00	1.017903e+00	7.247945e-02	7.247945e-02
4.800000e+00	5.000000e+00	9.674556e-01	7.504291e-02	7.504291e-02
# END HISTO1D


# BEGIN HISTO1D //afs/cern.ch/user/z/zhijun/genValidation/old_v3/LNu_LO_1j_v3/merged.yoda/MC_ELECTRONS:ENERGY=13600/electron_eta_pmratio_1
ErrorBars=1
ErrorBreakdown={0: {"": {up: 0.02462844837464202, dn: 0.02462844837464202}}, 1: {"": {up: 0.0263794003597811, dn: 0.0263794003597811}}, 2: {"": {up: 0.02623616184273881, dn: 0.02623616184273881}}, 3: {"": {up: 0.02670087730762691, dn: 0.02670087730762691}}, 4: {"": {up: 0.02670525563856543, dn: 0.02670525563856543}}, 5: {"": {up: 0.02539205492941408, dn: 0.02539205492941408}}, 6: {"": {up: 0.02664535889924772, dn: 0.02664535889924772}}, 7: {"": {up: 0.02681626661598831, dn: 0.02681626661598831}}, 8: {"": {up: 0.02747190403862741, dn: 0.02747190403862741}}, 9: {"": {up: 0.02696749354518951, dn: 0.02696749354518951}}, 10: {"": {up: 0.02941286005793898, dn: 0.02941286005793898}}, 11: {"": {up: 0.02831765803909307, dn: 0.02831765803909307}}, 12: {"": {up: 0.02919572387012318, dn: 0.02919572387012318}}, 13: {"": {up: 0.02999636375452341, dn: 0.02999636375452341}}, 14: {"": {up: 0.03153304738238295, dn: 0.03153304738238295}}, 15: {"": {up: 0.03351974577233786, dn: 0.03351974577233786}}, 16: {"": {up: 0.0370198945321384, dn: 0.0370198945321384}}, 17: {"": {up: 0.0382299619320727, dn: 0.0382299619320727}}, 18: {"": {up: 0.04631619937882508, dn: 0.04631619937882508}}, 19: {"": {up: 0.04522342770648877, dn: 0.04522342770648877}}, 20: {"": {up: 0.05063218193583911, dn: 0.05063218193583911}}, 21: {"": {up: 0.06243842306905141, dn: 0.06243842306905141}}, 22: {"": {up: 0.05889856918247387, dn: 0.05889856918247387}}, 23: {"": {up: 0.07017332282152056, dn: 0.07017332282152056}}, 24: {"": {up: 0.07614520072025936, dn: 0.07614520072025936}}}
LineColor=blue
LineStyle=solid
Path=//afs/cern.ch/user/z/zhijun/genValidation/old_v3/LNu_LO_1j_v3/merged.yoda/MC_ELECTRONS:ENERGY=13600/electron_eta_pmratio_1
Title=LNu_LO_1j(v3_5_2)
# xlow	 xhigh	 val	 errminus	 errplus
0.000000e+00	2.000000e-01	9.506052e-01	2.462845e-02	2.462845e-02
2.000000e-01	4.000000e-01	9.957983e-01	2.637940e-02	2.637940e-02
4.000000e-01	6.000000e-01	9.895105e-01	2.623616e-02	2.623616e-02
6.000000e-01	8.000000e-01	1.019058e+00	2.670088e-02	2.670088e-02
8.000000e-01	1.000000e+00	1.016696e+00	2.670526e-02	2.670526e-02
1.000000e+00	1.200000e+00	9.696151e-01	2.539205e-02	2.539205e-02
1.200000e+00	1.400000e+00	1.000000e+00	2.664536e-02	2.664536e-02
1.400000e+00	1.600000e+00	9.934641e-01	2.681627e-02	2.681627e-02
1.600000e+00	1.800000e+00	1.010769e+00	2.747190e-02	2.747190e-02
1.800000e+00	2.000000e+00	9.816822e-01	2.696749e-02	2.696749e-02
2.000000e+00	2.200000e+00	1.044939e+00	2.941286e-02	2.941286e-02
2.200000e+00	2.400000e+00	9.881633e-01	2.831766e-02	2.831766e-02
2.400000e+00	2.600000e+00	9.856272e-01	2.919572e-02	2.919572e-02
2.600000e+00	2.800000e+00	9.786245e-01	2.999636e-02	2.999636e-02
2.800000e+00	3.000000e+00	9.687174e-01	3.153305e-02	3.153305e-02
3.000000e+00	3.200000e+00	1.003354e+00	3.351975e-02	3.351975e-02
3.200000e+00	3.400000e+00	1.030144e+00	3.701989e-02	3.701989e-02
3.400000e+00	3.600000e+00	9.865772e-01	3.822996e-02	3.822996e-02
3.600000e+00	3.800000e+00	1.088679e+00	4.631620e-02	4.631620e-02
3.800000e+00	4.000000e+00	9.842932e-01	4.522343e-02	4.522343e-02
4.000000e+00	4.200000e+00	9.895833e-01	5.063218e-02	5.063218e-02
4.200000e+00	4.400000e+00	1.073555e+00	6.243842e-02	6.243842e-02
4.400000e+00	4.600000e+00	9.282946e-01	5.889857e-02	5.889857e-02
4.600000e+00	4.800000e+00	1.014458e+00	7.017332e-02	7.017332e-02
4.800000e+00	5.000000e+00	9.728097e-01	7.614520e-02	7.614520e-02
# END HISTO1D


# BEGIN HISTO1D //afs/cern.ch/user/z/zhijun/genValidation/LNu_LO_1j_v3/merged.yoda/MC_ELECTRONS:ENERGY=13600/electron_eta_pmratio_1
ErrorBars=1
ErrorBreakdown={0: {"": {up: 0.0277362812334246, dn: 0.0277362812334246}}, 1: {"": {up: 0.02695921349714923, dn: 0.02695921349714923}}, 2: {"": {up: 0.02720397618880166, dn: 0.02720397618880166}}, 3: {"": {up: 0.02649990109481715, dn: 0.02649990109481715}}, 4: {"": {up: 0.02554519520047614, dn: 0.02554519520047614}}, 5: {"": {up: 0.02631688528767728, dn: 0.02631688528767728}}, 6: {"": {up: 0.02701444381688373, dn: 0.02701444381688373}}, 7: {"": {up: 0.02727469638940922, dn: 0.02727469638940922}}, 8: {"": {up: 0.02726544879416895, dn: 0.02726544879416895}}, 9: {"": {up: 0.02644452325437755, dn: 0.02644452325437755}}, 10: {"": {up: 0.02868151818989965, dn: 0.02868151818989965}}, 11: {"": {up: 0.02907558690150362, dn: 0.02907558690150362}}, 12: {"": {up: 0.02953287051001011, dn: 0.02953287051001011}}, 13: {"": {up: 0.0308054088975551, dn: 0.0308054088975551}}, 14: {"": {up: 0.0315646315262756, dn: 0.0315646315262756}}, 15: {"": {up: 0.03212911805531685, dn: 0.03212911805531685}}, 16: {"": {up: 0.03633847785365229, dn: 0.03633847785365229}}, 17: {"": {up: 0.03698804279612844, dn: 0.03698804279612844}}, 18: {"": {up: 0.04392266532646034, dn: 0.04392266532646034}}, 19: {"": {up: 0.04382314152490198, dn: 0.04382314152490198}}, 20: {"": {up: 0.04668598138528179, dn: 0.04668598138528179}}, 21: {"": {up: 0.05987778087330494, dn: 0.05987778087330494}}, 22: {"": {up: 0.07095449691934334, dn: 0.07095449691934334}}, 23: {"": {up: 0.07262667064682569, dn: 0.07262667064682569}}, 24: {"": {up: 0.09878334860545014, dn: 0.09878334860545014}}}
LineColor=green
LineStyle=solid
Path=//afs/cern.ch/user/z/zhijun/genValidation/LNu_LO_1j_v3/merged.yoda/MC_ELECTRONS:ENERGY=13600/electron_eta_pmratio_1
Title=LNu_LO_1j(v3_5_6)
# xlow	 xhigh	 val	 errminus	 errplus
0.000000e+00	2.000000e-01	1.047021e+00	2.773628e-02	2.773628e-02
2.000000e-01	4.000000e-01	1.027894e+00	2.695921e-02	2.695921e-02
4.000000e-01	6.000000e-01	1.020459e+00	2.720398e-02	2.720398e-02
6.000000e-01	8.000000e-01	9.985925e-01	2.649990e-02	2.649990e-02
8.000000e-01	1.000000e+00	9.681507e-01	2.554520e-02	2.554520e-02
1.000000e+00	1.200000e+00	9.725632e-01	2.631689e-02	2.631689e-02
1.200000e+00	1.400000e+00	1.003268e+00	2.701444e-02	2.701444e-02
1.400000e+00	1.600000e+00	1.000372e+00	2.727470e-02	2.727470e-02
1.600000e+00	1.800000e+00	9.867273e-01	2.726545e-02	2.726545e-02
1.800000e+00	2.000000e+00	9.538462e-01	2.644452e-02	2.644452e-02
2.000000e+00	2.200000e+00	9.770017e-01	2.868152e-02	2.868152e-02
2.200000e+00	2.400000e+00	9.918699e-01	2.907559e-02	2.907559e-02
2.400000e+00	2.600000e+00	9.956102e-01	2.953287e-02	2.953287e-02
2.600000e+00	2.800000e+00	9.966619e-01	3.080541e-02	3.080541e-02
2.800000e+00	3.000000e+00	9.767802e-01	3.156463e-02	3.156463e-02
3.000000e+00	3.200000e+00	9.480157e-01	3.212912e-02	3.212912e-02
3.200000e+00	3.400000e+00	9.940040e-01	3.633848e-02	3.633848e-02
3.400000e+00	3.600000e+00	9.537445e-01	3.698804e-02	3.698804e-02
3.600000e+00	3.800000e+00	1.010446e+00	4.392267e-02	4.392267e-02
3.800000e+00	4.000000e+00	9.502591e-01	4.382314e-02	4.382314e-02
4.000000e+00	4.200000e+00	9.349398e-01	4.668598e-02	4.668598e-02
4.200000e+00	4.400000e+00	1.057661e+00	5.987778e-02	5.987778e-02
4.400000e+00	4.600000e+00	1.109677e+00	7.095450e-02	7.095450e-02
4.600000e+00	4.800000e+00	9.837838e-01	7.262667e-02	7.262667e-02
4.800000e+00	5.000000e+00	1.257732e+00	9.878335e-02	9.878335e-02
# END HISTO1D

