# BEGIN PLOT
Legend=1
LogY=1
Title=Pseudorapidity $+/-$ ratio of first muon
XLabel=$|\eta(\mu\mathrm{1}|$
YLabel=$\eta(\mu\mathrm{1})_+/\eta(\mu\mathrm{1})_-$
DrawOnly=//afs/cern.ch/user/z/zhijun/genValidation/LNu_LO_3j_v2/merged.yoda/MC_MUONS:ENERGY=13600/muon_eta_pmratio_1 //afs/cern.ch/user/z/zhijun/genValidation/LNu_LO_3j_v3/merged.yoda/MC_MUONS:ENERGY=13600/muon_eta_pmratio_1
LegendOnly=//afs/cern.ch/user/z/zhijun/genValidation/LNu_LO_3j_v2/merged.yoda/MC_MUONS:ENERGY=13600/muon_eta_pmratio_1 //afs/cern.ch/user/z/zhijun/genValidation/LNu_LO_3j_v3/merged.yoda/MC_MUONS:ENERGY=13600/muon_eta_pmratio_1
RatioPlot=1
RatioPlotReference=//afs/cern.ch/user/z/zhijun/genValidation/LNu_LO_3j_v2/merged.yoda/MC_MUONS:ENERGY=13600/muon_eta_pmratio_1
RatioPlotYLabel=Ratio
# END PLOT

# BEGIN HISTO1D //afs/cern.ch/user/z/zhijun/genValidation/LNu_LO_3j_v2/merged.yoda/MC_MUONS:ENERGY=13600/muon_eta_pmratio_1
ErrorBars=1
ErrorBreakdown={0: {"": {up: 0.04936835336517319, dn: 0.04936835336517319}}, 1: {"": {up: 0.05150519012308083, dn: 0.05150519012308083}}, 2: {"": {up: 0.04997640757059639, dn: 0.04997640757059639}}, 3: {"": {up: 0.0486633098749683, dn: 0.0486633098749683}}, 4: {"": {up: 0.05602703601006149, dn: 0.05602703601006149}}, 5: {"": {up: 0.04889216004287029, dn: 0.04889216004287029}}, 6: {"": {up: 0.0462798165771209, dn: 0.0462798165771209}}, 7: {"": {up: 0.0468899700364804, dn: 0.0468899700364804}}, 8: {"": {up: 0.05351311231228405, dn: 0.05351311231228405}}, 9: {"": {up: 0.05358493847194856, dn: 0.05358493847194856}}, 10: {"": {up: 0.05185049437792628, dn: 0.05185049437792628}}, 11: {"": {up: 0.06082202306608935, dn: 0.06082202306608935}}, 12: {"": {up: 0.05479846220621058, dn: 0.05479846220621058}}, 13: {"": {up: 0.06229716858107356, dn: 0.06229716858107356}}, 14: {"": {up: 0.06410670864378139, dn: 0.06410670864378139}}, 15: {"": {up: 0.07122288714154866, dn: 0.07122288714154866}}, 16: {"": {up: 0.06427414091042769, dn: 0.06427414091042769}}, 17: {"": {up: 0.08788863805444473, dn: 0.08788863805444473}}, 18: {"": {up: 0.08505811700208933, dn: 0.08505811700208933}}, 19: {"": {up: 0.09563160204736812, dn: 0.09563160204736812}}, 20: {"": {up: 0.103794231456532, dn: 0.103794231456532}}, 21: {"": {up: 0.1327213068895913, dn: 0.1327213068895913}}, 22: {"": {up: 0.1246852461526183, dn: 0.1246852461526183}}, 23: {"": {up: 0.2218323572578232, dn: 0.2218323572578232}}, 24: {"": {up: 0.1977878986123114, dn: 0.1977878986123114}}}
LineColor=red
LineStyle=solid
Path=//afs/cern.ch/user/z/zhijun/genValidation/LNu_LO_3j_v2/merged.yoda/MC_MUONS:ENERGY=13600/muon_eta_pmratio_1
Title=LNu_LO_3j(v2_9_18)
# xlow	 xhigh	 val	 errminus	 errplus
0.000000e+00	2.000000e-01	1.008424e+00	4.936835e-02	4.936835e-02
2.000000e-01	4.000000e-01	1.053922e+00	5.150519e-02	5.150519e-02
4.000000e-01	6.000000e-01	1.013464e+00	4.997641e-02	4.997641e-02
6.000000e-01	8.000000e-01	9.940263e-01	4.866331e-02	4.866331e-02
8.000000e-01	1.000000e+00	1.136951e+00	5.602704e-02	5.602704e-02
1.000000e+00	1.200000e+00	1.010588e+00	4.889216e-02	4.889216e-02
1.200000e+00	1.400000e+00	9.254808e-01	4.627982e-02	4.627982e-02
1.400000e+00	1.600000e+00	9.396864e-01	4.688997e-02	4.688997e-02
1.600000e+00	1.800000e+00	1.039189e+00	5.351311e-02	5.351311e-02
1.800000e+00	2.000000e+00	1.049399e+00	5.358494e-02	5.358494e-02
2.000000e+00	2.200000e+00	9.820442e-01	5.185049e-02	5.185049e-02
2.200000e+00	2.400000e+00	1.093700e+00	6.082202e-02	6.082202e-02
2.400000e+00	2.600000e+00	9.634921e-01	5.479846e-02	5.479846e-02
2.600000e+00	2.800000e+00	1.055456e+00	6.229717e-02	6.229717e-02
2.800000e+00	3.000000e+00	1.027613e+00	6.410671e-02	6.410671e-02
3.000000e+00	3.200000e+00	1.062500e+00	7.122289e-02	7.122289e-02
3.200000e+00	3.400000e+00	9.336384e-01	6.427414e-02	6.427414e-02
3.400000e+00	3.600000e+00	1.085324e+00	8.788864e-02	8.788864e-02
3.600000e+00	3.800000e+00	9.696970e-01	8.505812e-02	8.505812e-02
3.800000e+00	4.000000e+00	1.022124e+00	9.563160e-02	9.563160e-02
4.000000e+00	4.200000e+00	9.277108e-01	1.037942e-01	1.037942e-01
4.200000e+00	4.400000e+00	1.099237e+00	1.327213e-01	1.327213e-01
4.400000e+00	4.600000e+00	8.888889e-01	1.246852e-01	1.246852e-01
4.600000e+00	4.800000e+00	1.343750e+00	2.218324e-01	2.218324e-01
4.800000e+00	5.000000e+00	1.037037e+00	1.977879e-01	1.977879e-01
# END HISTO1D


# BEGIN HISTO1D //afs/cern.ch/user/z/zhijun/genValidation/LNu_LO_3j_v3/merged.yoda/MC_MUONS:ENERGY=13600/muon_eta_pmratio_1
ErrorBars=1
ErrorBreakdown={0: {"": {up: 0.05177554591698476, dn: 0.05177554591698476}}, 1: {"": {up: 0.04955221664209183, dn: 0.04955221664209183}}, 2: {"": {up: 0.05081606504634567, dn: 0.05081606504634567}}, 3: {"": {up: 0.04940973356172418, dn: 0.04940973356172418}}, 4: {"": {up: 0.04837917323331993, dn: 0.04837917323331993}}, 5: {"": {up: 0.05004631687543076, dn: 0.05004631687543076}}, 6: {"": {up: 0.05070258329833895, dn: 0.05070258329833895}}, 7: {"": {up: 0.05179149681566612, dn: 0.05179149681566612}}, 8: {"": {up: 0.0508316528931955, dn: 0.0508316528931955}}, 9: {"": {up: 0.05055096089028412, dn: 0.05055096089028412}}, 10: {"": {up: 0.05792319062627264, dn: 0.05792319062627264}}, 11: {"": {up: 0.05851829742032447, dn: 0.05851829742032447}}, 12: {"": {up: 0.06066266840625621, dn: 0.06066266840625621}}, 13: {"": {up: 0.06452898208865648, dn: 0.06452898208865648}}, 14: {"": {up: 0.06398347256458849, dn: 0.06398347256458849}}, 15: {"": {up: 0.06198031613540386, dn: 0.06198031613540386}}, 16: {"": {up: 0.06571505118017296, dn: 0.06571505118017296}}, 17: {"": {up: 0.07169354932333355, dn: 0.07169354932333355}}, 18: {"": {up: 0.1014681990564648, dn: 0.1014681990564648}}, 19: {"": {up: 0.1002255116119106, dn: 0.1002255116119106}}, 20: {"": {up: 0.09613617872389779, dn: 0.09613617872389779}}, 21: {"": {up: 0.1142510162814017, dn: 0.1142510162814017}}, 22: {"": {up: 0.1437534483682037, dn: 0.1437534483682037}}, 23: {"": {up: 0.1300176258062171, dn: 0.1300176258062171}}, 24: {"": {up: 0.2113816307989383, dn: 0.2113816307989383}}}
LineColor=blue
LineStyle=solid
Path=//afs/cern.ch/user/z/zhijun/genValidation/LNu_LO_3j_v3/merged.yoda/MC_MUONS:ENERGY=13600/muon_eta_pmratio_1
Title=LNu_LO_3j(v3_5_6)
# xlow	 xhigh	 val	 errminus	 errplus
0.000000e+00	2.000000e-01	1.043970e+00	5.177555e-02	5.177555e-02
2.000000e-01	4.000000e-01	1.019093e+00	4.955222e-02	4.955222e-02
4.000000e-01	6.000000e-01	1.050360e+00	5.081607e-02	5.081607e-02
6.000000e-01	8.000000e-01	1.022432e+00	4.940973e-02	4.940973e-02
8.000000e-01	1.000000e+00	9.988277e-01	4.837917e-02	4.837917e-02
1.000000e+00	1.200000e+00	9.962217e-01	5.004632e-02	5.004632e-02
1.200000e+00	1.400000e+00	1.018750e+00	5.070258e-02	5.070258e-02
1.400000e+00	1.600000e+00	1.009259e+00	5.179150e-02	5.179150e-02
1.600000e+00	1.800000e+00	9.947917e-01	5.083165e-02	5.083165e-02
1.800000e+00	2.000000e+00	9.649596e-01	5.055096e-02	5.055096e-02
2.000000e+00	2.200000e+00	1.065549e+00	5.792319e-02	5.792319e-02
2.200000e+00	2.400000e+00	1.058176e+00	5.851830e-02	5.851830e-02
2.400000e+00	2.600000e+00	1.071310e+00	6.066267e-02	6.066267e-02
2.600000e+00	2.800000e+00	1.113274e+00	6.452898e-02	6.452898e-02
2.800000e+00	3.000000e+00	1.063433e+00	6.398347e-02	6.398347e-02
3.000000e+00	3.200000e+00	9.457203e-01	6.198032e-02	6.198032e-02
3.200000e+00	3.400000e+00	9.077307e-01	6.571505e-02	6.571505e-02
3.400000e+00	3.600000e+00	9.314286e-01	7.169355e-02	7.169355e-02
3.600000e+00	3.800000e+00	1.121212e+00	1.014682e-01	1.014682e-01
3.800000e+00	4.000000e+00	1.055556e+00	1.002255e-01	1.002255e-01
4.000000e+00	4.200000e+00	9.032258e-01	9.613618e-02	9.613618e-02
4.200000e+00	4.400000e+00	9.185185e-01	1.142510e-01	1.142510e-01
4.400000e+00	4.600000e+00	9.310345e-01	1.437534e-01	1.437534e-01
4.600000e+00	4.800000e+00	8.181818e-01	1.300176e-01	1.300176e-01
4.800000e+00	5.000000e+00	1.145455e+00	2.113816e-01	2.113816e-01
# END HISTO1D

