# BEGIN PLOT
Legend=1
LogY=0
Title=$A_5$ for $W^+$
XLabel=$p_\perp(W)$ [GeV]
YLabel=$A_5$
LogX=1
YMin=-0.1
YMax=0.1
DrawOnly=//afs/cern.ch/user/z/zhijun/genValidation/LNu_NLO_2j_v2/merged.yoda/MC_WPOL:ENERGY=13600/A5_wplus //afs/cern.ch/user/z/zhijun/genValidation/old_v3/LNu_NLO_2j_v3/merged.yoda/MC_WPOL:ENERGY=13600/A5_wplus //afs/cern.ch/user/z/zhijun/genValidation/LNu_NLO_2j_v3/merged.yoda/MC_WPOL:ENERGY=13600/A5_wplus
LegendOnly=//afs/cern.ch/user/z/zhijun/genValidation/LNu_NLO_2j_v2/merged.yoda/MC_WPOL:ENERGY=13600/A5_wplus //afs/cern.ch/user/z/zhijun/genValidation/old_v3/LNu_NLO_2j_v3/merged.yoda/MC_WPOL:ENERGY=13600/A5_wplus //afs/cern.ch/user/z/zhijun/genValidation/LNu_NLO_2j_v3/merged.yoda/MC_WPOL:ENERGY=13600/A5_wplus
RatioPlot=1
RatioPlotReference=//afs/cern.ch/user/z/zhijun/genValidation/LNu_NLO_2j_v2/merged.yoda/MC_WPOL:ENERGY=13600/A5_wplus
RatioPlotYLabel=Ratio
# END PLOT

# BEGIN HISTO1D //afs/cern.ch/user/z/zhijun/genValidation/LNu_NLO_2j_v2/merged.yoda/MC_WPOL:ENERGY=13600/A5_wplus
ErrorBars=1
LineColor=red
LineStyle=solid
Path=//afs/cern.ch/user/z/zhijun/genValidation/LNu_NLO_2j_v2/merged.yoda/MC_WPOL:ENERGY=13600/A5_wplus
Title=LNu_NLO_2j(v2_9_18)
# xlow	 xhigh	 val	 errminus	 errplus
1.000000e+00	1.092258e+00	-5.647498e-01	nan	nan
1.092258e+00	1.193027e+00	1.003058e+00	2.967838e+00	2.967838e+00
1.193027e+00	1.303093e+00	-1.200157e-02	2.048559e+00	2.048559e+00
1.303093e+00	1.423313e+00	3.499025e-01	nan	nan
1.423313e+00	1.554624e+00	-4.037175e-01	nan	nan
1.554624e+00	1.698050e+00	2.658670e-01	5.453616e-01	5.453616e-01
1.698050e+00	1.854708e+00	3.328389e+00	6.608449e+00	6.608449e+00
1.854708e+00	2.025819e+00	-4.000181e-01	1.034852e+00	1.034852e+00
2.025819e+00	2.212717e+00	-6.255345e-01	5.460115e-01	5.460115e-01
2.212717e+00	2.416857e+00	1.168927e-01	5.469072e-01	5.469072e-01
2.416857e+00	2.639830e+00	-3.675292e-01	4.215879e-01	4.215879e-01
2.639830e+00	2.883375e+00	-5.089121e-01	6.578089e-01	6.578089e-01
2.883375e+00	3.149388e+00	-3.058623e-01	6.176116e-01	6.176116e-01
3.149388e+00	3.439943e+00	4.207783e-01	5.896638e-01	5.896638e-01
3.439943e+00	3.757304e+00	-2.642318e-01	6.621210e-01	6.621210e-01
3.757304e+00	4.103944e+00	-6.367411e-01	4.234109e-01	4.234109e-01
4.103944e+00	4.482564e+00	-8.914764e-02	3.430807e-01	3.430807e-01
4.482564e+00	4.896115e+00	6.721043e-01	4.322726e-01	4.322726e-01
4.896115e+00	5.347819e+00	3.129049e-01	2.672429e-01	2.672429e-01
5.347819e+00	5.841196e+00	2.762197e-01	2.579857e-01	2.579857e-01
5.841196e+00	6.380091e+00	1.575393e-02	2.262286e-01	2.262286e-01
6.380091e+00	6.968703e+00	2.169094e-02	2.346057e-01	2.346057e-01
6.968703e+00	7.611619e+00	3.248065e-01	2.198570e-01	2.198570e-01
7.611619e+00	8.313849e+00	9.617747e-02	2.090978e-01	2.090978e-01
8.313849e+00	9.080865e+00	-1.807700e-01	1.653964e-01	1.653964e-01
9.080865e+00	9.918644e+00	9.474981e-02	1.835732e-01	1.835732e-01
9.918644e+00	1.083371e+01	8.901341e-02	1.510082e-01	1.510082e-01
1.083371e+01	1.183321e+01	2.755958e-01	1.384910e-01	1.384910e-01
1.183321e+01	1.292491e+01	2.267404e-01	1.151962e-01	1.151962e-01
1.292491e+01	1.411733e+01	-1.879554e-01	1.267439e-01	1.267439e-01
1.411733e+01	1.541977e+01	3.998666e-02	1.076390e-01	1.076390e-01
1.541977e+01	1.684236e+01	-2.090802e-01	1.078315e-01	1.078315e-01
1.684236e+01	1.839619e+01	-8.820996e-02	9.611865e-02	9.611865e-02
1.839619e+01	2.009338e+01	-1.408891e-01	8.814277e-02	8.814277e-02
2.009338e+01	2.194715e+01	-4.466073e-02	8.131469e-02	8.131469e-02
2.194715e+01	2.397194e+01	4.675359e-02	7.704038e-02	7.704038e-02
2.397194e+01	2.618354e+01	-5.707178e-02	6.907392e-02	6.907392e-02
2.618354e+01	2.859917e+01	-6.111748e-02	7.107171e-02	7.107171e-02
2.859917e+01	3.123766e+01	-1.169331e-02	7.244977e-02	7.244977e-02
3.123766e+01	3.411957e+01	-2.220321e-02	6.540985e-02	6.540985e-02
3.411957e+01	3.726736e+01	-3.115759e-02	5.945417e-02	5.945417e-02
3.726736e+01	4.070556e+01	-7.323445e-02	6.089726e-02	6.089726e-02
4.070556e+01	4.446096e+01	2.414720e-02	5.954675e-02	5.954675e-02
4.446096e+01	4.856282e+01	-1.157318e-01	5.785027e-02	5.785027e-02
4.856282e+01	5.304311e+01	1.032840e-01	5.511159e-02	5.511159e-02
5.304311e+01	5.793675e+01	-2.020261e-02	5.782384e-02	5.782384e-02
5.793675e+01	6.328185e+01	4.077273e-02	5.478053e-02	5.478053e-02
6.328185e+01	6.912009e+01	-1.304657e-02	5.708269e-02	5.708269e-02
6.912009e+01	7.549694e+01	-5.306483e-03	5.561901e-02	5.561901e-02
7.549694e+01	8.246211e+01	3.241089e-02	5.719493e-02	5.719493e-02
8.246211e+01	9.006987e+01	1.804161e-02	5.971305e-02	5.971305e-02
9.006987e+01	9.837951e+01	-6.190114e-02	6.524685e-02	6.524685e-02
9.837951e+01	1.074558e+02	-1.136375e-01	7.230571e-02	7.230571e-02
1.074558e+02	1.173694e+02	-4.380443e-02	7.755358e-02	7.755358e-02
1.173694e+02	1.281976e+02	-1.465086e-01	8.059681e-02	8.059681e-02
1.281976e+02	1.400248e+02	-2.654951e-02	9.038696e-02	9.038696e-02
1.400248e+02	1.529432e+02	1.616177e-01	1.012582e-01	1.012582e-01
1.529432e+02	1.670533e+02	1.340173e-01	1.211392e-01	1.211392e-01
1.670533e+02	1.824653e+02	-7.995715e-03	1.157503e-01	1.157503e-01
1.824653e+02	1.992991e+02	-1.605595e-01	1.351829e-01	1.351829e-01
1.992991e+02	2.176860e+02	-2.920394e-01	1.613725e-01	1.613725e-01
2.176860e+02	2.377692e+02	3.499111e-02	1.758944e-01	1.758944e-01
2.377692e+02	2.597052e+02	1.464152e-01	2.016773e-01	2.016773e-01
2.597052e+02	2.836650e+02	4.102590e-01	2.569304e-01	2.569304e-01
2.836650e+02	3.098352e+02	-2.219449e-01	2.879084e-01	2.879084e-01
3.098352e+02	3.384199e+02	-4.093444e-01	3.902770e-01	3.902770e-01
3.384199e+02	3.696417e+02	-3.598101e-02	4.316247e-01	4.316247e-01
3.696417e+02	4.037440e+02	2.030817e-01	6.382206e-01	6.382206e-01
4.037440e+02	4.409924e+02	1.331979e+00	4.257822e-01	4.257822e-01
4.409924e+02	4.816774e+02	-2.969621e-01	6.337305e-01	6.337305e-01
4.816774e+02	5.261158e+02	1.065997e+00	6.981057e-01	6.981057e-01
5.261158e+02	5.746540e+02	-4.053276e-01	3.704267e+00	3.704267e+00
5.746540e+02	6.276702e+02	-7.109537e-01	2.219976e+00	2.219976e+00
6.276702e+02	6.855776e+02	-2.242488e+00	nan	nan
6.855776e+02	7.488273e+02	4.561897e+00	nan	nan
7.488273e+02	8.179124e+02	-4.899224e-02	8.178281e-01	8.178281e-01
8.179124e+02	8.933710e+02	7.132600e-01	4.367461e-02	4.367461e-02
8.933710e+02	9.757913e+02	-3.774182e+00	nan	nan
9.757913e+02	1.065816e+03	-4.654912e-01	nan	nan
1.065816e+03	1.164145e+03	nan	nan	nan
1.164145e+03	1.271546e+03	nan	nan	nan
1.271546e+03	1.388856e+03	nan	nan	nan
1.388856e+03	1.516989e+03	nan	nan	nan
1.516989e+03	1.656943e+03	nan	nan	nan
1.656943e+03	1.809808e+03	nan	nan	nan
1.809808e+03	1.976777e+03	nan	nan	nan
1.976777e+03	2.159150e+03	nan	nan	nan
2.159150e+03	2.358348e+03	nan	nan	nan
2.358348e+03	2.575923e+03	nan	nan	nan
2.575923e+03	2.813572e+03	nan	nan	nan
2.813572e+03	3.073145e+03	nan	nan	nan
3.073145e+03	3.356667e+03	nan	nan	nan
3.356667e+03	3.666345e+03	nan	nan	nan
3.666345e+03	4.004593e+03	nan	nan	nan
4.004593e+03	4.374047e+03	nan	nan	nan
4.374047e+03	4.777586e+03	nan	nan	nan
4.777586e+03	5.218355e+03	nan	nan	nan
5.218355e+03	5.699788e+03	nan	nan	nan
5.699788e+03	6.225637e+03	nan	nan	nan
6.225637e+03	6.800000e+03	nan	nan	nan
# END HISTO1D


# BEGIN HISTO1D //afs/cern.ch/user/z/zhijun/genValidation/old_v3/LNu_NLO_2j_v3/merged.yoda/MC_WPOL:ENERGY=13600/A5_wplus
ErrorBars=1
LineColor=blue
LineStyle=solid
Path=//afs/cern.ch/user/z/zhijun/genValidation/old_v3/LNu_NLO_2j_v3/merged.yoda/MC_WPOL:ENERGY=13600/A5_wplus
Title=LNu_NLO_2j(v3_5_2)
# xlow	 xhigh	 val	 errminus	 errplus
1.000000e+00	1.092258e+00	1.512430e+00	2.580174e+00	2.580174e+00
1.092258e+00	1.193027e+00	-9.440776e-01	1.055737e+00	1.055737e+00
1.193027e+00	1.303093e+00	9.519396e-01	8.513042e-01	8.513042e-01
1.303093e+00	1.423313e+00	-2.171985e+00	1.848793e+00	1.848793e+00
1.423313e+00	1.554624e+00	8.286541e-01	1.054134e+00	1.054134e+00
1.554624e+00	1.698050e+00	-3.913823e-02	1.264608e+00	1.264608e+00
1.698050e+00	1.854708e+00	2.097175e+00	3.122267e+00	3.122267e+00
1.854708e+00	2.025819e+00	1.296573e+00	1.103532e+00	1.103532e+00
2.025819e+00	2.212717e+00	1.917073e+00	1.332198e+00	1.332198e+00
2.212717e+00	2.416857e+00	3.478039e-01	9.551201e-01	9.551201e-01
2.416857e+00	2.639830e+00	4.065794e-01	8.238129e-01	8.238129e-01
2.639830e+00	2.883375e+00	-1.968920e-01	6.299148e-01	6.299148e-01
2.883375e+00	3.149388e+00	-7.893057e-02	8.166617e-01	8.166617e-01
3.149388e+00	3.439943e+00	-1.467567e+00	3.965401e-01	3.965401e-01
3.439943e+00	3.757304e+00	-7.431339e-01	4.843977e-01	4.843977e-01
3.757304e+00	4.103944e+00	-5.876340e-01	7.124358e-01	7.124358e-01
4.103944e+00	4.482564e+00	-8.976672e-01	5.598127e-01	5.598127e-01
4.482564e+00	4.896115e+00	1.098179e-01	3.378352e-01	3.378352e-01
4.896115e+00	5.347819e+00	3.586426e-01	3.593520e-01	3.593520e-01
5.347819e+00	5.841196e+00	1.035598e-01	3.534825e-01	3.534825e-01
5.841196e+00	6.380091e+00	-7.902550e-03	2.654387e-01	2.654387e-01
6.380091e+00	6.968703e+00	-6.111701e-01	3.390075e-01	3.390075e-01
6.968703e+00	7.611619e+00	-5.040565e-01	2.806384e-01	2.806384e-01
7.611619e+00	8.313849e+00	1.681848e-01	2.260247e-01	2.260247e-01
8.313849e+00	9.080865e+00	-1.379683e-01	1.932771e-01	1.932771e-01
9.080865e+00	9.918644e+00	-4.439652e-02	1.983280e-01	1.983280e-01
9.918644e+00	1.083371e+01	1.472909e-01	1.870616e-01	1.870616e-01
1.083371e+01	1.183321e+01	7.345634e-02	1.666631e-01	1.666631e-01
1.183321e+01	1.292491e+01	1.430637e-02	1.531988e-01	1.531988e-01
1.292491e+01	1.411733e+01	6.698047e-02	1.388137e-01	1.388137e-01
1.411733e+01	1.541977e+01	-9.861296e-02	1.516900e-01	1.516900e-01
1.541977e+01	1.684236e+01	-2.007977e-01	1.254063e-01	1.254063e-01
1.684236e+01	1.839619e+01	3.952719e-04	1.157994e-01	1.157994e-01
1.839619e+01	2.009338e+01	-4.312001e-02	1.137888e-01	1.137888e-01
2.009338e+01	2.194715e+01	-8.435058e-02	1.030343e-01	1.030343e-01
2.194715e+01	2.397194e+01	3.126458e-02	1.004772e-01	1.004772e-01
2.397194e+01	2.618354e+01	6.994552e-03	9.630179e-02	9.630179e-02
2.618354e+01	2.859917e+01	-5.227214e-02	9.507570e-02	9.507570e-02
2.859917e+01	3.123766e+01	-3.260614e-03	8.865180e-02	8.865180e-02
3.123766e+01	3.411957e+01	7.386353e-03	8.354976e-02	8.354976e-02
3.411957e+01	3.726736e+01	-9.315976e-03	8.388496e-02	8.388496e-02
3.726736e+01	4.070556e+01	7.875822e-02	7.920473e-02	7.920473e-02
4.070556e+01	4.446096e+01	7.494532e-02	7.458634e-02	7.458634e-02
4.446096e+01	4.856282e+01	-7.514974e-02	7.342010e-02	7.342010e-02
4.856282e+01	5.304311e+01	-5.493468e-02	7.550614e-02	7.550614e-02
5.304311e+01	5.793675e+01	7.272405e-02	7.310147e-02	7.310147e-02
5.793675e+01	6.328185e+01	-6.836909e-03	7.031639e-02	7.031639e-02
6.328185e+01	6.912009e+01	-1.243849e-01	6.700834e-02	6.700834e-02
6.912009e+01	7.549694e+01	-6.304939e-02	7.265445e-02	7.265445e-02
7.549694e+01	8.246211e+01	-6.588411e-02	7.043229e-02	7.043229e-02
8.246211e+01	9.006987e+01	-3.733281e-02	7.990741e-02	7.990741e-02
9.006987e+01	9.837951e+01	-1.059305e-01	7.980790e-02	7.980790e-02
9.837951e+01	1.074558e+02	-7.909911e-02	8.345486e-02	8.345486e-02
1.074558e+02	1.173694e+02	1.569346e-02	8.884715e-02	8.884715e-02
1.173694e+02	1.281976e+02	1.857743e-02	9.185705e-02	9.185705e-02
1.281976e+02	1.400248e+02	-5.344862e-02	1.110003e-01	1.110003e-01
1.400248e+02	1.529432e+02	1.210940e-01	1.153576e-01	1.153576e-01
1.529432e+02	1.670533e+02	-1.554246e-01	1.182327e-01	1.182327e-01
1.670533e+02	1.824653e+02	1.824214e-01	1.501379e-01	1.501379e-01
1.824653e+02	1.992991e+02	1.886456e-01	1.450255e-01	1.450255e-01
1.992991e+02	2.176860e+02	-1.006713e-01	1.762641e-01	1.762641e-01
2.176860e+02	2.377692e+02	2.476583e-02	1.994337e-01	1.994337e-01
2.377692e+02	2.597052e+02	-2.985786e-01	2.358014e-01	2.358014e-01
2.597052e+02	2.836650e+02	-1.336116e-01	2.582813e-01	2.582813e-01
2.836650e+02	3.098352e+02	-5.621510e-02	2.759310e-01	2.759310e-01
3.098352e+02	3.384199e+02	2.697569e-01	3.551949e-01	3.551949e-01
3.384199e+02	3.696417e+02	-2.731118e-01	6.862954e-01	6.862954e-01
3.696417e+02	4.037440e+02	-6.930907e-01	5.027385e-01	5.027385e-01
4.037440e+02	4.409924e+02	-3.928117e-01	5.234617e-01	5.234617e-01
4.409924e+02	4.816774e+02	-4.779014e-01	1.225012e+00	1.225012e+00
4.816774e+02	5.261158e+02	-1.428880e+00	7.900566e-01	7.900566e-01
5.261158e+02	5.746540e+02	-1.161722e-01	5.385162e-01	5.385162e-01
5.746540e+02	6.276702e+02	1.842200e+00	1.174541e+00	1.174541e+00
6.276702e+02	6.855776e+02	-2.761309e+00	nan	nan
6.855776e+02	7.488273e+02	5.367079e-01	1.239075e+00	1.239075e+00
7.488273e+02	8.179124e+02	-1.286921e+00	6.441247e-01	6.441247e-01
8.179124e+02	8.933710e+02	2.795539e+00	nan	nan
8.933710e+02	9.757913e+02	-7.280053e-02	2.104247e+00	2.104247e+00
9.757913e+02	1.065816e+03	8.760771e-01	1.231155e+00	1.231155e+00
1.065816e+03	1.164145e+03	nan	nan	nan
1.164145e+03	1.271546e+03	9.251059e-01	nan	nan
1.271546e+03	1.388856e+03	nan	nan	nan
1.388856e+03	1.516989e+03	nan	nan	nan
1.516989e+03	1.656943e+03	nan	nan	nan
1.656943e+03	1.809808e+03	nan	nan	nan
1.809808e+03	1.976777e+03	nan	nan	nan
1.976777e+03	2.159150e+03	nan	nan	nan
2.159150e+03	2.358348e+03	nan	nan	nan
2.358348e+03	2.575923e+03	nan	nan	nan
2.575923e+03	2.813572e+03	nan	nan	nan
2.813572e+03	3.073145e+03	nan	nan	nan
3.073145e+03	3.356667e+03	nan	nan	nan
3.356667e+03	3.666345e+03	nan	nan	nan
3.666345e+03	4.004593e+03	nan	nan	nan
4.004593e+03	4.374047e+03	nan	nan	nan
4.374047e+03	4.777586e+03	nan	nan	nan
4.777586e+03	5.218355e+03	nan	nan	nan
5.218355e+03	5.699788e+03	nan	nan	nan
5.699788e+03	6.225637e+03	nan	nan	nan
6.225637e+03	6.800000e+03	nan	nan	nan
# END HISTO1D


# BEGIN HISTO1D //afs/cern.ch/user/z/zhijun/genValidation/LNu_NLO_2j_v3/merged.yoda/MC_WPOL:ENERGY=13600/A5_wplus
ErrorBars=1
LineColor=green
LineStyle=solid
Path=//afs/cern.ch/user/z/zhijun/genValidation/LNu_NLO_2j_v3/merged.yoda/MC_WPOL:ENERGY=13600/A5_wplus
Title=LNu_NLO_2j(v3_5_6)
# xlow	 xhigh	 val	 errminus	 errplus
1.000000e+00	1.092258e+00	8.363335e-01	1.786573e+00	1.786573e+00
1.092258e+00	1.193027e+00	2.206963e-01	7.788097e-01	7.788097e-01
1.193027e+00	1.303093e+00	-1.088745e+00	2.745135e+00	2.745135e+00
1.303093e+00	1.423313e+00	-1.368202e+00	1.127625e+00	1.127625e+00
1.423313e+00	1.554624e+00	4.668832e+00	nan	nan
1.554624e+00	1.698050e+00	1.742685e+00	7.286084e-01	7.286084e-01
1.698050e+00	1.854708e+00	-2.248101e+00	nan	nan
1.854708e+00	2.025819e+00	-4.514577e-01	7.594066e-01	7.594066e-01
2.025819e+00	2.212717e+00	2.161606e-01	7.721170e-01	7.721170e-01
2.212717e+00	2.416857e+00	4.615591e-01	5.875239e-01	5.875239e-01
2.416857e+00	2.639830e+00	1.391913e-01	4.918108e-01	4.918108e-01
2.639830e+00	2.883375e+00	1.119227e+00	5.063019e-01	5.063019e-01
2.883375e+00	3.149388e+00	-1.377280e-01	5.289104e-01	5.289104e-01
3.149388e+00	3.439943e+00	-4.570313e-01	5.174755e-01	5.174755e-01
3.439943e+00	3.757304e+00	2.677929e-01	3.534841e-01	3.534841e-01
3.757304e+00	4.103944e+00	9.578567e-02	5.219696e-01	5.219696e-01
4.103944e+00	4.482564e+00	2.842417e-01	4.068121e-01	4.068121e-01
4.482564e+00	4.896115e+00	-7.366945e-02	3.010887e-01	3.010887e-01
4.896115e+00	5.347819e+00	-2.521782e-02	3.099099e-01	3.099099e-01
5.347819e+00	5.841196e+00	-1.653372e-01	3.221836e-01	3.221836e-01
5.841196e+00	6.380091e+00	-1.727440e-01	2.327413e-01	2.327413e-01
6.380091e+00	6.968703e+00	2.680743e-01	2.874592e-01	2.874592e-01
6.968703e+00	7.611619e+00	-6.841632e-02	2.346356e-01	2.346356e-01
7.611619e+00	8.313849e+00	2.817818e-01	1.997561e-01	1.997561e-01
8.313849e+00	9.080865e+00	-1.191587e-02	1.851562e-01	1.851562e-01
9.080865e+00	9.918644e+00	-2.174634e-01	1.958069e-01	1.958069e-01
9.918644e+00	1.083371e+01	-1.794117e-01	1.909162e-01	1.909162e-01
1.083371e+01	1.183321e+01	5.632143e-03	1.484902e-01	1.484902e-01
1.183321e+01	1.292491e+01	6.516301e-02	1.375530e-01	1.375530e-01
1.292491e+01	1.411733e+01	-5.802875e-02	1.267376e-01	1.267376e-01
1.411733e+01	1.541977e+01	-1.180288e-02	1.258067e-01	1.258067e-01
1.541977e+01	1.684236e+01	-1.286300e-01	1.035802e-01	1.035802e-01
1.684236e+01	1.839619e+01	7.617452e-02	1.108245e-01	1.108245e-01
1.839619e+01	2.009338e+01	-4.651893e-03	9.163379e-02	9.163379e-02
2.009338e+01	2.194715e+01	-1.861792e-01	9.779284e-02	9.779284e-02
2.194715e+01	2.397194e+01	6.758780e-02	9.095045e-02	9.095045e-02
2.397194e+01	2.618354e+01	-1.578716e-02	8.529550e-02	8.529550e-02
2.618354e+01	2.859917e+01	-1.099639e-01	8.248021e-02	8.248021e-02
2.859917e+01	3.123766e+01	2.546844e-02	7.939090e-02	7.939090e-02
3.123766e+01	3.411957e+01	-6.964974e-02	7.444195e-02	7.444195e-02
3.411957e+01	3.726736e+01	3.404326e-02	7.254601e-02	7.254601e-02
3.726736e+01	4.070556e+01	-4.996508e-02	7.353909e-02	7.353909e-02
4.070556e+01	4.446096e+01	-2.190026e-02	6.705759e-02	6.705759e-02
4.446096e+01	4.856282e+01	1.484637e-02	6.715588e-02	6.715588e-02
4.856282e+01	5.304311e+01	-8.702150e-03	6.523033e-02	6.523033e-02
5.304311e+01	5.793675e+01	7.095553e-03	6.359789e-02	6.359789e-02
5.793675e+01	6.328185e+01	-8.694397e-02	6.700043e-02	6.700043e-02
6.328185e+01	6.912009e+01	-8.568039e-03	6.067071e-02	6.067071e-02
6.912009e+01	7.549694e+01	-3.860748e-02	6.497680e-02	6.497680e-02
7.549694e+01	8.246211e+01	-1.087138e-01	6.616764e-02	6.616764e-02
8.246211e+01	9.006987e+01	4.436657e-02	6.678504e-02	6.678504e-02
9.006987e+01	9.837951e+01	-3.062338e-02	7.352619e-02	7.352619e-02
9.837951e+01	1.074558e+02	-4.162538e-03	7.478729e-02	7.478729e-02
1.074558e+02	1.173694e+02	7.074474e-02	7.635057e-02	7.635057e-02
1.173694e+02	1.281976e+02	-2.332949e-01	8.588732e-02	8.588732e-02
1.281976e+02	1.400248e+02	-1.240648e-02	9.289091e-02	9.289091e-02
1.400248e+02	1.529432e+02	4.828385e-02	9.656732e-02	9.656732e-02
1.529432e+02	1.670533e+02	-5.515778e-02	1.075608e-01	1.075608e-01
1.670533e+02	1.824653e+02	-1.421770e-01	1.314588e-01	1.314588e-01
1.824653e+02	1.992991e+02	7.373585e-02	1.379015e-01	1.379015e-01
1.992991e+02	2.176860e+02	-9.067155e-02	1.543075e-01	1.543075e-01
2.176860e+02	2.377692e+02	-1.915174e-01	1.943348e-01	1.943348e-01
2.377692e+02	2.597052e+02	-3.881982e-02	2.027215e-01	2.027215e-01
2.597052e+02	2.836650e+02	2.239048e-01	2.397871e-01	2.397871e-01
2.836650e+02	3.098352e+02	-6.615074e-01	2.959618e-01	2.959618e-01
3.098352e+02	3.384199e+02	3.847327e-01	4.163599e-01	4.163599e-01
3.384199e+02	3.696417e+02	2.057591e-01	3.643515e-01	3.643515e-01
3.696417e+02	4.037440e+02	-5.467164e-01	3.772440e-01	3.772440e-01
4.037440e+02	4.409924e+02	1.341531e+00	9.411986e-01	9.411986e-01
4.409924e+02	4.816774e+02	-5.786914e-01	5.865586e-01	5.865586e-01
4.816774e+02	5.261158e+02	1.010552e+00	4.764467e-01	4.764467e-01
5.261158e+02	5.746540e+02	4.157023e-01	9.294367e-01	9.294367e-01
5.746540e+02	6.276702e+02	3.699908e-01	1.185975e+00	1.185975e+00
6.276702e+02	6.855776e+02	nan	nan	nan
6.855776e+02	7.488273e+02	4.503706e-01	nan	nan
7.488273e+02	8.179124e+02	1.909385e+00	nan	nan
8.179124e+02	8.933710e+02	-9.766179e-01	1.207912e+00	1.207912e+00
8.933710e+02	9.757913e+02	1.271197e+01	nan	nan
9.757913e+02	1.065816e+03	1.647836e-02	8.733180e-01	8.733180e-01
1.065816e+03	1.164145e+03	nan	nan	nan
1.164145e+03	1.271546e+03	nan	nan	nan
1.271546e+03	1.388856e+03	nan	nan	nan
1.388856e+03	1.516989e+03	nan	nan	nan
1.516989e+03	1.656943e+03	nan	nan	nan
1.656943e+03	1.809808e+03	nan	nan	nan
1.809808e+03	1.976777e+03	nan	nan	nan
1.976777e+03	2.159150e+03	nan	nan	nan
2.159150e+03	2.358348e+03	nan	nan	nan
2.358348e+03	2.575923e+03	1.515497e+00	nan	nan
2.575923e+03	2.813572e+03	nan	nan	nan
2.813572e+03	3.073145e+03	nan	nan	nan
3.073145e+03	3.356667e+03	nan	nan	nan
3.356667e+03	3.666345e+03	nan	nan	nan
3.666345e+03	4.004593e+03	nan	nan	nan
4.004593e+03	4.374047e+03	nan	nan	nan
4.374047e+03	4.777586e+03	nan	nan	nan
4.777586e+03	5.218355e+03	nan	nan	nan
5.218355e+03	5.699788e+03	nan	nan	nan
5.699788e+03	6.225637e+03	nan	nan	nan
6.225637e+03	6.800000e+03	nan	nan	nan
# END HISTO1D

