# BEGIN PLOT
Legend=1
LogY=0
Title=Ratio of electron multiplicity
XLabel=$N_{\mathrm{electron}}$
YLabel=$\sigma(\geq N_{\mathrm{electron}})/\sigma(\geq N_{\mathrm{electron}}-1)$
XMajorTickMarks=10
XMinorTickMarks=0
ErrorBands=1
DrawOnly=//afs/cern.ch/user/z/zhijun/genValidation/LNu_LO_0j_v2/merged.yoda/MC_ELECTRONS:ENERGY=13600/electron_multi_ratio //afs/cern.ch/user/z/zhijun/genValidation/LNu_LO_0j_v3/merged.yoda/MC_ELECTRONS:ENERGY=13600/electron_multi_ratio
LegendOnly=//afs/cern.ch/user/z/zhijun/genValidation/LNu_LO_0j_v2/merged.yoda/MC_ELECTRONS:ENERGY=13600/electron_multi_ratio //afs/cern.ch/user/z/zhijun/genValidation/LNu_LO_0j_v3/merged.yoda/MC_ELECTRONS:ENERGY=13600/electron_multi_ratio
RatioPlot=1
RatioPlotReference=//afs/cern.ch/user/z/zhijun/genValidation/LNu_LO_0j_v2/merged.yoda/MC_ELECTRONS:ENERGY=13600/electron_multi_ratio
RatioPlotYLabel=Ratio
# END PLOT

# BEGIN HISTO1D //afs/cern.ch/user/z/zhijun/genValidation/LNu_LO_0j_v2/merged.yoda/MC_ELECTRONS:ENERGY=13600/electron_multi_ratio
ErrorBars=1
ErrorBreakdown={0: {"": {up: 0.001278458699973943, dn: 0.001278458699973943}}, 1: {"": {up: 0.0008856046688918053, dn: 0.0008856046688918053}}, 2: {"": {up: 0.002281679611341816, dn: 0.002281679611341816}}, 3: {"": {up: 0, dn: 0}}}
LineColor=red
LineStyle=solid
Path=//afs/cern.ch/user/z/zhijun/genValidation/LNu_LO_0j_v2/merged.yoda/MC_ELECTRONS:ENERGY=13600/electron_multi_ratio
Title=LNu_LO_0j(v2_9_18)
# xlow	 xhigh	 val	 errminus	 errplus
5.000000e-01	1.500000e+00	4.893451e-01	1.278459e-03	1.278459e-03
1.500000e+00	2.500000e+00	1.671995e-01	8.856047e-04	8.856047e-04
2.500000e+00	3.500000e+00	1.812194e-01	2.281680e-03	2.281680e-03
3.500000e+00	4.500000e+00	0.000000e+00	0.000000e+00	0.000000e+00
# END HISTO1D


# BEGIN HISTO1D //afs/cern.ch/user/z/zhijun/genValidation/LNu_LO_0j_v3/merged.yoda/MC_ELECTRONS:ENERGY=13600/electron_multi_ratio
ErrorBars=1
ErrorBreakdown={0: {"": {up: 0.001275738768555713, dn: 0.001275738768555713}}, 1: {"": {up: 0.0008871577630360662, dn: 0.0008871577630360662}}, 2: {"": {up: 0.002262869933339642, dn: 0.002262869933339642}}, 3: {"": {up: 0, dn: 0}}}
LineColor=blue
LineStyle=solid
Path=//afs/cern.ch/user/z/zhijun/genValidation/LNu_LO_0j_v3/merged.yoda/MC_ELECTRONS:ENERGY=13600/electron_multi_ratio
Title=LNu_LO_0j(v3_5_2)
# xlow	 xhigh	 val	 errminus	 errplus
5.000000e-01	1.500000e+00	4.881540e-01	1.275739e-03	1.275739e-03
1.500000e+00	2.500000e+00	1.674442e-01	8.871578e-04	8.871578e-04
2.500000e+00	3.500000e+00	1.789011e-01	2.262870e-03	2.262870e-03
3.500000e+00	4.500000e+00	0.000000e+00	0.000000e+00	0.000000e+00
# END HISTO1D

