# BEGIN PLOT
Legend=1
LogY=1
Title=$\Delta R$ separation between jets
LegendXPos=0.10
LegendYPos=0.5
XLabel=$\Delta{R}(\mathrm{jet~1,~jet~3})$
YLabel=$\mathrm{d}\sigma/\mathrm{d}\Delta{R}(\mathrm{jet~1,~jet~3})$ [pb]
DrawOnly=//afs/cern.ch/user/z/zhijun/genValidation/LNu_LO_1j_v2/merged.yoda/MC_WJETS:ENERGY=13600/jets_dR_13 //afs/cern.ch/user/z/zhijun/genValidation/old_v3/LNu_LO_1j_v3/merged.yoda/MC_WJETS:ENERGY=13600/jets_dR_13 //afs/cern.ch/user/z/zhijun/genValidation/LNu_LO_1j_v3/merged.yoda/MC_WJETS:ENERGY=13600/jets_dR_13
LegendOnly=//afs/cern.ch/user/z/zhijun/genValidation/LNu_LO_1j_v2/merged.yoda/MC_WJETS:ENERGY=13600/jets_dR_13 //afs/cern.ch/user/z/zhijun/genValidation/old_v3/LNu_LO_1j_v3/merged.yoda/MC_WJETS:ENERGY=13600/jets_dR_13 //afs/cern.ch/user/z/zhijun/genValidation/LNu_LO_1j_v3/merged.yoda/MC_WJETS:ENERGY=13600/jets_dR_13
RatioPlot=1
RatioPlotReference=//afs/cern.ch/user/z/zhijun/genValidation/LNu_LO_1j_v2/merged.yoda/MC_WJETS:ENERGY=13600/jets_dR_13
RatioPlotYLabel=Ratio
# END PLOT

# BEGIN HISTO1D //afs/cern.ch/user/z/zhijun/genValidation/LNu_LO_1j_v2/merged.yoda/MC_WJETS:ENERGY=13600/jets_dR_13
ErrorBars=1
LineColor=red
LineStyle=solid
Path=//afs/cern.ch/user/z/zhijun/genValidation/LNu_LO_1j_v2/merged.yoda/MC_WJETS:ENERGY=13600/jets_dR_13
ScaledBy=3.84269747225734967e-02
Title=LNu_LO_1j(v2_9_18)
# xlow	 xhigh	 val	 errminus	 errplus
0.000000e+00	2.000000e-01	0.000000e+00	0.000000e+00	0.000000e+00
2.000000e-01	4.000000e-01	0.000000e+00	0.000000e+00	0.000000e+00
4.000000e-01	6.000000e-01	3.458428e+00	8.151592e-01	8.151592e-01
6.000000e-01	8.000000e-01	5.764045e+00	1.052366e+00	1.052366e+00
8.000000e-01	1.000000e+00	4.995507e+00	9.796994e-01	9.796994e-01
1.000000e+00	1.200000e+00	4.226967e+00	9.011924e-01	9.011924e-01
1.200000e+00	1.400000e+00	3.842698e+00	8.592533e-01	8.592533e-01
1.400000e+00	1.600000e+00	5.571910e+00	1.034678e+00	1.034678e+00
1.600000e+00	1.800000e+00	5.187640e+00	9.983620e-01	9.983620e-01
1.800000e+00	2.000000e+00	5.379775e+00	1.016682e+00	1.016682e+00
2.000000e+00	2.200000e+00	8.646070e+00	1.288880e+00	1.288880e+00
2.200000e+00	2.400000e+00	9.030340e+00	1.317210e+00	1.317210e+00
2.400000e+00	2.600000e+00	1.114382e+01	1.463256e+00	1.463256e+00
2.600000e+00	2.800000e+00	1.517866e+01	1.707732e+00	1.707732e+00
2.800000e+00	3.000000e+00	1.229663e+01	1.537079e+00	1.537079e+00
3.000000e+00	3.200000e+00	1.268090e+01	1.560911e+00	1.560911e+00
3.200000e+00	3.400000e+00	1.037529e+01	1.411897e+00	1.411897e+00
3.400000e+00	3.600000e+00	7.301125e+00	1.184399e+00	1.184399e+00
3.600000e+00	3.800000e+00	8.261800e+00	1.259913e+00	1.259913e+00
3.800000e+00	4.000000e+00	5.571910e+00	1.034678e+00	1.034678e+00
4.000000e+00	4.200000e+00	6.340450e+00	1.103731e+00	1.103731e+00
4.200000e+00	4.400000e+00	5.764045e+00	1.052366e+00	1.052366e+00
4.400000e+00	4.600000e+00	3.266293e+00	7.921924e-01	7.921924e-01
4.600000e+00	4.800000e+00	3.458427e+00	8.151592e-01	8.151592e-01
4.800000e+00	5.000000e+00	2.113483e+00	6.372394e-01	6.372394e-01
# END HISTO1D


# BEGIN HISTO1D //afs/cern.ch/user/z/zhijun/genValidation/old_v3/LNu_LO_1j_v3/merged.yoda/MC_WJETS:ENERGY=13600/jets_dR_13
ErrorBars=1
LineColor=blue
LineStyle=solid
Path=//afs/cern.ch/user/z/zhijun/genValidation/old_v3/LNu_LO_1j_v3/merged.yoda/MC_WJETS:ENERGY=13600/jets_dR_13
ScaledBy=3.72766293670276361e-02
Title=LNu_LO_1j(v3_5_2)
# xlow	 xhigh	 val	 errminus	 errplus
0.000000e+00	2.000000e-01	0.000000e+00	0.000000e+00	0.000000e+00
2.000000e-01	4.000000e-01	0.000000e+00	0.000000e+00	0.000000e+00
4.000000e-01	6.000000e-01	3.914046e+00	8.541149e-01	8.541149e-01
6.000000e-01	8.000000e-01	4.659578e+00	9.319158e-01	9.319158e-01
8.000000e-01	1.000000e+00	5.777880e+00	1.037737e+00	1.037737e+00
1.000000e+00	1.200000e+00	5.405110e+00	1.003704e+00	1.003704e+00
1.200000e+00	1.400000e+00	5.591495e+00	1.020863e+00	1.020863e+00
1.400000e+00	1.600000e+00	6.150645e+00	1.070690e+00	1.070690e+00
1.600000e+00	1.800000e+00	4.473196e+00	9.130872e-01	9.130872e-01
1.800000e+00	2.000000e+00	7.455325e+00	1.178790e+00	1.178790e+00
2.000000e+00	2.200000e+00	8.760010e+00	1.277778e+00	1.277778e+00
2.200000e+00	2.400000e+00	7.082560e+00	1.148943e+00	1.148943e+00
2.400000e+00	2.600000e+00	7.455325e+00	1.178790e+00	1.178790e+00
2.600000e+00	2.800000e+00	1.099661e+01	1.431636e+00	1.431636e+00
2.800000e+00	3.000000e+00	1.621533e+01	1.738466e+00	1.738466e+00
3.000000e+00	3.200000e+00	1.211490e+01	1.502669e+00	1.502669e+00
3.200000e+00	3.400000e+00	8.387240e+00	1.250296e+00	1.250296e+00
3.400000e+00	3.600000e+00	6.896175e+00	1.133724e+00	1.133724e+00
3.600000e+00	3.800000e+00	8.014475e+00	1.222196e+00	1.222196e+00
3.800000e+00	4.000000e+00	4.286812e+00	8.938621e-01	8.938621e-01
4.000000e+00	4.200000e+00	6.150645e+00	1.070690e+00	1.070690e+00
4.200000e+00	4.400000e+00	3.727663e+00	8.335307e-01	8.335307e-01
4.400000e+00	4.600000e+00	3.354897e+00	7.907568e-01	7.907568e-01
4.600000e+00	4.800000e+00	4.100429e+00	8.742145e-01	8.742145e-01
4.800000e+00	5.000000e+00	3.168513e+00	7.684774e-01	7.684774e-01
# END HISTO1D


# BEGIN HISTO1D //afs/cern.ch/user/z/zhijun/genValidation/LNu_LO_1j_v3/merged.yoda/MC_WJETS:ENERGY=13600/jets_dR_13
ErrorBars=1
LineColor=green
LineStyle=solid
Path=//afs/cern.ch/user/z/zhijun/genValidation/LNu_LO_1j_v3/merged.yoda/MC_WJETS:ENERGY=13600/jets_dR_13
ScaledBy=3.80242913615324654e-02
Title=LNu_LO_1j(v3_5_6)
# xlow	 xhigh	 val	 errminus	 errplus
0.000000e+00	2.000000e-01	0.000000e+00	0.000000e+00	0.000000e+00
2.000000e-01	4.000000e-01	0.000000e+00	0.000000e+00	0.000000e+00
4.000000e-01	6.000000e-01	2.851822e+00	7.363372e-01	7.363372e-01
6.000000e-01	8.000000e-01	6.083885e+00	1.075489e+00	1.075489e+00
8.000000e-01	1.000000e+00	4.562915e+00	9.314011e-01	9.314011e-01
1.000000e+00	1.200000e+00	3.802429e+00	8.502489e-01	8.502489e-01
1.200000e+00	1.400000e+00	5.133280e+00	9.879000e-01	9.879000e-01
1.400000e+00	1.600000e+00	5.513520e+00	1.023835e+00	1.023835e+00
1.600000e+00	1.800000e+00	7.034495e+00	1.156464e+00	1.156464e+00
1.800000e+00	2.000000e+00	6.844370e+00	1.140729e+00	1.140729e+00
2.000000e+00	2.200000e+00	6.844370e+00	1.140729e+00	1.140729e+00
2.200000e+00	2.400000e+00	1.007644e+01	1.384105e+00	1.384105e+00
2.400000e+00	2.600000e+00	1.064680e+01	1.422739e+00	1.422739e+00
2.600000e+00	2.800000e+00	1.178753e+01	1.497018e+00	1.497018e+00
2.800000e+00	3.000000e+00	1.635044e+01	1.763114e+00	1.763114e+00
3.000000e+00	3.200000e+00	1.349862e+01	1.601992e+00	1.601992e+00
3.200000e+00	3.400000e+00	1.045668e+01	1.409978e+00	1.409978e+00
3.400000e+00	3.600000e+00	7.985100e+00	1.232128e+00	1.232128e+00
3.600000e+00	3.800000e+00	6.274010e+00	1.092165e+00	1.092165e+00
3.800000e+00	4.000000e+00	6.654250e+00	1.124774e+00	1.124774e+00
4.000000e+00	4.200000e+00	5.513520e+00	1.023835e+00	1.023835e+00
4.200000e+00	4.400000e+00	4.753036e+00	9.506073e-01	9.506073e-01
4.400000e+00	4.600000e+00	5.323400e+00	1.006028e+00	1.006028e+00
4.600000e+00	4.800000e+00	3.232065e+00	7.838908e-01	7.838908e-01
4.800000e+00	5.000000e+00	3.041943e+00	7.604859e-01	7.604859e-01
# END HISTO1D

