# BEGIN PLOT
Legend=1
LogY=1
Title=Pseudorapidity $+/-$ ratio of first jet
XLabel=$\eta(\mathrm{jet~1})_+/\eta(\mathrm{jet~1})_-$
YLabel=$|\eta(\mathrm{jet~1}|$
DrawOnly=//afs/cern.ch/user/z/zhijun/genValidation/LNu_LO_0j_v2/merged.yoda/MC_WJETS:ENERGY=13600/jet_eta_pmratio_1 //afs/cern.ch/user/z/zhijun/genValidation/LNu_LO_0j_v3/merged.yoda/MC_WJETS:ENERGY=13600/jet_eta_pmratio_1
LegendOnly=//afs/cern.ch/user/z/zhijun/genValidation/LNu_LO_0j_v2/merged.yoda/MC_WJETS:ENERGY=13600/jet_eta_pmratio_1 //afs/cern.ch/user/z/zhijun/genValidation/LNu_LO_0j_v3/merged.yoda/MC_WJETS:ENERGY=13600/jet_eta_pmratio_1
RatioPlot=1
RatioPlotReference=//afs/cern.ch/user/z/zhijun/genValidation/LNu_LO_0j_v2/merged.yoda/MC_WJETS:ENERGY=13600/jet_eta_pmratio_1
RatioPlotYLabel=Ratio
# END PLOT

# BEGIN HISTO1D //afs/cern.ch/user/z/zhijun/genValidation/LNu_LO_0j_v2/merged.yoda/MC_WJETS:ENERGY=13600/jet_eta_pmratio_1
ErrorBars=1
ErrorBreakdown={0: {"": {up: 0.05874007647149122, dn: 0.05874007647149122}}, 1: {"": {up: 0.05892493788634818, dn: 0.05892493788634818}}, 2: {"": {up: 0.06185651549286082, dn: 0.06185651549286082}}, 3: {"": {up: 0.05811100535948803, dn: 0.05811100535948803}}, 4: {"": {up: 0.06006781386162166, dn: 0.06006781386162166}}, 5: {"": {up: 0.06198927040445048, dn: 0.06198927040445048}}, 6: {"": {up: 0.06610019543321384, dn: 0.06610019543321384}}, 7: {"": {up: 0.061761448373275, dn: 0.061761448373275}}, 8: {"": {up: 0.07201424198510217, dn: 0.07201424198510217}}, 9: {"": {up: 0.07140607493847148, dn: 0.07140607493847148}}, 10: {"": {up: 0.0624865746624334, dn: 0.0624865746624334}}, 11: {"": {up: 0.06697729762862745, dn: 0.06697729762862745}}, 12: {"": {up: 0.0668587231125192, dn: 0.0668587231125192}}, 13: {"": {up: 0.08058230553689699, dn: 0.08058230553689699}}, 14: {"": {up: 0.07566415951538788, dn: 0.07566415951538788}}, 15: {"": {up: 0.08745598607148611, dn: 0.08745598607148611}}, 16: {"": {up: 0.08627067444727106, dn: 0.08627067444727106}}, 17: {"": {up: 0.09699669885289461, dn: 0.09699669885289461}}, 18: {"": {up: 0.1104961087273828, dn: 0.1104961087273828}}, 19: {"": {up: 0.1379433089405988, dn: 0.1379433089405988}}, 20: {"": {up: 0.1445994467485958, dn: 0.1445994467485958}}, 21: {"": {up: 0.1533139673640538, dn: 0.1533139673640538}}, 22: {"": {up: 0.1712206037287926, dn: 0.1712206037287926}}, 23: {"": {up: 0.2082049104531443, dn: 0.2082049104531443}}, 24: {"": {up: 0.2478792605768786, dn: 0.2478792605768786}}}
LineColor=red
LineStyle=solid
Path=//afs/cern.ch/user/z/zhijun/genValidation/LNu_LO_0j_v2/merged.yoda/MC_WJETS:ENERGY=13600/jet_eta_pmratio_1
Title=LNu_LO_0j(v2_9_18)
# xlow	 xhigh	 val	 errminus	 errplus
0.000000e+00	2.000000e-01	1.011864e+00	5.874008e-02	5.874008e-02
2.000000e-01	4.000000e-01	9.965096e-01	5.892494e-02	5.892494e-02
4.000000e-01	6.000000e-01	1.062827e+00	6.185652e-02	6.185652e-02
6.000000e-01	8.000000e-01	9.528131e-01	5.811101e-02	5.811101e-02
8.000000e-01	1.000000e+00	1.017575e+00	6.006781e-02	6.006781e-02
1.000000e+00	1.200000e+00	1.039855e+00	6.198927e-02	6.198927e-02
1.200000e+00	1.400000e+00	1.086705e+00	6.610020e-02	6.610020e-02
1.400000e+00	1.600000e+00	1.018553e+00	6.176145e-02	6.176145e-02
1.600000e+00	1.800000e+00	1.110619e+00	7.201424e-02	7.201424e-02
1.800000e+00	2.000000e+00	1.093541e+00	7.140607e-02	7.140607e-02
2.000000e+00	2.200000e+00	9.628099e-01	6.248657e-02	6.248657e-02
2.200000e+00	2.400000e+00	9.791667e-01	6.697730e-02	6.697730e-02
2.400000e+00	2.600000e+00	9.570406e-01	6.685872e-02	6.685872e-02
2.600000e+00	2.800000e+00	1.042683e+00	8.058231e-02	8.058231e-02
2.800000e+00	3.000000e+00	9.762611e-01	7.566416e-02	7.566416e-02
3.000000e+00	3.200000e+00	1.056338e+00	8.745599e-02	8.745599e-02
3.200000e+00	3.400000e+00	9.604743e-01	8.627067e-02	8.627067e-02
3.400000e+00	3.600000e+00	9.855769e-01	9.699670e-02	9.699670e-02
3.600000e+00	3.800000e+00	9.084507e-01	1.104961e-01	1.104961e-01
3.800000e+00	4.000000e+00	1.091667e+00	1.379433e-01	1.379433e-01
4.000000e+00	4.200000e+00	1.030000e+00	1.445994e-01	1.445994e-01
4.200000e+00	4.400000e+00	9.756098e-01	1.533140e-01	1.533140e-01
4.400000e+00	4.600000e+00	8.965517e-01	1.712206e-01	1.712206e-01
4.600000e+00	4.800000e+00	1.040816e+00	2.082049e-01	2.082049e-01
4.800000e+00	5.000000e+00	1.029412e+00	2.478793e-01	2.478793e-01
# END HISTO1D


# BEGIN HISTO1D //afs/cern.ch/user/z/zhijun/genValidation/LNu_LO_0j_v3/merged.yoda/MC_WJETS:ENERGY=13600/jet_eta_pmratio_1
ErrorBars=1
ErrorBreakdown={0: {"": {up: 0.05750813413785975, dn: 0.05750813413785975}}, 1: {"": {up: 0.05137261888802699, dn: 0.05137261888802699}}, 2: {"": {up: 0.05616594257790183, dn: 0.05616594257790183}}, 3: {"": {up: 0.06479788721001617, dn: 0.06479788721001617}}, 4: {"": {up: 0.05622841154215424, dn: 0.05622841154215424}}, 5: {"": {up: 0.06187081208121802, dn: 0.06187081208121802}}, 6: {"": {up: 0.05649601600575391, dn: 0.05649601600575391}}, 7: {"": {up: 0.0621361740735329, dn: 0.0621361740735329}}, 8: {"": {up: 0.06008157214532255, dn: 0.06008157214532255}}, 9: {"": {up: 0.06298600986873981, dn: 0.06298600986873981}}, 10: {"": {up: 0.0672579441398574, dn: 0.0672579441398574}}, 11: {"": {up: 0.06136333108662008, dn: 0.06136333108662008}}, 12: {"": {up: 0.07943301400170164, dn: 0.07943301400170164}}, 13: {"": {up: 0.0664299376229205, dn: 0.0664299376229205}}, 14: {"": {up: 0.0767463355399902, dn: 0.0767463355399902}}, 15: {"": {up: 0.0862061148043986, dn: 0.0862061148043986}}, 16: {"": {up: 0.08618633157623636, dn: 0.08618633157623636}}, 17: {"": {up: 0.08717808659789467, dn: 0.08717808659789467}}, 18: {"": {up: 0.115273553106628, dn: 0.115273553106628}}, 19: {"": {up: 0.1100285031198557, dn: 0.1100285031198557}}, 20: {"": {up: 0.1673661325741635, dn: 0.1673661325741635}}, 21: {"": {up: 0.1677107873773404, dn: 0.1677107873773404}}, 22: {"": {up: 0.2231696383919641, dn: 0.2231696383919641}}, 23: {"": {up: 0.1982738005889835, dn: 0.1982738005889835}}, 24: {"": {up: 0.2662590733272753, dn: 0.2662590733272753}}}
LineColor=blue
LineStyle=solid
Path=//afs/cern.ch/user/z/zhijun/genValidation/LNu_LO_0j_v3/merged.yoda/MC_WJETS:ENERGY=13600/jet_eta_pmratio_1
Title=LNu_LO_0j(v3_5_2)
# xlow	 xhigh	 val	 errminus	 errplus
0.000000e+00	2.000000e-01	9.847716e-01	5.750813e-02	5.750813e-02
2.000000e-01	4.000000e-01	8.530885e-01	5.137262e-02	5.137262e-02
4.000000e-01	6.000000e-01	9.432014e-01	5.616594e-02	5.616594e-02
6.000000e-01	8.000000e-01	1.078652e+00	6.479789e-02	6.479789e-02
8.000000e-01	1.000000e+00	9.684909e-01	5.622841e-02	5.622841e-02
1.000000e+00	1.200000e+00	1.039711e+00	6.187081e-02	6.187081e-02
1.200000e+00	1.400000e+00	9.307282e-01	5.649602e-02	5.649602e-02
1.400000e+00	1.600000e+00	1.003839e+00	6.213617e-02	6.213617e-02
1.600000e+00	1.800000e+00	9.596929e-01	6.008157e-02	6.008157e-02
1.800000e+00	2.000000e+00	9.731405e-01	6.298601e-02	6.298601e-02
2.000000e+00	2.200000e+00	1.028200e+00	6.725794e-02	6.725794e-02
2.200000e+00	2.400000e+00	8.957871e-01	6.136333e-02	6.136333e-02
2.400000e+00	2.600000e+00	1.105691e+00	7.943301e-02	7.943301e-02
2.600000e+00	2.800000e+00	8.865435e-01	6.642994e-02	6.642994e-02
2.800000e+00	3.000000e+00	9.691358e-01	7.674634e-02	7.674634e-02
3.000000e+00	3.200000e+00	1.058020e+00	8.620611e-02	8.620611e-02
3.200000e+00	3.400000e+00	9.769231e-01	8.618633e-02	8.618633e-02
3.400000e+00	3.600000e+00	8.863636e-01	8.717809e-02	8.717809e-02
3.600000e+00	3.800000e+00	9.932886e-01	1.152736e-01	1.152736e-01
3.800000e+00	4.000000e+00	8.549618e-01	1.100285e-01	1.100285e-01
4.000000e+00	4.200000e+00	1.147727e+00	1.673661e-01	1.673661e-01
4.200000e+00	4.400000e+00	9.705882e-01	1.677108e-01	1.677108e-01
4.400000e+00	4.600000e+00	1.125000e+00	2.231696e-01	2.231696e-01
4.600000e+00	4.800000e+00	8.500000e-01	1.982738e-01	1.982738e-01
4.800000e+00	5.000000e+00	1.064516e+00	2.662591e-01	2.662591e-01
# END HISTO1D

