# BEGIN PLOT
Legend=1
LogY=1
Title=Separation between W boson and leading jet
XLabel=$\Delta R(\mathrm{W,~1st~jet})$
YLabel=$\mathrm{d}\sigma/\mathrm{d}\Delta R(\mathrm{W,~1st~jet})$ [pb]
LegendXPos=0.35
LegendYPos=0.5
DrawOnly=//afs/cern.ch/user/z/zhijun/genValidation/LNu_LO_0j_v2/merged.yoda/MC_WJETS:ENERGY=13600/W_jet1_dR //afs/cern.ch/user/z/zhijun/genValidation/LNu_LO_0j_v3/merged.yoda/MC_WJETS:ENERGY=13600/W_jet1_dR
LegendOnly=//afs/cern.ch/user/z/zhijun/genValidation/LNu_LO_0j_v2/merged.yoda/MC_WJETS:ENERGY=13600/W_jet1_dR //afs/cern.ch/user/z/zhijun/genValidation/LNu_LO_0j_v3/merged.yoda/MC_WJETS:ENERGY=13600/W_jet1_dR
RatioPlot=1
RatioPlotReference=//afs/cern.ch/user/z/zhijun/genValidation/LNu_LO_0j_v2/merged.yoda/MC_WJETS:ENERGY=13600/W_jet1_dR
RatioPlotYLabel=Ratio
# END PLOT

# BEGIN HISTO1D //afs/cern.ch/user/z/zhijun/genValidation/LNu_LO_0j_v2/merged.yoda/MC_WJETS:ENERGY=13600/W_jet1_dR
ErrorBars=1
LineColor=red
LineStyle=solid
Path=//afs/cern.ch/user/z/zhijun/genValidation/LNu_LO_0j_v2/merged.yoda/MC_WJETS:ENERGY=13600/W_jet1_dR
ScaledBy=5.43647807950569037e-02
Title=LNu_LO_0j(v2_9_18)
# xlow	 xhigh	 val	 errminus	 errplus
5.000000e-01	7.600000e-01	1.442758e+01	1.736876e+00	1.736876e+00
7.600000e-01	1.020000e+00	2.237320e+01	2.162899e+00	2.162899e+00
1.020000e+00	1.280000e+00	3.742806e+01	2.797505e+00	2.797505e+00
1.280000e+00	1.540000e+00	5.101927e+01	3.266173e+00	3.266173e+00
1.540000e+00	1.800000e+00	6.021946e+01	3.548465e+00	3.548465e+00
1.800000e+00	2.060000e+00	7.673796e+01	4.005689e+00	4.005689e+00
2.060000e+00	2.320000e+00	1.058022e+02	4.703483e+00	4.703483e+00
2.320000e+00	2.580000e+00	1.649762e+02	5.873309e+00	5.873309e+00
2.580000e+00	2.840000e+00	2.523780e+02	7.264370e+00	7.264370e+00
2.840000e+00	3.100000e+00	4.625188e+02	9.834151e+00	9.834151e+00
3.100000e+00	3.360000e+00	4.842646e+02	1.006268e+01	1.006268e+01
3.360000e+00	3.620000e+00	3.251432e+02	8.245357e+00	8.245357e+00
3.620000e+00	3.880000e+00	2.525872e+02	7.267379e+00	7.267379e+00
3.880000e+00	4.140000e+00	2.166227e+02	6.730141e+00	6.730141e+00
4.140000e+00	4.400000e+00	1.714582e+02	5.987578e+00	5.987578e+00
4.400000e+00	4.660000e+00	1.555669e+02	5.703360e+00	5.703360e+00
4.660000e+00	4.920000e+00	1.191843e+02	4.992082e+00	4.992082e+00
4.920000e+00	5.180000e+00	1.072659e+02	4.735906e+00	4.735906e+00
5.180000e+00	5.440000e+00	8.238354e+01	4.150424e+00	4.150424e+00
5.440000e+00	5.700000e+00	6.649231e+01	3.728703e+00	3.728703e+00
5.700000e+00	5.960000e+00	6.293769e+01	3.627668e+00	3.627668e+00
5.960000e+00	6.220000e+00	4.683735e+01	3.129452e+00	3.129452e+00
6.220000e+00	6.480000e+00	5.185565e+01	3.292836e+00	3.292836e+00
6.480000e+00	6.740000e+00	4.035538e+01	2.904845e+00	2.904845e+00
6.740000e+00	7.000000e+00	4.035538e+01	2.904845e+00	2.904845e+00
# END HISTO1D


# BEGIN HISTO1D //afs/cern.ch/user/z/zhijun/genValidation/LNu_LO_0j_v3/merged.yoda/MC_WJETS:ENERGY=13600/W_jet1_dR
ErrorBars=1
LineColor=blue
LineStyle=solid
Path=//afs/cern.ch/user/z/zhijun/genValidation/LNu_LO_0j_v3/merged.yoda/MC_WJETS:ENERGY=13600/W_jet1_dR
ScaledBy=5.43667733662304281e-02
Title=LNu_LO_0j(v3_5_2)
# xlow	 xhigh	 val	 errminus	 errplus
5.000000e-01	7.600000e-01	1.233708e+01	1.606150e+00	1.606150e+00
7.600000e-01	1.020000e+00	2.592877e+01	2.328472e+00	2.328472e+00
1.020000e+00	1.280000e+00	3.199275e+01	2.586461e+00	2.586461e+00
1.280000e+00	1.540000e+00	5.185754e+01	3.292957e+00	3.292957e+00
1.540000e+00	1.800000e+00	5.875792e+01	3.505204e+00	3.505204e+00
1.800000e+00	2.060000e+00	7.569527e+01	3.978455e+00	3.978455e+00
2.060000e+00	2.320000e+00	1.055970e+02	4.699005e+00	4.699005e+00
2.320000e+00	2.580000e+00	1.595456e+02	5.775937e+00	5.775937e+00
2.580000e+00	2.840000e+00	2.444414e+02	7.149365e+00	7.149365e+00
2.840000e+00	3.100000e+00	4.614904e+02	9.823390e+00	9.823390e+00
3.100000e+00	3.360000e+00	4.853281e+02	1.007390e+01	1.007390e+01
3.360000e+00	3.620000e+00	3.333102e+02	8.348421e+00	8.348421e+00
3.620000e+00	3.880000e+00	2.590786e+02	7.360306e+00	7.360306e+00
3.880000e+00	4.140000e+00	2.049209e+02	6.545958e+00	6.545958e+00
4.140000e+00	4.400000e+00	1.787830e+02	6.114251e+00	6.114251e+00
4.400000e+00	4.660000e+00	1.457448e+02	5.520477e+00	5.520477e+00
4.660000e+00	4.920000e+00	1.133338e+02	4.868104e+00	4.868104e+00
4.920000e+00	5.180000e+00	9.890569e+01	4.547689e+00	4.547689e+00
5.180000e+00	5.440000e+00	7.904092e+01	4.065426e+00	4.065426e+00
5.440000e+00	5.700000e+00	7.004950e+01	3.827213e+00	3.827213e+00
5.700000e+00	5.960000e+00	6.754027e+01	3.758041e+00	3.758041e+00
5.960000e+00	6.220000e+00	5.896704e+01	3.511436e+00	3.511436e+00
6.220000e+00	6.480000e+00	5.520319e+01	3.397521e+00	3.397521e+00
6.480000e+00	6.740000e+00	4.140238e+01	2.942340e+00	2.942340e+00
6.740000e+00	7.000000e+00	4.014777e+01	2.897416e+00	2.897416e+00
# END HISTO1D

