# BEGIN PLOT
Legend=1
LogY=1
Title=Pseudorapidity separation between muons
LegendXPos=0.1
XLabel=$\Delta\phi(\mu\mathrm{1,~}\mu\mathrm{2})$
YLabel=$\mathrm{d}\sigma/\mathrm{d}\Delta\phi(\mu\mathrm{1,~}\mu\mathrm{2})$ [pb]
DrawOnly=//afs/cern.ch/user/z/zhijun/genValidation/LNu_LO_0j_v2/merged.yoda/MC_MUONS:ENERGY=13600/muons_dphi_12 //afs/cern.ch/user/z/zhijun/genValidation/old_v3/LNu_LO_0j_v3/merged.yoda/MC_MUONS:ENERGY=13600/muons_dphi_12 //afs/cern.ch/user/z/zhijun/genValidation/LNu_LO_0j_v3/merged.yoda/MC_MUONS:ENERGY=13600/muons_dphi_12
LegendOnly=//afs/cern.ch/user/z/zhijun/genValidation/LNu_LO_0j_v2/merged.yoda/MC_MUONS:ENERGY=13600/muons_dphi_12 //afs/cern.ch/user/z/zhijun/genValidation/old_v3/LNu_LO_0j_v3/merged.yoda/MC_MUONS:ENERGY=13600/muons_dphi_12 //afs/cern.ch/user/z/zhijun/genValidation/LNu_LO_0j_v3/merged.yoda/MC_MUONS:ENERGY=13600/muons_dphi_12
RatioPlot=1
RatioPlotReference=//afs/cern.ch/user/z/zhijun/genValidation/LNu_LO_0j_v2/merged.yoda/MC_MUONS:ENERGY=13600/muons_dphi_12
RatioPlotYLabel=Ratio
# END PLOT

# BEGIN HISTO1D //afs/cern.ch/user/z/zhijun/genValidation/LNu_LO_0j_v2/merged.yoda/MC_MUONS:ENERGY=13600/muons_dphi_12
ErrorBars=1
LineColor=red
LineStyle=solid
Path=//afs/cern.ch/user/z/zhijun/genValidation/LNu_LO_0j_v2/merged.yoda/MC_MUONS:ENERGY=13600/muons_dphi_12
ScaledBy=5.66335246212207599e-02
Title=LNu_LO_0j(v2_9_18)
# xlow	 xhigh	 val	 errminus	 errplus
0.000000e+00	1.256637e-01	4.975455e+02	1.497436e+01	1.497436e+01
1.256637e-01	2.513274e-01	4.768145e+02	1.465908e+01	1.465908e+01
2.513274e-01	3.769911e-01	4.443659e+02	1.415149e+01	1.415149e+01
3.769911e-01	5.026548e-01	4.272402e+02	1.387612e+01	1.387612e+01
5.026548e-01	6.283185e-01	3.938902e+02	1.332353e+01	1.332353e+01
6.283185e-01	7.539822e-01	4.340003e+02	1.398546e+01	1.398546e+01
7.539822e-01	8.796459e-01	4.222827e+02	1.379538e+01	1.379538e+01
8.796459e-01	1.005310e+00	4.168733e+02	1.370671e+01	1.370671e+01
1.005310e+00	1.130973e+00	4.290453e+02	1.390544e+01	1.390544e+01
1.130973e+00	1.256637e+00	4.339992e+02	1.398543e+01	1.398543e+01
1.256637e+00	1.382301e+00	4.254365e+02	1.384678e+01	1.384678e+01
1.382301e+00	1.507964e+00	4.146236e+02	1.366974e+01	1.366974e+01
1.507964e+00	1.633628e+00	4.155216e+02	1.368448e+01	1.368448e+01
1.633628e+00	1.759292e+00	4.358020e+02	1.401445e+01	1.401445e+01
1.759292e+00	1.884956e+00	3.988467e+02	1.340708e+01	1.340708e+01
1.884956e+00	2.010619e+00	4.137223e+02	1.365487e+01	1.365487e+01
2.010619e+00	2.136283e+00	4.119162e+02	1.362498e+01	1.362498e+01
2.136283e+00	2.261947e+00	4.191270e+02	1.374372e+01	1.374372e+01
2.261947e+00	2.387610e+00	4.119195e+02	1.362509e+01	1.362509e+01
2.387610e+00	2.513274e+00	4.276898e+02	1.388340e+01	1.388340e+01
2.513274e+00	2.638938e+00	4.389567e+02	1.406508e+01	1.406508e+01
2.638938e+00	2.764602e+00	4.479701e+02	1.420875e+01	1.420875e+01
2.764602e+00	2.890265e+00	4.236371e+02	1.381752e+01	1.381752e+01
2.890265e+00	3.015929e+00	4.502235e+02	1.424444e+01	1.424444e+01
3.015929e+00	3.141593e+00	4.168736e+02	1.370672e+01	1.370672e+01
# END HISTO1D


# BEGIN HISTO1D //afs/cern.ch/user/z/zhijun/genValidation/old_v3/LNu_LO_0j_v3/merged.yoda/MC_MUONS:ENERGY=13600/muons_dphi_12
ErrorBars=1
LineColor=blue
LineStyle=solid
Path=//afs/cern.ch/user/z/zhijun/genValidation/old_v3/LNu_LO_0j_v3/merged.yoda/MC_MUONS:ENERGY=13600/muons_dphi_12
ScaledBy=5.43667733662304281e-02
Title=LNu_LO_0j(v3_5_2)
# xlow	 xhigh	 val	 errminus	 errplus
0.000000e+00	1.256637e-01	4.473467e+02	1.391182e+01	1.391182e+01
1.256637e-01	2.513274e-01	4.300412e+02	1.364008e+01	1.364008e+01
2.513274e-01	3.769911e-01	4.183600e+02	1.345355e+01	1.345355e+01
3.769911e-01	5.026548e-01	3.980261e+02	1.312253e+01	1.312253e+01
5.026548e-01	6.283185e-01	4.027851e+02	1.320075e+01	1.320075e+01
6.283185e-01	7.539822e-01	4.257148e+02	1.357129e+01	1.357129e+01
7.539822e-01	8.796459e-01	4.062462e+02	1.325734e+01	1.325734e+01
8.796459e-01	1.005310e+00	3.993227e+02	1.314387e+01	1.314387e+01
1.005310e+00	1.130973e+00	4.278804e+02	1.360581e+01	1.360581e+01
1.130973e+00	1.256637e+00	3.815849e+02	1.284863e+01	1.284863e+01
1.256637e+00	1.382301e+00	3.971599e+02	1.310823e+01	1.310823e+01
1.382301e+00	1.507964e+00	3.733679e+02	1.270959e+01	1.270959e+01
1.507964e+00	1.633628e+00	4.079758e+02	1.328552e+01	1.328552e+01
1.633628e+00	1.759292e+00	3.919683e+02	1.302227e+01	1.302227e+01
1.759292e+00	1.884956e+00	4.114368e+02	1.334175e+01	1.334175e+01
1.884956e+00	2.010619e+00	4.023547e+02	1.319373e+01	1.319373e+01
2.010619e+00	2.136283e+00	4.148980e+02	1.339775e+01	1.339775e+01
2.136283e+00	2.261947e+00	4.148980e+02	1.339775e+01	1.339775e+01
2.261947e+00	2.387610e+00	4.114401e+02	1.334186e+01	1.334186e+01
2.387610e+00	2.513274e+00	4.148980e+02	1.339775e+01	1.339775e+01
2.513274e+00	2.638938e+00	4.066779e+02	1.326437e+01	1.326437e+01
2.638938e+00	2.764602e+00	4.053800e+02	1.324319e+01	1.324319e+01
2.764602e+00	2.890265e+00	4.118728e+02	1.334887e+01	1.334887e+01
2.890265e+00	3.015929e+00	4.525372e+02	1.399228e+01	1.399228e+01
3.015929e+00	3.141593e+00	4.200896e+02	1.348132e+01	1.348132e+01
# END HISTO1D


# BEGIN HISTO1D //afs/cern.ch/user/z/zhijun/genValidation/LNu_LO_0j_v3/merged.yoda/MC_MUONS:ENERGY=13600/muons_dphi_12
ErrorBars=1
LineColor=green
LineStyle=solid
Path=//afs/cern.ch/user/z/zhijun/genValidation/LNu_LO_0j_v3/merged.yoda/MC_MUONS:ENERGY=13600/muons_dphi_12
ScaledBy=5.43687413244782272e-02
Title=LNu_LO_0j(v3_5_6)
# xlow	 xhigh	 val	 errminus	 errplus
0.000000e+00	1.256637e-01	4.802445e+02	1.441455e+01	1.441455e+01
1.256637e-01	2.513274e-01	4.205385e+02	1.348878e+01	1.348878e+01
2.513274e-01	3.769911e-01	4.257303e+02	1.357179e+01	1.357179e+01
3.769911e-01	5.026548e-01	4.343834e+02	1.370902e+01	1.370902e+01
5.026548e-01	6.283185e-01	3.989058e+02	1.313726e+01	1.313726e+01
6.283185e-01	7.539822e-01	4.157793e+02	1.341224e+01	1.341224e+01
7.539822e-01	8.796459e-01	4.183752e+02	1.345404e+01	1.345404e+01
8.796459e-01	1.005310e+00	4.066923e+02	1.326484e+01	1.326484e+01
1.005310e+00	1.130973e+00	4.036673e+02	1.321547e+01	1.321547e+01
1.130973e+00	1.256637e+00	4.162109e+02	1.341918e+01	1.341918e+01
1.256637e+00	1.382301e+00	4.162109e+02	1.341918e+01	1.341918e+01
1.382301e+00	1.507964e+00	4.006386e+02	1.316580e+01	1.316580e+01
1.507964e+00	1.633628e+00	4.257292e+02	1.357175e+01	1.357175e+01
1.633628e+00	1.759292e+00	4.482272e+02	1.392574e+01	1.392574e+01
1.759292e+00	1.884956e+00	4.188068e+02	1.346096e+01	1.346096e+01
1.884956e+00	2.010619e+00	4.291939e+02	1.362692e+01	1.362692e+01
2.010619e+00	2.136283e+00	4.053946e+02	1.324367e+01	1.324367e+01
2.136283e+00	2.261947e+00	4.274599e+02	1.359931e+01	1.359931e+01
2.261947e+00	2.387610e+00	4.105898e+02	1.332831e+01	1.332831e+01
2.387610e+00	2.513274e+00	4.348150e+02	1.371581e+01	1.371581e+01
2.513274e+00	2.638938e+00	4.105865e+02	1.332820e+01	1.332820e+01
2.638938e+00	2.764602e+00	4.127497e+02	1.336327e+01	1.336327e+01
2.764602e+00	2.890265e+00	4.261653e+02	1.357876e+01	1.357876e+01
2.890265e+00	3.015929e+00	4.391414e+02	1.378388e+01	1.378388e+01
3.015929e+00	3.141593e+00	4.547169e+02	1.402619e+01	1.402619e+01
# END HISTO1D

