# BEGIN PLOT
Legend=1
LogY=1
XLabel=Lepton $p_\perp$ [GeV]
Title=Scalar $\sum{p_\perp}^\gamma$ vs. associated lepton $p_\perp$
YLabel=$\langle\sum{p_\perp}^\gamma\rangle$ [GeV]
DrawOnly=//afs/cern.ch/user/z/zhijun/genValidation/LNu_LO_1j_v2/merged.yoda/MC_PHOTONS:ENERGY=13600/sumPtGamma_vs_pTlep //afs/cern.ch/user/z/zhijun/genValidation/old_v3/LNu_LO_1j_v3/merged.yoda/MC_PHOTONS:ENERGY=13600/sumPtGamma_vs_pTlep //afs/cern.ch/user/z/zhijun/genValidation/LNu_LO_1j_v3/merged.yoda/MC_PHOTONS:ENERGY=13600/sumPtGamma_vs_pTlep
LegendOnly=//afs/cern.ch/user/z/zhijun/genValidation/LNu_LO_1j_v2/merged.yoda/MC_PHOTONS:ENERGY=13600/sumPtGamma_vs_pTlep //afs/cern.ch/user/z/zhijun/genValidation/old_v3/LNu_LO_1j_v3/merged.yoda/MC_PHOTONS:ENERGY=13600/sumPtGamma_vs_pTlep //afs/cern.ch/user/z/zhijun/genValidation/LNu_LO_1j_v3/merged.yoda/MC_PHOTONS:ENERGY=13600/sumPtGamma_vs_pTlep
RatioPlot=1
RatioPlotReference=//afs/cern.ch/user/z/zhijun/genValidation/LNu_LO_1j_v2/merged.yoda/MC_PHOTONS:ENERGY=13600/sumPtGamma_vs_pTlep
RatioPlotYLabel=Ratio
# END PLOT

# BEGIN HISTO1D //afs/cern.ch/user/z/zhijun/genValidation/LNu_LO_1j_v2/merged.yoda/MC_PHOTONS:ENERGY=13600/sumPtGamma_vs_pTlep
ErrorBars=1
LineColor=red
LineStyle=solid
Path=//afs/cern.ch/user/z/zhijun/genValidation/LNu_LO_1j_v2/merged.yoda/MC_PHOTONS:ENERGY=13600/sumPtGamma_vs_pTlep
Title=LNu_LO_1j(v2_9_18)
# xlow	 xhigh	 val	 errminus	 errplus
1.000000e+01	1.220000e+01	6.092245e+01	4.386428e-01	4.386428e-01
1.220000e+01	1.440000e+01	6.250702e+01	4.271392e-01	4.271392e-01
1.440000e+01	1.660000e+01	6.209950e+01	4.081208e-01	4.081208e-01
1.660000e+01	1.880000e+01	6.139123e+01	3.768796e-01	3.768796e-01
1.880000e+01	2.100000e+01	6.212214e+01	3.622357e-01	3.622357e-01
2.100000e+01	2.320000e+01	6.146210e+01	3.547437e-01	3.547437e-01
2.320000e+01	2.540000e+01	6.090536e+01	3.476953e-01	3.476953e-01
2.540000e+01	2.760000e+01	5.960010e+01	3.412964e-01	3.412964e-01
2.760000e+01	2.980000e+01	6.027438e+01	3.518294e-01	3.518294e-01
2.980000e+01	3.200000e+01	6.046620e+01	3.609643e-01	3.609643e-01
3.200000e+01	3.420000e+01	6.092425e+01	3.747594e-01	3.747594e-01
3.420000e+01	3.640000e+01	6.045733e+01	3.865455e-01	3.865455e-01
3.640000e+01	3.860000e+01	6.035152e+01	3.988429e-01	3.988429e-01
3.860000e+01	4.080000e+01	6.040008e+01	4.088359e-01	4.088359e-01
4.080000e+01	4.300000e+01	6.078710e+01	4.257323e-01	4.257323e-01
4.300000e+01	4.520000e+01	6.068862e+01	4.232875e-01	4.232875e-01
4.520000e+01	4.740000e+01	6.056269e+01	4.247297e-01	4.247297e-01
4.740000e+01	4.960000e+01	5.959668e+01	4.398518e-01	4.398518e-01
4.960000e+01	5.180000e+01	6.043890e+01	4.716113e-01	4.716113e-01
5.180000e+01	5.400000e+01	6.054900e+01	4.909395e-01	4.909395e-01
5.400000e+01	5.620000e+01	5.969490e+01	5.032714e-01	5.032714e-01
5.620000e+01	5.840000e+01	6.019784e+01	5.172173e-01	5.172173e-01
5.840000e+01	6.060000e+01	6.081961e+01	5.455922e-01	5.455922e-01
6.060000e+01	6.280000e+01	6.114965e+01	5.894092e-01	5.894092e-01
6.280000e+01	6.500000e+01	6.334403e+01	6.487475e-01	6.487475e-01
6.500000e+01	6.720000e+01	6.456895e+01	7.384920e-01	7.384920e-01
6.720000e+01	6.940000e+01	6.363824e+01	7.510878e-01	7.510878e-01
6.940000e+01	7.160000e+01	6.537694e+01	9.088421e-01	9.088421e-01
7.160000e+01	7.380000e+01	6.441449e+01	9.399134e-01	9.399134e-01
7.380000e+01	7.600000e+01	6.486849e+01	1.011995e+00	1.011995e+00
7.600000e+01	7.820000e+01	6.691476e+01	1.137641e+00	1.137641e+00
7.820000e+01	8.040000e+01	6.684088e+01	1.227652e+00	1.227652e+00
8.040000e+01	8.260000e+01	6.803083e+01	1.389645e+00	1.389645e+00
8.260000e+01	8.480000e+01	6.874986e+01	1.407052e+00	1.407052e+00
8.480000e+01	8.700000e+01	7.005114e+01	1.507153e+00	1.507153e+00
8.700000e+01	8.920000e+01	7.136256e+01	1.719542e+00	1.719542e+00
8.920000e+01	9.140000e+01	7.263548e+01	1.987150e+00	1.987150e+00
9.140000e+01	9.360000e+01	7.155831e+01	1.998563e+00	1.998563e+00
9.360000e+01	9.580000e+01	7.860076e+01	2.240073e+00	2.240073e+00
9.580000e+01	9.800000e+01	7.414427e+01	2.279162e+00	2.279162e+00
9.800000e+01	1.002000e+02	7.875010e+01	2.446137e+00	2.446137e+00
1.002000e+02	1.024000e+02	8.022843e+01	2.857400e+00	2.857400e+00
1.024000e+02	1.046000e+02	7.495550e+01	2.860368e+00	2.860368e+00
1.046000e+02	1.068000e+02	7.167889e+01	2.833877e+00	2.833877e+00
1.068000e+02	1.090000e+02	7.485760e+01	3.334384e+00	3.334384e+00
1.090000e+02	1.112000e+02	7.562516e+01	3.690994e+00	3.690994e+00
1.112000e+02	1.134000e+02	8.235977e+01	3.377901e+00	3.377901e+00
1.134000e+02	1.156000e+02	7.874549e+01	3.491445e+00	3.491445e+00
1.156000e+02	1.178000e+02	8.061636e+01	4.471658e+00	4.471658e+00
1.178000e+02	1.200000e+02	8.008764e+01	4.501060e+00	4.501060e+00
# END HISTO1D


# BEGIN HISTO1D //afs/cern.ch/user/z/zhijun/genValidation/old_v3/LNu_LO_1j_v3/merged.yoda/MC_PHOTONS:ENERGY=13600/sumPtGamma_vs_pTlep
ErrorBars=1
LineColor=blue
LineStyle=solid
Path=//afs/cern.ch/user/z/zhijun/genValidation/old_v3/LNu_LO_1j_v3/merged.yoda/MC_PHOTONS:ENERGY=13600/sumPtGamma_vs_pTlep
Title=LNu_LO_1j(v3_5_2)
# xlow	 xhigh	 val	 errminus	 errplus
1.000000e+01	1.220000e+01	6.030189e+01	4.230664e-01	4.230664e-01
1.220000e+01	1.440000e+01	6.060109e+01	4.139627e-01	4.139627e-01
1.440000e+01	1.660000e+01	6.023876e+01	3.892805e-01	3.892805e-01
1.660000e+01	1.880000e+01	6.126859e+01	3.744969e-01	3.744969e-01
1.880000e+01	2.100000e+01	6.072666e+01	3.564145e-01	3.564145e-01
2.100000e+01	2.320000e+01	6.037128e+01	3.448627e-01	3.448627e-01
2.320000e+01	2.540000e+01	6.049087e+01	3.289741e-01	3.289741e-01
2.540000e+01	2.760000e+01	5.988768e+01	3.323422e-01	3.323422e-01
2.760000e+01	2.980000e+01	5.994433e+01	3.452056e-01	3.452056e-01
2.980000e+01	3.200000e+01	6.127639e+01	3.581502e-01	3.581502e-01
3.200000e+01	3.420000e+01	5.995108e+01	3.713184e-01	3.713184e-01
3.420000e+01	3.640000e+01	6.092125e+01	3.783630e-01	3.783630e-01
3.640000e+01	3.860000e+01	5.960056e+01	3.811930e-01	3.811930e-01
3.860000e+01	4.080000e+01	5.988499e+01	3.956423e-01	3.956423e-01
4.080000e+01	4.300000e+01	5.998027e+01	4.086836e-01	4.086836e-01
4.300000e+01	4.520000e+01	6.094194e+01	4.249951e-01	4.249951e-01
4.520000e+01	4.740000e+01	5.982955e+01	4.348068e-01	4.348068e-01
4.740000e+01	4.960000e+01	5.993571e+01	4.479402e-01	4.479402e-01
4.960000e+01	5.180000e+01	5.913161e+01	4.411465e-01	4.411465e-01
5.180000e+01	5.400000e+01	5.962995e+01	4.605408e-01	4.605408e-01
5.400000e+01	5.620000e+01	6.006379e+01	4.761174e-01	4.761174e-01
5.620000e+01	5.840000e+01	5.930021e+01	4.929999e-01	4.929999e-01
5.840000e+01	6.060000e+01	6.058887e+01	5.502054e-01	5.502054e-01
6.060000e+01	6.280000e+01	6.140191e+01	5.647058e-01	5.647058e-01
6.280000e+01	6.500000e+01	6.103550e+01	6.501587e-01	6.501587e-01
6.500000e+01	6.720000e+01	6.094733e+01	6.979749e-01	6.979749e-01
6.720000e+01	6.940000e+01	6.208767e+01	7.223771e-01	7.223771e-01
6.940000e+01	7.160000e+01	6.425141e+01	8.117883e-01	8.117883e-01
7.160000e+01	7.380000e+01	6.416645e+01	8.881345e-01	8.881345e-01
7.380000e+01	7.600000e+01	6.465816e+01	9.939559e-01	9.939559e-01
7.600000e+01	7.820000e+01	6.552028e+01	1.100792e+00	1.100792e+00
7.820000e+01	8.040000e+01	6.636350e+01	1.222468e+00	1.222468e+00
8.040000e+01	8.260000e+01	6.592364e+01	1.251351e+00	1.251351e+00
8.260000e+01	8.480000e+01	7.090515e+01	1.621974e+00	1.621974e+00
8.480000e+01	8.700000e+01	6.903032e+01	1.479331e+00	1.479331e+00
8.700000e+01	8.920000e+01	6.845852e+01	1.728920e+00	1.728920e+00
8.920000e+01	9.140000e+01	6.993806e+01	1.770620e+00	1.770620e+00
9.140000e+01	9.360000e+01	6.867925e+01	1.867879e+00	1.867879e+00
9.360000e+01	9.580000e+01	7.634042e+01	2.243068e+00	2.243068e+00
9.580000e+01	9.800000e+01	7.172049e+01	2.337945e+00	2.337945e+00
9.800000e+01	1.002000e+02	7.212017e+01	2.736520e+00	2.736520e+00
1.002000e+02	1.024000e+02	7.289475e+01	2.404041e+00	2.404041e+00
1.024000e+02	1.046000e+02	7.696067e+01	3.101788e+00	3.101788e+00
1.046000e+02	1.068000e+02	7.767088e+01	3.044014e+00	3.044014e+00
1.068000e+02	1.090000e+02	7.426660e+01	3.161456e+00	3.161456e+00
1.090000e+02	1.112000e+02	7.438201e+01	3.448850e+00	3.448850e+00
1.112000e+02	1.134000e+02	7.267513e+01	3.353647e+00	3.353647e+00
1.134000e+02	1.156000e+02	8.830534e+01	4.762030e+00	4.762030e+00
1.156000e+02	1.178000e+02	8.071088e+01	4.487118e+00	4.487118e+00
1.178000e+02	1.200000e+02	7.289914e+01	3.920994e+00	3.920994e+00
# END HISTO1D


# BEGIN HISTO1D //afs/cern.ch/user/z/zhijun/genValidation/LNu_LO_1j_v3/merged.yoda/MC_PHOTONS:ENERGY=13600/sumPtGamma_vs_pTlep
ErrorBars=1
LineColor=green
LineStyle=solid
Path=//afs/cern.ch/user/z/zhijun/genValidation/LNu_LO_1j_v3/merged.yoda/MC_PHOTONS:ENERGY=13600/sumPtGamma_vs_pTlep
Title=LNu_LO_1j(v3_5_6)
# xlow	 xhigh	 val	 errminus	 errplus
1.000000e+01	1.220000e+01	6.078640e+01	4.348009e-01	4.348009e-01
1.220000e+01	1.440000e+01	6.153551e+01	4.192525e-01	4.192525e-01
1.440000e+01	1.660000e+01	6.125362e+01	3.950818e-01	3.950818e-01
1.660000e+01	1.880000e+01	6.083513e+01	3.771703e-01	3.771703e-01
1.880000e+01	2.100000e+01	6.142177e+01	3.574462e-01	3.574462e-01
2.100000e+01	2.320000e+01	6.117946e+01	3.458503e-01	3.458503e-01
2.320000e+01	2.540000e+01	6.066282e+01	3.391085e-01	3.391085e-01
2.540000e+01	2.760000e+01	6.062263e+01	3.338286e-01	3.338286e-01
2.760000e+01	2.980000e+01	6.029752e+01	3.404694e-01	3.404694e-01
2.980000e+01	3.200000e+01	6.136083e+01	3.602778e-01	3.602778e-01
3.200000e+01	3.420000e+01	6.016814e+01	3.720207e-01	3.720207e-01
3.420000e+01	3.640000e+01	6.125871e+01	3.879157e-01	3.879157e-01
3.640000e+01	3.860000e+01	6.196946e+01	4.004613e-01	4.004613e-01
3.860000e+01	4.080000e+01	6.103348e+01	4.095835e-01	4.095835e-01
4.080000e+01	4.300000e+01	6.051803e+01	4.082253e-01	4.082253e-01
4.300000e+01	4.520000e+01	6.120947e+01	4.251440e-01	4.251440e-01
4.520000e+01	4.740000e+01	6.093544e+01	4.327991e-01	4.327991e-01
4.740000e+01	4.960000e+01	6.065704e+01	4.464731e-01	4.464731e-01
4.960000e+01	5.180000e+01	6.017568e+01	4.492260e-01	4.492260e-01
5.180000e+01	5.400000e+01	6.091033e+01	4.864810e-01	4.864810e-01
5.400000e+01	5.620000e+01	6.050466e+01	4.802845e-01	4.802845e-01
5.620000e+01	5.840000e+01	6.010133e+01	5.115757e-01	5.115757e-01
5.840000e+01	6.060000e+01	6.030681e+01	5.437057e-01	5.437057e-01
6.060000e+01	6.280000e+01	6.072632e+01	5.801998e-01	5.801998e-01
6.280000e+01	6.500000e+01	6.271420e+01	6.426298e-01	6.426298e-01
6.500000e+01	6.720000e+01	6.154537e+01	6.916528e-01	6.916528e-01
6.720000e+01	6.940000e+01	6.356280e+01	7.595325e-01	7.595325e-01
6.940000e+01	7.160000e+01	6.547210e+01	8.467942e-01	8.467942e-01
7.160000e+01	7.380000e+01	6.418430e+01	8.756204e-01	8.756204e-01
7.380000e+01	7.600000e+01	6.634442e+01	1.005551e+00	1.005551e+00
7.600000e+01	7.820000e+01	6.888755e+01	1.129803e+00	1.129803e+00
7.820000e+01	8.040000e+01	6.826721e+01	1.184176e+00	1.184176e+00
8.040000e+01	8.260000e+01	6.779838e+01	1.344459e+00	1.344459e+00
8.260000e+01	8.480000e+01	7.021479e+01	1.426190e+00	1.426190e+00
8.480000e+01	8.700000e+01	6.959165e+01	1.740239e+00	1.740239e+00
8.700000e+01	8.920000e+01	6.693199e+01	1.583206e+00	1.583206e+00
8.920000e+01	9.140000e+01	7.054376e+01	1.814599e+00	1.814599e+00
9.140000e+01	9.360000e+01	7.023783e+01	1.937972e+00	1.937972e+00
9.360000e+01	9.580000e+01	7.265918e+01	2.321526e+00	2.321526e+00
9.580000e+01	9.800000e+01	7.431416e+01	2.335963e+00	2.335963e+00
9.800000e+01	1.002000e+02	7.467793e+01	2.550701e+00	2.550701e+00
1.002000e+02	1.024000e+02	7.593160e+01	3.077284e+00	3.077284e+00
1.024000e+02	1.046000e+02	7.753954e+01	2.830246e+00	2.830246e+00
1.046000e+02	1.068000e+02	7.182519e+01	2.756739e+00	2.756739e+00
1.068000e+02	1.090000e+02	7.735541e+01	3.773806e+00	3.773806e+00
1.090000e+02	1.112000e+02	7.524753e+01	3.407059e+00	3.407059e+00
1.112000e+02	1.134000e+02	8.314178e+01	4.073734e+00	4.073734e+00
1.134000e+02	1.156000e+02	7.661730e+01	3.540725e+00	3.540725e+00
1.156000e+02	1.178000e+02	8.254465e+01	4.320800e+00	4.320800e+00
1.178000e+02	1.200000e+02	8.162274e+01	4.870382e+00	4.870382e+00
# END HISTO1D

