# BEGIN PLOT
Legend=1
LogY=1
Title=Pseudorapidity of second electron
XLabel=$\eta(\mathrm{e2})$
YLabel=$\mathrm{d}\sigma/\mathrm{d}\eta(\mathrm{e2})$ [pb]
LegendYPos=0.5
LegendXPos=0.30
DrawOnly=//afs/cern.ch/user/z/zhijun/genValidation/LNu_LO_2j_v2/merged.yoda/MC_ELECTRONS:ENERGY=13600/electron_eta_2 //afs/cern.ch/user/z/zhijun/genValidation/LNu_LO_2j_v3/merged.yoda/MC_ELECTRONS:ENERGY=13600/electron_eta_2
LegendOnly=//afs/cern.ch/user/z/zhijun/genValidation/LNu_LO_2j_v2/merged.yoda/MC_ELECTRONS:ENERGY=13600/electron_eta_2 //afs/cern.ch/user/z/zhijun/genValidation/LNu_LO_2j_v3/merged.yoda/MC_ELECTRONS:ENERGY=13600/electron_eta_2
RatioPlot=1
RatioPlotReference=//afs/cern.ch/user/z/zhijun/genValidation/LNu_LO_2j_v2/merged.yoda/MC_ELECTRONS:ENERGY=13600/electron_eta_2
RatioPlotYLabel=Ratio
# END PLOT

# BEGIN HISTO1D //afs/cern.ch/user/z/zhijun/genValidation/LNu_LO_2j_v2/merged.yoda/MC_ELECTRONS:ENERGY=13600/electron_eta_2
ErrorBars=1
LineColor=red
LineStyle=solid
Path=//afs/cern.ch/user/z/zhijun/genValidation/LNu_LO_2j_v2/merged.yoda/MC_ELECTRONS:ENERGY=13600/electron_eta_2
ScaledBy=2.59405207184518587e-02
Title=LNu_LO_2j(v2_9_18)
# xlow	 xhigh	 val	 errminus	 errplus
-5.000000e+00	-4.800000e+00	1.076531e+01	1.181647e+00	1.181647e+00
-4.800000e+00	-4.600000e+00	1.608312e+01	1.444307e+00	1.444307e+00
-4.600000e+00	-4.400000e+00	1.400788e+01	1.347909e+00	1.347909e+00
-4.400000e+00	-4.200000e+00	1.880688e+01	1.561826e+00	1.561826e+00
-4.200000e+00	-4.000000e+00	2.282766e+01	1.720700e+00	1.720700e+00
-4.000000e+00	-3.800000e+00	2.062271e+01	1.635488e+00	1.635488e+00
-3.800000e+00	-3.600000e+00	2.101182e+01	1.650844e+00	1.650844e+00
-3.600000e+00	-3.400000e+00	2.853457e+01	1.923800e+00	1.923800e+00
-3.400000e+00	-3.200000e+00	2.697814e+01	1.870597e+00	1.870597e+00
-3.200000e+00	-3.000000e+00	3.463059e+01	2.119358e+00	2.119358e+00
-3.000000e+00	-2.800000e+00	3.437119e+01	2.111405e+00	2.111405e+00
-2.800000e+00	-2.600000e+00	4.358008e+01	2.377488e+00	2.377488e+00
-2.600000e+00	-2.400000e+00	4.370977e+01	2.381023e+00	2.381023e+00
-2.400000e+00	-2.200000e+00	4.526621e+01	2.423045e+00	2.423045e+00
-2.200000e+00	-2.000000e+00	4.747115e+01	2.481357e+00	2.481357e+00
-2.000000e+00	-1.800000e+00	5.343745e+01	2.632675e+00	2.632675e+00
-1.800000e+00	-1.600000e+00	5.745825e+01	2.729924e+00	2.729924e+00
-1.600000e+00	-1.400000e+00	5.642065e+01	2.705162e+00	2.705162e+00
-1.400000e+00	-1.200000e+00	5.629095e+01	2.702051e+00	2.702051e+00
-1.200000e+00	-1.000000e+00	6.251665e+01	2.847556e+00	2.847556e+00
-1.000000e+00	-8.000000e-01	6.511070e+01	2.906033e+00	2.906033e+00
-8.000000e-01	-6.000000e-01	6.316515e+01	2.862287e+00	2.862287e+00
-6.000000e-01	-4.000000e-01	6.134935e+01	2.820845e+00	2.820845e+00
-4.000000e-01	-2.000000e-01	6.433250e+01	2.888614e+00	2.888614e+00
-2.000000e-01	0.000000e+00	6.770475e+01	2.963357e+00	2.963357e+00
0.000000e+00	2.000000e-01	6.614835e+01	2.929097e+00	2.929097e+00
2.000000e-01	4.000000e-01	6.887210e+01	2.988794e+00	2.988794e+00
4.000000e-01	6.000000e-01	6.640775e+01	2.934835e+00	2.934835e+00
6.000000e-01	8.000000e-01	5.966320e+01	2.781811e+00	2.781811e+00
8.000000e-01	1.000000e+00	6.290575e+01	2.856403e+00	2.856403e+00
1.000000e+00	1.200000e+00	6.108995e+01	2.814875e+00	2.814875e+00
1.200000e+00	1.400000e+00	5.810675e+01	2.745287e+00	2.745287e+00
1.400000e+00	1.600000e+00	5.252955e+01	2.610215e+00	2.610215e+00
1.600000e+00	1.800000e+00	5.512360e+01	2.673888e+00	2.673888e+00
1.800000e+00	2.000000e+00	5.499390e+01	2.670740e+00	2.670740e+00
2.000000e+00	2.200000e+00	4.889788e+01	2.518369e+00	2.518369e+00
2.200000e+00	2.400000e+00	4.448800e+01	2.402126e+00	2.402126e+00
2.400000e+00	2.600000e+00	4.539591e+01	2.426513e+00	2.426513e+00
2.600000e+00	2.800000e+00	3.865138e+01	2.239014e+00	2.239014e+00
2.800000e+00	3.000000e+00	3.644643e+01	2.174212e+00	2.174212e+00
3.000000e+00	3.200000e+00	3.514940e+01	2.135174e+00	2.135174e+00
3.200000e+00	3.400000e+00	2.957220e+01	1.958466e+00	1.958466e+00
3.400000e+00	3.600000e+00	2.697814e+01	1.870597e+00	1.870597e+00
3.600000e+00	3.800000e+00	2.684844e+01	1.866096e+00	1.866096e+00
3.800000e+00	4.000000e+00	2.243855e+01	1.705971e+00	1.705971e+00
4.000000e+00	4.200000e+00	1.608312e+01	1.444307e+00	1.444307e+00
4.200000e+00	4.400000e+00	2.114152e+01	1.655932e+00	1.655932e+00
4.400000e+00	4.600000e+00	1.686134e+01	1.478837e+00	1.478837e+00
4.600000e+00	4.800000e+00	1.413758e+01	1.354135e+00	1.354135e+00
4.800000e+00	5.000000e+00	1.335937e+01	1.316338e+00	1.316338e+00
# END HISTO1D


# BEGIN HISTO1D //afs/cern.ch/user/z/zhijun/genValidation/LNu_LO_2j_v3/merged.yoda/MC_ELECTRONS:ENERGY=13600/electron_eta_2
ErrorBars=1
LineColor=blue
LineStyle=solid
Path=//afs/cern.ch/user/z/zhijun/genValidation/LNu_LO_2j_v3/merged.yoda/MC_ELECTRONS:ENERGY=13600/electron_eta_2
ScaledBy=2.59473227962288451e-02
Title=LNu_LO_2j(v3_5_2)
# xlow	 xhigh	 val	 errminus	 errplus
-5.000000e+00	-4.800000e+00	1.323313e+01	1.310276e+00	1.310276e+00
-4.800000e+00	-4.600000e+00	1.660628e+01	1.467802e+00	1.467802e+00
-4.600000e+00	-4.400000e+00	1.764418e+01	1.512976e+00	1.512976e+00
-4.400000e+00	-4.200000e+00	1.621707e+01	1.450499e+00	1.450499e+00
-4.200000e+00	-4.000000e+00	1.855233e+01	1.551424e+00	1.551424e+00
-4.000000e+00	-3.800000e+00	2.270390e+01	1.716254e+00	1.716254e+00
-3.800000e+00	-3.600000e+00	2.529864e+01	1.811673e+00	1.811673e+00
-3.600000e+00	-3.400000e+00	2.724469e+01	1.880062e+00	1.880062e+00
-3.400000e+00	-3.200000e+00	2.867179e+01	1.928673e+00	1.928673e+00
-3.200000e+00	-3.000000e+00	3.593704e+01	2.159248e+00	2.159248e+00
-3.000000e+00	-2.800000e+00	3.995887e+01	2.276868e+00	2.276868e+00
-2.800000e+00	-2.600000e+00	4.099677e+01	2.306249e+00	2.306249e+00
-2.600000e+00	-2.400000e+00	4.255361e+01	2.349630e+00	2.349630e+00
-2.400000e+00	-2.200000e+00	4.385098e+01	2.385179e+00	2.385179e+00
-2.200000e+00	-2.000000e+00	4.592676e+01	2.440980e+00	2.440980e+00
-2.000000e+00	-1.800000e+00	5.630570e+01	2.702760e+00	2.702760e+00
-1.800000e+00	-1.600000e+00	5.799225e+01	2.742940e+00	2.742940e+00
-1.600000e+00	-1.400000e+00	5.332175e+01	2.630168e+00	2.630168e+00
-1.400000e+00	-1.200000e+00	6.279250e+01	2.854206e+00	2.854206e+00
-1.200000e+00	-1.000000e+00	5.941935e+01	2.776485e+00	2.776485e+00
-1.000000e+00	-8.000000e-01	6.110595e+01	2.815613e+00	2.815613e+00
-8.000000e-01	-6.000000e-01	6.201410e+01	2.836459e+00	2.836459e+00
-6.000000e-01	-4.000000e-01	6.720355e+01	2.952755e+00	2.952755e+00
-4.000000e-01	-2.000000e-01	6.551700e+01	2.915468e+00	2.915468e+00
-2.000000e-01	0.000000e+00	6.642515e+01	2.935604e+00	2.935604e+00
0.000000e+00	2.000000e-01	6.370070e+01	2.874771e+00	2.874771e+00
2.000000e-01	4.000000e-01	6.759280e+01	2.961293e+00	2.961293e+00
4.000000e-01	6.000000e-01	6.175465e+01	2.830519e+00	2.830519e+00
6.000000e-01	8.000000e-01	6.603595e+01	2.926992e+00	2.926992e+00
8.000000e-01	1.000000e+00	5.890040e+01	2.764334e+00	2.764334e+00
1.000000e+00	1.200000e+00	6.434935e+01	2.889371e+00	2.889371e+00
1.200000e+00	1.400000e+00	5.838150e+01	2.752129e+00	2.752129e+00
1.400000e+00	1.600000e+00	6.058700e+01	2.803632e+00	2.803632e+00
1.600000e+00	1.800000e+00	5.773280e+01	2.736797e+00	2.736797e+00
1.800000e+00	2.000000e+00	5.150545e+01	2.584984e+00	2.584984e+00
2.000000e+00	2.200000e+00	4.813228e+01	2.498904e+00	2.498904e+00
2.200000e+00	2.400000e+00	4.359150e+01	2.378112e+00	2.378112e+00
2.400000e+00	2.600000e+00	4.190492e+01	2.331652e+00	2.331652e+00
2.600000e+00	2.800000e+00	3.541810e+01	2.143601e+00	2.143601e+00
2.800000e+00	3.000000e+00	3.853177e+01	2.235840e+00	2.235840e+00
3.000000e+00	3.200000e+00	3.282336e+01	2.063587e+00	2.063587e+00
3.200000e+00	3.400000e+00	3.035837e+01	1.984589e+00	1.984589e+00
3.400000e+00	3.600000e+00	2.996916e+01	1.971826e+00	1.971826e+00
3.600000e+00	3.800000e+00	2.309312e+01	1.730902e+00	1.730902e+00
3.800000e+00	4.000000e+00	2.335259e+01	1.740599e+00	1.740599e+00
4.000000e+00	4.200000e+00	1.907128e+01	1.572973e+00	1.572973e+00
4.200000e+00	4.400000e+00	1.712523e+01	1.490560e+00	1.490560e+00
4.400000e+00	4.600000e+00	1.868207e+01	1.556839e+00	1.556839e+00
4.600000e+00	4.800000e+00	1.504944e+01	1.397306e+00	1.397306e+00
4.800000e+00	5.000000e+00	1.154656e+01	1.223933e+00	1.223933e+00
# END HISTO1D

