# BEGIN PLOT
Legend=1
LogY=1
Title=Rapidity $+/-$ ratio of second jet
XLabel=$y(\mathrm{jet~2})_+/y(\mathrm{jet~2})_-$
YLabel=$|y(\mathrm{jet~2}|$
DrawOnly=//afs/cern.ch/user/z/zhijun/genValidation/LNu_LO_3j_v2/merged.yoda/MC_WJETS:ENERGY=13600/jet_y_pmratio_2 //afs/cern.ch/user/z/zhijun/genValidation/LNu_LO_3j_v3/merged.yoda/MC_WJETS:ENERGY=13600/jet_y_pmratio_2
LegendOnly=//afs/cern.ch/user/z/zhijun/genValidation/LNu_LO_3j_v2/merged.yoda/MC_WJETS:ENERGY=13600/jet_y_pmratio_2 //afs/cern.ch/user/z/zhijun/genValidation/LNu_LO_3j_v3/merged.yoda/MC_WJETS:ENERGY=13600/jet_y_pmratio_2
RatioPlot=1
RatioPlotReference=//afs/cern.ch/user/z/zhijun/genValidation/LNu_LO_3j_v2/merged.yoda/MC_WJETS:ENERGY=13600/jet_y_pmratio_2
RatioPlotYLabel=Ratio
# END PLOT

# BEGIN HISTO1D //afs/cern.ch/user/z/zhijun/genValidation/LNu_LO_3j_v2/merged.yoda/MC_WJETS:ENERGY=13600/jet_y_pmratio_2
ErrorBars=1
ErrorBreakdown={0: {"": {up: 0.07529396283527545, dn: 0.07529396283527545}}, 1: {"": {up: 0.07790315288195059, dn: 0.07790315288195059}}, 2: {"": {up: 0.07289716704363088, dn: 0.07289716704363088}}, 3: {"": {up: 0.08077229369287331, dn: 0.08077229369287331}}, 4: {"": {up: 0.08361419559976022, dn: 0.08361419559976022}}, 5: {"": {up: 0.08205779354504654, dn: 0.08205779354504654}}, 6: {"": {up: 0.08123246684734366, dn: 0.08123246684734366}}, 7: {"": {up: 0.09241005111264446, dn: 0.09241005111264446}}, 8: {"": {up: 0.1073755345812658, dn: 0.1073755345812658}}, 9: {"": {up: 0.0872618378204896, dn: 0.0872618378204896}}, 10: {"": {up: 0.09314226429761119, dn: 0.09314226429761119}}, 11: {"": {up: 0.08766427946544726, dn: 0.08766427946544726}}, 12: {"": {up: 0.09903516684508308, dn: 0.09903516684508308}}, 13: {"": {up: 0.1424665139911686, dn: 0.1424665139911686}}, 14: {"": {up: 0.1094015413663694, dn: 0.1094015413663694}}, 15: {"": {up: 0.1290254970977134, dn: 0.1290254970977134}}, 16: {"": {up: 0.234834109156931, dn: 0.234834109156931}}, 17: {"": {up: 0.1607272157165206, dn: 0.1607272157165206}}, 18: {"": {up: 0.1873171623163388, dn: 0.1873171623163388}}, 19: {"": {up: 0.2998152978551767, dn: 0.2998152978551767}}, 20: {"": {up: 0.2452511939790471, dn: 0.2452511939790471}}, 21: {"": {up: 0.3414938883812553, dn: 0.3414938883812553}}, 22: {"": {up: 0.4382412504386207, dn: 0.4382412504386207}}, 23: {"": {up: 0.4264014327112209, dn: 0.4264014327112209}}, 24: {"": {up: 0.3581618117302907, dn: 0.3581618117302907}}}
LineColor=red
LineStyle=solid
Path=//afs/cern.ch/user/z/zhijun/genValidation/LNu_LO_3j_v2/merged.yoda/MC_WJETS:ENERGY=13600/jet_y_pmratio_2
Title=LNu_LO_3j(v2_9_18)
# xlow	 xhigh	 val	 errminus	 errplus
0.000000e+00	2.000000e-01	9.640719e-01	7.529396e-02	7.529396e-02
2.000000e-01	4.000000e-01	9.907692e-01	7.790315e-02	7.790315e-02
4.000000e-01	6.000000e-01	9.634831e-01	7.289717e-02	7.289717e-02
6.000000e-01	8.000000e-01	9.900662e-01	8.077229e-02	8.077229e-02
8.000000e-01	1.000000e+00	1.045752e+00	8.361420e-02	8.361420e-02
1.000000e+00	1.200000e+00	1.006667e+00	8.205779e-02	8.205779e-02
1.200000e+00	1.400000e+00	1.012945e+00	8.123247e-02	8.123247e-02
1.400000e+00	1.600000e+00	1.079848e+00	9.241005e-02	9.241005e-02
1.600000e+00	1.800000e+00	1.183036e+00	1.073755e-01	1.073755e-01
1.800000e+00	2.000000e+00	9.227468e-01	8.726184e-02	8.726184e-02
2.000000e+00	2.200000e+00	9.633028e-01	9.314226e-02	9.314226e-02
2.200000e+00	2.400000e+00	8.847926e-01	8.766428e-02	8.766428e-02
2.400000e+00	2.600000e+00	9.162011e-01	9.903517e-02	9.903517e-02
2.600000e+00	2.800000e+00	1.240876e+00	1.424665e-01	1.424665e-01
2.800000e+00	3.000000e+00	8.571429e-01	1.094015e-01	1.094015e-01
3.000000e+00	3.200000e+00	9.252336e-01	1.290255e-01	1.290255e-01
3.200000e+00	3.400000e+00	1.500000e+00	2.348341e-01	2.348341e-01
3.400000e+00	3.600000e+00	9.436620e-01	1.607272e-01	1.607272e-01
3.600000e+00	3.800000e+00	1.000000e+00	1.873172e-01	1.873172e-01
3.800000e+00	4.000000e+00	1.342857e+00	2.998153e-01	2.998153e-01
4.000000e+00	4.200000e+00	9.333333e-01	2.452512e-01	2.452512e-01
4.200000e+00	4.400000e+00	1.142857e+00	3.414939e-01	3.414939e-01
4.400000e+00	4.600000e+00	1.214286e+00	4.382413e-01	4.382413e-01
4.600000e+00	4.800000e+00	1.000000e+00	4.264014e-01	4.264014e-01
4.800000e+00	5.000000e+00	5.714286e-01	3.581618e-01	3.581618e-01
# END HISTO1D


# BEGIN HISTO1D //afs/cern.ch/user/z/zhijun/genValidation/LNu_LO_3j_v3/merged.yoda/MC_WJETS:ENERGY=13600/jet_y_pmratio_2
ErrorBars=1
ErrorBreakdown={0: {"": {up: 0.07309628182906945, dn: 0.07309628182906945}}, 1: {"": {up: 0.09321803645647017, dn: 0.09321803645647017}}, 2: {"": {up: 0.08280364033508274, dn: 0.08280364033508274}}, 3: {"": {up: 0.07196466551781074, dn: 0.07196466551781074}}, 4: {"": {up: 0.09141854304021182, dn: 0.09141854304021182}}, 5: {"": {up: 0.07922508461750952, dn: 0.07922508461750952}}, 6: {"": {up: 0.07786665530200029, dn: 0.07786665530200029}}, 7: {"": {up: 0.08893003163068411, dn: 0.08893003163068411}}, 8: {"": {up: 0.1027720023795979, dn: 0.1027720023795979}}, 9: {"": {up: 0.07967037518503303, dn: 0.07967037518503303}}, 10: {"": {up: 0.1211203968095727, dn: 0.1211203968095727}}, 11: {"": {up: 0.1179903023605831, dn: 0.1179903023605831}}, 12: {"": {up: 0.1040907130497715, dn: 0.1040907130497715}}, 13: {"": {up: 0.1119619904693231, dn: 0.1119619904693231}}, 14: {"": {up: 0.1200175869672355, dn: 0.1200175869672355}}, 15: {"": {up: 0.1412592290689178, dn: 0.1412592290689178}}, 16: {"": {up: 0.1246852461526183, dn: 0.1246852461526183}}, 17: {"": {up: 0.1469718520587976, dn: 0.1469718520587976}}, 18: {"": {up: 0.2119260851003077, dn: 0.2119260851003077}}, 19: {"": {up: 0.1967081633001445, dn: 0.1967081633001445}}, 20: {"": {up: 0.2040011976879667, dn: 0.2040011976879667}}, 21: {"": {up: 0.2744096499335917, dn: 0.2744096499335917}}, 22: {"": {up: 0.2067148502195167, dn: 0.2067148502195167}}, 23: {"": {up: 0.3042903097250923, dn: 0.3042903097250923}}, 24: {"": {up: 8.48528137423857, dn: 8.48528137423857}}}
LineColor=blue
LineStyle=solid
Path=//afs/cern.ch/user/z/zhijun/genValidation/LNu_LO_3j_v3/merged.yoda/MC_WJETS:ENERGY=13600/jet_y_pmratio_2
Title=LNu_LO_3j(v3_5_6)
# xlow	 xhigh	 val	 errminus	 errplus
0.000000e+00	2.000000e-01	9.779006e-01	7.309628e-02	7.309628e-02
2.000000e-01	4.000000e-01	1.195364e+00	9.321804e-02	9.321804e-02
4.000000e-01	6.000000e-01	1.047923e+00	8.280364e-02	8.280364e-02
6.000000e-01	8.000000e-01	9.107143e-01	7.196467e-02	7.196467e-02
8.000000e-01	1.000000e+00	1.119718e+00	9.141854e-02	9.141854e-02
1.000000e+00	1.200000e+00	9.839228e-01	7.922508e-02	7.922508e-02
1.200000e+00	1.400000e+00	9.509804e-01	7.786666e-02	7.786666e-02
1.400000e+00	1.600000e+00	1.044444e+00	8.893003e-02	8.893003e-02
1.600000e+00	1.800000e+00	1.123894e+00	1.027720e-01	1.027720e-01
1.800000e+00	2.000000e+00	8.715953e-01	7.967038e-02	7.967038e-02
2.000000e+00	2.200000e+00	1.208791e+00	1.211204e-01	1.211204e-01
2.200000e+00	2.400000e+00	1.151685e+00	1.179903e-01	1.179903e-01
2.400000e+00	2.600000e+00	9.833333e-01	1.040907e-01	1.040907e-01
2.600000e+00	2.800000e+00	9.379310e-01	1.119620e-01	1.119620e-01
2.800000e+00	3.000000e+00	9.618321e-01	1.200176e-01	1.200176e-01
3.000000e+00	3.200000e+00	1.063636e+00	1.412592e-01	1.412592e-01
3.200000e+00	3.400000e+00	8.888889e-01	1.246852e-01	1.246852e-01
3.400000e+00	3.600000e+00	8.987342e-01	1.469719e-01	1.469719e-01
3.600000e+00	3.800000e+00	1.189655e+00	2.119261e-01	2.119261e-01
3.800000e+00	4.000000e+00	9.111111e-01	1.967082e-01	1.967082e-01
4.000000e+00	4.200000e+00	8.378378e-01	2.040012e-01	2.040012e-01
4.200000e+00	4.400000e+00	1.035714e+00	2.744096e-01	2.744096e-01
4.400000e+00	4.600000e+00	5.909091e-01	2.067149e-01	2.067149e-01
4.600000e+00	4.800000e+00	6.666667e-01	3.042903e-01	3.042903e-01
4.800000e+00	5.000000e+00	8.000000e+00	8.485281e+00	8.485281e+00
# END HISTO1D

