# BEGIN PLOT
Legend=1
LogY=1
Title=Exclusive prompt muon multiplicity
XLabel=$N_{\mathrm{muon}}$
YLabel=$\sigma(N_{\mathrm{muon}})$ [pb]
XMajorTickMarks=10
XMinorTickMarks=0
ErrorBands=1
DrawOnly=//afs/cern.ch/user/z/zhijun/genValidation/LNu_LO_2j_v2/merged.yoda/MC_MUONS:ENERGY=13600/muon_multi_exclusive_prompt //afs/cern.ch/user/z/zhijun/genValidation/LNu_LO_2j_v3/merged.yoda/MC_MUONS:ENERGY=13600/muon_multi_exclusive_prompt
LegendOnly=//afs/cern.ch/user/z/zhijun/genValidation/LNu_LO_2j_v2/merged.yoda/MC_MUONS:ENERGY=13600/muon_multi_exclusive_prompt //afs/cern.ch/user/z/zhijun/genValidation/LNu_LO_2j_v3/merged.yoda/MC_MUONS:ENERGY=13600/muon_multi_exclusive_prompt
RatioPlot=1
RatioPlotReference=//afs/cern.ch/user/z/zhijun/genValidation/LNu_LO_2j_v2/merged.yoda/MC_MUONS:ENERGY=13600/muon_multi_exclusive_prompt
RatioPlotYLabel=Ratio
# END PLOT

# BEGIN HISTO1D //afs/cern.ch/user/z/zhijun/genValidation/LNu_LO_2j_v2/merged.yoda/MC_MUONS:ENERGY=13600/muon_multi_exclusive_prompt
ErrorBars=1
LineColor=red
LineStyle=solid
Path=//afs/cern.ch/user/z/zhijun/genValidation/LNu_LO_2j_v2/merged.yoda/MC_MUONS:ENERGY=13600/muon_multi_exclusive_prompt
ScaledBy=2.59405207184518587e-02
Title=LNu_LO_2j(v2_9_18)
# xlow	 xhigh	 val	 errminus	 errplus
-5.000000e-01	5.000000e-01	2.012492e+03	7.225308e+00	7.225308e+00
5.000000e-01	1.500000e+00	1.009787e+03	5.118046e+00	5.118046e+00
1.500000e+00	2.500000e+00	8.300967e-01	1.467417e-01	1.467417e-01
2.500000e+00	3.500000e+00	2.853457e-01	8.603498e-02	8.603498e-02
3.500000e+00	4.500000e+00	0.000000e+00	0.000000e+00	0.000000e+00
# END HISTO1D


# BEGIN HISTO1D //afs/cern.ch/user/z/zhijun/genValidation/LNu_LO_2j_v3/merged.yoda/MC_MUONS:ENERGY=13600/muon_multi_exclusive_prompt
ErrorBars=1
LineColor=blue
LineStyle=solid
Path=//afs/cern.ch/user/z/zhijun/genValidation/LNu_LO_2j_v3/merged.yoda/MC_MUONS:ENERGY=13600/muon_multi_exclusive_prompt
ScaledBy=2.59473227962288451e-02
Title=LNu_LO_2j(v3_5_2)
# xlow	 xhigh	 val	 errminus	 errplus
-5.000000e-01	5.000000e-01	2.017223e+03	7.234745e+00	7.234745e+00
5.000000e-01	1.500000e+00	1.006107e+03	5.109383e+00	5.109383e+00
1.500000e+00	2.500000e+00	5.967884e-01	1.244390e-01	1.244390e-01
2.500000e+00	3.500000e+00	2.335259e-01	7.784197e-02	7.784197e-02
3.500000e+00	4.500000e+00	0.000000e+00	0.000000e+00	0.000000e+00
# END HISTO1D

