# BEGIN PLOT
Legend=1
LogY=1
Title=Pseudorapidity $+/-$ ratio of third jet
XLabel=$|\eta(\mathrm{jet~3}|$
YLabel=$\eta(\mathrm{jet~3})_+/\eta(\mathrm{jet~3})_-$
DrawOnly=//afs/cern.ch/user/z/zhijun/genValidation/LNu_NLO_0j_v2/merged.yoda/MC_JETS:ENERGY=13600/jet_eta_pmratio_3 //afs/cern.ch/user/z/zhijun/genValidation/old_v3/LNu_NLO_0j_v3/merged.yoda/MC_JETS:ENERGY=13600/jet_eta_pmratio_3 //afs/cern.ch/user/z/zhijun/genValidation/LNu_NLO_0j_v3/merged.yoda/MC_JETS:ENERGY=13600/jet_eta_pmratio_3
LegendOnly=//afs/cern.ch/user/z/zhijun/genValidation/LNu_NLO_0j_v2/merged.yoda/MC_JETS:ENERGY=13600/jet_eta_pmratio_3 //afs/cern.ch/user/z/zhijun/genValidation/old_v3/LNu_NLO_0j_v3/merged.yoda/MC_JETS:ENERGY=13600/jet_eta_pmratio_3 //afs/cern.ch/user/z/zhijun/genValidation/LNu_NLO_0j_v3/merged.yoda/MC_JETS:ENERGY=13600/jet_eta_pmratio_3
RatioPlot=1
RatioPlotReference=//afs/cern.ch/user/z/zhijun/genValidation/LNu_NLO_0j_v2/merged.yoda/MC_JETS:ENERGY=13600/jet_eta_pmratio_3
RatioPlotYLabel=Ratio
# END PLOT

# BEGIN HISTO1D //afs/cern.ch/user/z/zhijun/genValidation/LNu_NLO_0j_v2/merged.yoda/MC_JETS:ENERGY=13600/jet_eta_pmratio_3
ErrorBars=1
ErrorBreakdown={0: {"": {up: 0.07711551202427527, dn: 0.07711551202427527}}, 1: {"": {up: 0.07090072026552849, dn: 0.07090072026552849}}, 2: {"": {up: 0.06167105222147341, dn: 0.06167105222147341}}, 3: {"": {up: 0.0700936669302753, dn: 0.0700936669302753}}, 4: {"": {up: 0.07980671602487466, dn: 0.07980671602487466}}, 5: {"": {up: 0.07146379787517727, dn: 0.07146379787517727}}, 6: {"": {up: 0.08133653441679063, dn: 0.08133653441679063}}, 7: {"": {up: 0.06965499194627804, dn: 0.06965499194627804}}, 8: {"": {up: 0.07058808837073756, dn: 0.07058808837073756}}, 9: {"": {up: 0.1029668216158078, dn: 0.1029668216158078}}, 10: {"": {up: 0.09330024318578514, dn: 0.09330024318578514}}, 11: {"": {up: 0.1101813635805786, dn: 0.1101813635805786}}, 12: {"": {up: 0.114397802168495, dn: 0.114397802168495}}, 13: {"": {up: 0.1905116812105178, dn: 0.1905116812105178}}, 14: {"": {up: 0.2215737389871182, dn: 0.2215737389871182}}}
LineColor=red
LineStyle=solid
Path=//afs/cern.ch/user/z/zhijun/genValidation/LNu_NLO_0j_v2/merged.yoda/MC_JETS:ENERGY=13600/jet_eta_pmratio_3
Title=LNu_NLO_0j(v2_9_18)
# xlow	 xhigh	 val	 errminus	 errplus
0.000000e+00	3.333334e-01	1.082609e+00	7.711551e-02	7.711551e-02
3.333333e-01	6.666667e-01	1.014374e+00	7.090072e-02	7.090072e-02
6.666666e-01	1.000000e+00	9.275362e-01	6.167105e-02	6.167105e-02
1.000000e+00	1.333334e+00	1.047431e+00	7.009367e-02	7.009367e-02
1.333333e+00	1.666667e+00	1.067633e+00	7.980672e-02	7.980672e-02
1.666666e+00	2.000000e+00	9.755011e-01	7.146380e-02	7.146380e-02
2.000000e+00	2.333334e+00	1.041995e+00	8.133653e-02	8.133653e-02
2.333333e+00	2.666667e+00	8.549223e-01	6.965499e-02	6.965499e-02
2.666666e+00	3.000000e+00	8.632708e-01	7.058809e-02	7.058809e-02
3.000000e+00	3.333334e+00	1.096154e+00	1.029668e-01	1.029668e-01
3.333333e+00	3.666667e+00	9.106383e-01	9.330024e-02	9.330024e-02
3.666666e+00	4.000000e+00	1.025510e+00	1.101814e-01	1.101814e-01
4.000000e+00	4.333334e+00	8.648649e-01	1.143978e-01	1.143978e-01
4.333333e+00	4.666667e+00	1.223529e+00	1.905117e-01	1.905117e-01
4.666666e+00	5.000000e+00	1.122807e+00	2.215737e-01	2.215737e-01
# END HISTO1D


# BEGIN HISTO1D //afs/cern.ch/user/z/zhijun/genValidation/old_v3/LNu_NLO_0j_v3/merged.yoda/MC_JETS:ENERGY=13600/jet_eta_pmratio_3
ErrorBars=1
ErrorBreakdown={0: {"": {up: 0.06553995080261037, dn: 0.06553995080261037}}, 1: {"": {up: 0.06615023992321142, dn: 0.06615023992321142}}, 2: {"": {up: 0.06734575797324138, dn: 0.06734575797324138}}, 3: {"": {up: 0.07011540329772729, dn: 0.07011540329772729}}, 4: {"": {up: 0.08080948286562681, dn: 0.08080948286562681}}, 5: {"": {up: 0.07489086851785556, dn: 0.07489086851785556}}, 6: {"": {up: 0.07857130914599846, dn: 0.07857130914599846}}, 7: {"": {up: 0.07824067373184729, dn: 0.07824067373184729}}, 8: {"": {up: 0.08489324126305337, dn: 0.08489324126305337}}, 9: {"": {up: 0.0882376536075333, dn: 0.0882376536075333}}, 10: {"": {up: 0.1243259080923474, dn: 0.1243259080923474}}, 11: {"": {up: 0.1327891150723695, dn: 0.1327891150723695}}, 12: {"": {up: 0.09292073482904745, dn: 0.09292073482904745}}, 13: {"": {up: 0.1811913645952221, dn: 0.1811913645952221}}, 14: {"": {up: 0.2036572789485948, dn: 0.2036572789485948}}}
LineColor=blue
LineStyle=solid
Path=//afs/cern.ch/user/z/zhijun/genValidation/old_v3/LNu_NLO_0j_v3/merged.yoda/MC_JETS:ENERGY=13600/jet_eta_pmratio_3
Title=LNu_NLO_0j(v3_5_2)
# xlow	 xhigh	 val	 errminus	 errplus
0.000000e+00	3.333334e-01	9.649805e-01	6.553995e-02	6.553995e-02
3.333333e-01	6.666667e-01	9.248434e-01	6.615024e-02	6.615024e-02
6.666666e-01	1.000000e+00	9.796748e-01	6.734576e-02	6.734576e-02
1.000000e+00	1.333334e+00	1.031120e+00	7.011540e-02	7.011540e-02
1.333333e+00	1.666667e+00	1.094203e+00	8.080948e-02	8.080948e-02
1.666666e+00	2.000000e+00	1.007075e+00	7.489087e-02	7.489087e-02
2.000000e+00	2.333334e+00	9.541779e-01	7.857131e-02	7.857131e-02
2.333333e+00	2.666667e+00	9.864865e-01	7.824067e-02	7.824067e-02
2.666666e+00	3.000000e+00	9.409836e-01	8.489324e-02	8.489324e-02
3.000000e+00	3.333334e+00	9.489051e-01	8.823765e-02	8.823765e-02
3.333333e+00	3.666667e+00	1.204878e+00	1.243259e-01	1.243259e-01
3.666666e+00	4.000000e+00	1.135484e+00	1.327891e-01	1.327891e-01
4.000000e+00	4.333334e+00	6.533334e-01	9.292073e-02	9.292073e-02
4.333333e+00	4.666667e+00	1.076923e+00	1.811914e-01	1.811914e-01
4.666666e+00	5.000000e+00	9.454545e-01	2.036573e-01	2.036573e-01
# END HISTO1D


# BEGIN HISTO1D //afs/cern.ch/user/z/zhijun/genValidation/LNu_NLO_0j_v3/merged.yoda/MC_JETS:ENERGY=13600/jet_eta_pmratio_3
ErrorBars=1
ErrorBreakdown={0: {"": {up: 0.07284412148571835, dn: 0.07284412148571835}}, 1: {"": {up: 0.07368355284755745, dn: 0.07368355284755745}}, 2: {"": {up: 0.08009577562414834, dn: 0.08009577562414834}}, 3: {"": {up: 0.07358509549212285, dn: 0.07358509549212285}}, 4: {"": {up: 0.07570185865040588, dn: 0.07570185865040588}}, 5: {"": {up: 0.07142669422393237, dn: 0.07142669422393237}}, 6: {"": {up: 0.07902653026193646, dn: 0.07902653026193646}}, 7: {"": {up: 0.09239143836601101, dn: 0.09239143836601101}}, 8: {"": {up: 0.0899618141999895, dn: 0.0899618141999895}}, 9: {"": {up: 0.100261005493913, dn: 0.100261005493913}}, 10: {"": {up: 0.1027076645534657, dn: 0.1027076645534657}}, 11: {"": {up: 0.1072841804080211, dn: 0.1072841804080211}}, 12: {"": {up: 0.1518536453883454, dn: 0.1518536453883454}}, 13: {"": {up: 0.1583290750804733, dn: 0.1583290750804733}}, 14: {"": {up: 0.1611945093804894, dn: 0.1611945093804894}}}
LineColor=green
LineStyle=solid
Path=//afs/cern.ch/user/z/zhijun/genValidation/LNu_NLO_0j_v3/merged.yoda/MC_JETS:ENERGY=13600/jet_eta_pmratio_3
Title=LNu_NLO_0j(v3_5_6)
# xlow	 xhigh	 val	 errminus	 errplus
0.000000e+00	3.333334e-01	1.075820e+00	7.284412e-02	7.284412e-02
3.333333e-01	6.666667e-01	1.064718e+00	7.368355e-02	7.368355e-02
6.666666e-01	1.000000e+00	1.120650e+00	8.009578e-02	8.009578e-02
1.000000e+00	1.333334e+00	1.026966e+00	7.358510e-02	7.358510e-02
1.333333e+00	1.666667e+00	1.034562e+00	7.570186e-02	7.570186e-02
1.666666e+00	2.000000e+00	9.794520e-01	7.142669e-02	7.142669e-02
2.000000e+00	2.333334e+00	9.838275e-01	7.902653e-02	7.902653e-02
2.333333e+00	2.666667e+00	1.153846e+00	9.239144e-02	9.239144e-02
2.666666e+00	3.000000e+00	1.019868e+00	8.996181e-02	8.996181e-02
3.000000e+00	3.333334e+00	1.064639e+00	1.002610e-01	1.002610e-01
3.333333e+00	3.666667e+00	9.908257e-01	1.027077e-01	1.027077e-01
3.666666e+00	4.000000e+00	9.392265e-01	1.072842e-01	1.072842e-01
4.000000e+00	4.333334e+00	1.035398e+00	1.518536e-01	1.518536e-01
4.333333e+00	4.666667e+00	8.915662e-01	1.583291e-01	1.583291e-01
4.666666e+00	5.000000e+00	9.000000e-01	1.611945e-01	1.611945e-01
# END HISTO1D

