# BEGIN PLOT
Legend=1
LogY=1
Title=Pseudorapidity separation between electrons
LegendYPos=0.5
LegendXPos=0.30
XLabel=$\Delta\eta(\mathrm{e1,~e2})$
YLabel=$\mathrm{d}\sigma/\mathrm{d}\Delta\eta(\mathrm{e1,~e2})$ [pb]
DrawOnly=//afs/cern.ch/user/z/zhijun/genValidation/LNu_NLO_0j_v2/merged.yoda/MC_ELECTRONS:ENERGY=13600/electrons_deta_12 //afs/cern.ch/user/z/zhijun/genValidation/LNu_NLO_0j_v3/merged.yoda/MC_ELECTRONS:ENERGY=13600/electrons_deta_12
LegendOnly=//afs/cern.ch/user/z/zhijun/genValidation/LNu_NLO_0j_v2/merged.yoda/MC_ELECTRONS:ENERGY=13600/electrons_deta_12 //afs/cern.ch/user/z/zhijun/genValidation/LNu_NLO_0j_v3/merged.yoda/MC_ELECTRONS:ENERGY=13600/electrons_deta_12
RatioPlot=1
RatioPlotReference=//afs/cern.ch/user/z/zhijun/genValidation/LNu_NLO_0j_v2/merged.yoda/MC_ELECTRONS:ENERGY=13600/electrons_deta_12
RatioPlotYLabel=Ratio
# END PLOT

# BEGIN HISTO1D //afs/cern.ch/user/z/zhijun/genValidation/LNu_NLO_0j_v2/merged.yoda/MC_ELECTRONS:ENERGY=13600/electrons_deta_12
ErrorBars=1
LineColor=red
LineStyle=solid
Path=//afs/cern.ch/user/z/zhijun/genValidation/LNu_NLO_0j_v2/merged.yoda/MC_ELECTRONS:ENERGY=13600/electrons_deta_12
ScaledBy=9.98887698110747368e-07
Title=LNu_NLO_0j(v2_9_18)
# xlow	 xhigh	 val	 errminus	 errplus
-5.000000e+00	-4.600000e+00	1.872308e+02	6.817905e+00	6.817905e+00
-4.600000e+00	-4.200000e+00	2.082446e+02	7.188919e+00	7.188919e+00
-4.200000e+00	-3.800000e+00	2.565195e+02	7.826219e+00	7.826219e+00
-3.800000e+00	-3.400000e+00	2.707180e+02	8.027418e+00	8.027418e+00
-3.400000e+00	-3.000000e+00	2.798050e+02	8.208426e+00	8.208426e+00
-3.000000e+00	-2.600000e+00	2.985470e+02	8.506464e+00	8.506464e+00
-2.600000e+00	-2.200000e+00	3.197500e+02	8.784215e+00	8.784215e+00
-2.200000e+00	-1.800000e+00	3.299730e+02	8.997857e+00	8.997857e+00
-1.800000e+00	-1.400000e+00	3.523120e+02	9.179250e+00	9.179250e+00
-1.400000e+00	-1.000000e+00	3.812768e+02	9.427722e+00	9.427722e+00
-1.000000e+00	-6.000000e-01	3.803302e+02	9.467553e+00	9.467553e+00
-6.000000e-01	-2.000000e-01	3.985043e+02	9.680922e+00	9.680922e+00
-2.000000e-01	2.000000e-01	1.465852e+03	1.874966e+01	1.874966e+01
2.000000e-01	6.000000e-01	4.117563e+02	9.809641e+00	9.809641e+00
6.000000e-01	1.000000e+00	3.954752e+02	9.647548e+00	9.647548e+00
1.000000e+00	1.400000e+00	3.623455e+02	9.324517e+00	9.324517e+00
1.400000e+00	1.800000e+00	3.441715e+02	8.959935e+00	8.959935e+00
1.800000e+00	2.200000e+00	3.350845e+02	8.979915e+00	8.979915e+00
2.200000e+00	2.600000e+00	3.136920e+02	8.731015e+00	8.731015e+00
2.600000e+00	3.000000e+00	2.945715e+02	8.479033e+00	8.479033e+00
3.000000e+00	3.400000e+00	2.949500e+02	8.351269e+00	8.351269e+00
3.400000e+00	3.800000e+00	2.705285e+02	8.069720e+00	8.069720e+00
3.800000e+00	4.200000e+00	2.487576e+02	7.685278e+00	7.685278e+00
4.200000e+00	4.600000e+00	2.063514e+02	7.283026e+00	7.283026e+00
4.600000e+00	5.000000e+00	1.944247e+02	6.891106e+00	6.891106e+00
# END HISTO1D


# BEGIN HISTO1D //afs/cern.ch/user/z/zhijun/genValidation/LNu_NLO_0j_v3/merged.yoda/MC_ELECTRONS:ENERGY=13600/electrons_deta_12
ErrorBars=1
LineColor=blue
LineStyle=solid
Path=//afs/cern.ch/user/z/zhijun/genValidation/LNu_NLO_0j_v3/merged.yoda/MC_ELECTRONS:ENERGY=13600/electrons_deta_12
ScaledBy=1.01006287099596851e-06
Title=LNu_NLO_0j(v3_5_2)
# xlow	 xhigh	 val	 errminus	 errplus
-5.000000e+00	-4.600000e+00	1.908076e+02	6.934783e+00	6.934783e+00
-4.600000e+00	-4.200000e+00	2.304237e+02	7.446693e+00	7.446693e+00
-4.200000e+00	-3.800000e+00	2.579827e+02	7.764535e+00	7.764535e+00
-3.800000e+00	-3.400000e+00	2.660208e+02	7.992336e+00	7.992336e+00
-3.400000e+00	-3.000000e+00	2.918573e+02	8.331154e+00	8.331154e+00
-3.000000e+00	-2.600000e+00	3.004695e+02	8.618556e+00	8.618556e+00
-2.600000e+00	-2.200000e+00	3.194163e+02	8.805641e+00	8.805641e+00
-2.200000e+00	-1.800000e+00	3.354922e+02	9.043675e+00	9.043675e+00
-1.800000e+00	-1.400000e+00	3.379802e+02	9.122308e+00	9.122308e+00
-1.400000e+00	-1.000000e+00	3.553960e+02	9.251878e+00	9.251878e+00
-1.000000e+00	-6.000000e-01	3.927155e+02	9.572914e+00	9.572914e+00
-6.000000e-01	-2.000000e-01	4.032415e+02	9.827783e+00	9.827783e+00
-2.000000e-01	2.000000e-01	1.474405e+03	1.877493e+01	1.877493e+01
2.000000e-01	6.000000e-01	3.965430e+02	9.743568e+00	9.743568e+00
6.000000e-01	1.000000e+00	3.668790e+02	9.474848e+00	9.474848e+00
1.000000e+00	1.400000e+00	3.680273e+02	9.463241e+00	9.463241e+00
1.400000e+00	1.800000e+00	3.534822e+02	9.192303e+00	9.192303e+00
1.800000e+00	2.200000e+00	3.322387e+02	8.996979e+00	8.996979e+00
2.200000e+00	2.600000e+00	3.161628e+02	8.694715e+00	8.694715e+00
2.600000e+00	3.000000e+00	3.121438e+02	8.675738e+00	8.675738e+00
3.000000e+00	3.400000e+00	2.920485e+02	8.324557e+00	8.324557e+00
3.400000e+00	3.800000e+00	2.598965e+02	7.923296e+00	7.923296e+00
3.800000e+00	4.200000e+00	2.399927e+02	7.631310e+00	7.631310e+00
4.200000e+00	4.600000e+00	2.248736e+02	7.310182e+00	7.310182e+00
4.600000e+00	5.000000e+00	1.848748e+02	6.825652e+00	6.825652e+00
# END HISTO1D

