# BEGIN PLOT
Legend=1
LogY=1
Title=$\Delta R$ separation between jets
LegendXPos=0.10
LegendYPos=0.5
XLabel=$\Delta{R}(\mathrm{jet~1,~jet~3})$
YLabel=$\mathrm{d}\sigma/\mathrm{d}\Delta{R}(\mathrm{jet~1,~jet~3})$ [pb]
DrawOnly=//afs/cern.ch/user/z/zhijun/genValidation/LNu_NLO_1j_NoMu_v2/merged.yoda/MC_JETS:ENERGY=13600/jets_dR_13 //afs/cern.ch/user/z/zhijun/genValidation/LNu_NLO_1j_NoMu_v3/merged.yoda/MC_JETS:ENERGY=13600/jets_dR_13
LegendOnly=//afs/cern.ch/user/z/zhijun/genValidation/LNu_NLO_1j_NoMu_v2/merged.yoda/MC_JETS:ENERGY=13600/jets_dR_13 //afs/cern.ch/user/z/zhijun/genValidation/LNu_NLO_1j_NoMu_v3/merged.yoda/MC_JETS:ENERGY=13600/jets_dR_13
RatioPlot=1
RatioPlotReference=//afs/cern.ch/user/z/zhijun/genValidation/LNu_NLO_1j_NoMu_v2/merged.yoda/MC_JETS:ENERGY=13600/jets_dR_13
RatioPlotYLabel=Ratio
# END PLOT

# BEGIN HISTO1D //afs/cern.ch/user/z/zhijun/genValidation/LNu_NLO_1j_NoMu_v2/merged.yoda/MC_JETS:ENERGY=13600/jets_dR_13
ErrorBars=1
LineColor=red
LineStyle=solid
Path=//afs/cern.ch/user/z/zhijun/genValidation/LNu_NLO_1j_NoMu_v2/merged.yoda/MC_JETS:ENERGY=13600/jets_dR_13
ScaledBy=9.97307099169993888e-08
Title=LNu_NLO_1j(v2_9_18)
# xlow	 xhigh	 val	 errminus	 errplus
0.000000e+00	2.000000e-01	0.000000e+00	0.000000e+00	0.000000e+00
2.000000e-01	4.000000e-01	2.257176e-01	1.248858e-01	1.248858e-01
4.000000e-01	6.000000e-01	7.929140e+01	2.221190e+00	2.221190e+00
6.000000e-01	8.000000e-01	1.075061e+02	2.664492e+00	2.664492e+00
8.000000e-01	1.000000e+00	9.402755e+01	2.426344e+00	2.426344e+00
1.000000e+00	1.200000e+00	9.628470e+01	2.478493e+00	2.478493e+00
1.200000e+00	1.400000e+00	1.115690e+02	2.667221e+00	2.667221e+00
1.400000e+00	1.600000e+00	1.266276e+02	2.826396e+00	2.826396e+00
1.600000e+00	1.800000e+00	1.496831e+02	3.080405e+00	3.080405e+00
1.800000e+00	2.000000e+00	1.820897e+02	3.322527e+00	3.322527e+00
2.000000e+00	2.200000e+00	2.110138e+02	3.584898e+00	3.584898e+00
2.200000e+00	2.400000e+00	2.437429e+02	3.859895e+00	3.859895e+00
2.400000e+00	2.600000e+00	2.801156e+02	4.134079e+00	4.134079e+00
2.600000e+00	2.800000e+00	3.171656e+02	4.386320e+00	4.386320e+00
2.800000e+00	3.000000e+00	3.498624e+02	4.662330e+00	4.662330e+00
3.000000e+00	3.200000e+00	3.754652e+02	4.751573e+00	4.751573e+00
3.200000e+00	3.400000e+00	2.712804e+02	4.016460e+00	4.016460e+00
3.400000e+00	3.600000e+00	2.146252e+02	3.568910e+00	3.568910e+00
3.600000e+00	3.800000e+00	1.806387e+02	3.300705e+00	3.300705e+00
3.800000e+00	4.000000e+00	1.519402e+02	3.020413e+00	3.020413e+00
4.000000e+00	4.200000e+00	1.315611e+02	2.780218e+00	2.780218e+00
4.200000e+00	4.400000e+00	1.083445e+02	2.576404e+00	2.576404e+00
4.400000e+00	4.600000e+00	9.031930e+01	2.386376e+00	2.386376e+00
4.600000e+00	4.800000e+00	7.796935e+01	2.218614e+00	2.218614e+00
4.800000e+00	5.000000e+00	6.745735e+01	2.040906e+00	2.040906e+00
# END HISTO1D


# BEGIN HISTO1D //afs/cern.ch/user/z/zhijun/genValidation/LNu_NLO_1j_NoMu_v3/merged.yoda/MC_JETS:ENERGY=13600/jets_dR_13
ErrorBars=1
LineColor=blue
LineStyle=solid
Path=//afs/cern.ch/user/z/zhijun/genValidation/LNu_NLO_1j_NoMu_v3/merged.yoda/MC_JETS:ENERGY=13600/jets_dR_13
ScaledBy=1.03822937565205431e-07
Title=LNu_NLO_1j(v3_5_2)
# xlow	 xhigh	 val	 errminus	 errplus
0.000000e+00	2.000000e-01	0.000000e+00	0.000000e+00	0.000000e+00
2.000000e-01	4.000000e-01	3.560327e-01	1.453497e-01	1.453497e-01
4.000000e-01	6.000000e-01	7.767445e+01	2.144832e+00	2.144832e+00
6.000000e-01	8.000000e-01	1.057713e+02	2.554498e+00	2.554498e+00
8.000000e-01	1.000000e+00	9.090700e+01	2.373922e+00	2.373922e+00
1.000000e+00	1.200000e+00	9.868040e+01	2.372067e+00	2.372067e+00
1.200000e+00	1.400000e+00	1.090054e+02	2.522770e+00	2.522770e+00
1.400000e+00	1.600000e+00	1.222379e+02	2.707565e+00	2.707565e+00
1.600000e+00	1.800000e+00	1.460921e+02	2.918177e+00	2.918177e+00
1.800000e+00	2.000000e+00	1.722902e+02	3.178227e+00	3.178227e+00
2.000000e+00	2.200000e+00	1.966487e+02	3.372406e+00	3.372406e+00
2.200000e+00	2.400000e+00	2.292554e+02	3.691306e+00	3.691306e+00
2.400000e+00	2.600000e+00	2.630488e+02	3.909160e+00	3.909160e+00
2.600000e+00	2.800000e+00	3.064848e+02	4.169367e+00	4.169367e+00
2.800000e+00	3.000000e+00	3.437792e+02	4.413365e+00	4.413365e+00
3.000000e+00	3.200000e+00	3.516416e+02	4.484104e+00	4.484104e+00
3.200000e+00	3.400000e+00	2.520415e+02	3.796870e+00	3.796870e+00
3.400000e+00	3.600000e+00	1.989926e+02	3.394391e+00	3.394391e+00
3.600000e+00	3.800000e+00	1.608378e+02	3.101125e+00	3.101125e+00
3.800000e+00	4.000000e+00	1.394758e+02	2.852431e+00	2.852431e+00
4.000000e+00	4.200000e+00	1.240774e+02	2.667276e+00	2.667276e+00
4.200000e+00	4.400000e+00	1.057417e+02	2.432528e+00	2.432528e+00
4.400000e+00	4.600000e+00	8.743570e+01	2.257799e+00	2.257799e+00
4.600000e+00	4.800000e+00	7.921725e+01	2.097523e+00	2.097523e+00
4.800000e+00	5.000000e+00	7.010875e+01	1.952101e+00	1.952101e+00
# END HISTO1D

