# BEGIN PLOT
Legend=1
LogY=1
Title=Azimuthal separation between jets
LegendXPos=0.1
XLabel=$\Delta\phi(\mathrm{jet~2,~jet~3})$
YLabel=$\mathrm{d}\sigma/\mathrm{d}\Delta\phi(\mathrm{jet~2,~jet~3})$ [pb]
DrawOnly=//afs/cern.ch/user/z/zhijun/genValidation/LNu_NLO_1j_NoMu_v2/merged.yoda/MC_JETS:ENERGY=13600/jets_dphi_23 //afs/cern.ch/user/z/zhijun/genValidation/LNu_NLO_1j_NoMu_v3/merged.yoda/MC_JETS:ENERGY=13600/jets_dphi_23
LegendOnly=//afs/cern.ch/user/z/zhijun/genValidation/LNu_NLO_1j_NoMu_v2/merged.yoda/MC_JETS:ENERGY=13600/jets_dphi_23 //afs/cern.ch/user/z/zhijun/genValidation/LNu_NLO_1j_NoMu_v3/merged.yoda/MC_JETS:ENERGY=13600/jets_dphi_23
RatioPlot=1
RatioPlotReference=//afs/cern.ch/user/z/zhijun/genValidation/LNu_NLO_1j_NoMu_v2/merged.yoda/MC_JETS:ENERGY=13600/jets_dphi_23
RatioPlotYLabel=Ratio
# END PLOT

# BEGIN HISTO1D //afs/cern.ch/user/z/zhijun/genValidation/LNu_NLO_1j_NoMu_v2/merged.yoda/MC_JETS:ENERGY=13600/jets_dphi_23
ErrorBars=1
LineColor=red
LineStyle=solid
Path=//afs/cern.ch/user/z/zhijun/genValidation/LNu_NLO_1j_NoMu_v2/merged.yoda/MC_JETS:ENERGY=13600/jets_dphi_23
ScaledBy=9.97307099169993888e-08
Title=LNu_NLO_1j(v2_9_18)
# xlow	 xhigh	 val	 errminus	 errplus
0.000000e+00	1.256637e-01	2.240123e+02	4.789848e+00	4.789848e+00
1.256637e-01	2.513274e-01	2.381253e+02	4.829003e+00	4.829003e+00
2.513274e-01	3.769911e-01	2.517252e+02	4.997062e+00	4.997062e+00
3.769911e-01	5.026548e-01	2.767181e+02	5.282234e+00	5.282234e+00
5.026548e-01	6.283185e-01	2.812856e+02	5.332109e+00	5.332109e+00
6.283185e-01	7.539822e-01	2.623998e+02	5.180283e+00	5.180283e+00
7.539822e-01	8.796459e-01	2.504422e+02	5.043491e+00	5.043491e+00
8.796459e-01	1.005310e+00	2.559839e+02	4.993619e+00	4.993619e+00
1.005310e+00	1.130973e+00	2.485448e+02	4.964836e+00	4.964836e+00
1.130973e+00	1.256637e+00	2.463360e+02	5.002582e+00	5.002582e+00
1.256637e+00	1.382301e+00	2.542906e+02	4.990194e+00	4.990194e+00
1.382301e+00	1.507964e+00	2.591168e+02	5.096248e+00	5.096248e+00
1.507964e+00	1.633628e+00	2.600384e+02	5.112719e+00	5.112719e+00
1.633628e+00	1.759292e+00	2.639901e+02	5.183066e+00	5.183066e+00
1.759292e+00	1.884956e+00	2.773333e+02	5.246200e+00	5.246200e+00
1.884956e+00	2.010619e+00	2.878048e+02	5.268784e+00	5.268784e+00
2.010619e+00	2.136283e+00	2.933451e+02	5.320476e+00	5.320476e+00
2.136283e+00	2.261947e+00	2.824653e+02	5.275736e+00	5.275736e+00
2.261947e+00	2.387610e+00	2.923210e+02	5.335842e+00	5.335842e+00
2.387610e+00	2.513274e+00	2.966809e+02	5.291438e+00	5.291438e+00
2.513274e+00	2.638938e+00	3.045842e+02	5.359194e+00	5.359194e+00
2.638938e+00	2.764602e+00	3.116663e+02	5.414443e+00	5.414443e+00
2.764602e+00	2.890265e+00	3.318378e+02	5.460260e+00	5.460260e+00
2.890265e+00	3.015929e+00	3.363000e+02	5.518511e+00	5.518511e+00
3.015929e+00	3.141593e+00	3.448190e+02	5.625805e+00	5.625805e+00
# END HISTO1D


# BEGIN HISTO1D //afs/cern.ch/user/z/zhijun/genValidation/LNu_NLO_1j_NoMu_v3/merged.yoda/MC_JETS:ENERGY=13600/jets_dphi_23
ErrorBars=1
LineColor=blue
LineStyle=solid
Path=//afs/cern.ch/user/z/zhijun/genValidation/LNu_NLO_1j_NoMu_v3/merged.yoda/MC_JETS:ENERGY=13600/jets_dphi_23
ScaledBy=1.03822937565205431e-07
Title=LNu_NLO_1j(v3_5_2)
# xlow	 xhigh	 val	 errminus	 errplus
0.000000e+00	1.256637e-01	2.189605e+02	4.515653e+00	4.515653e+00
1.256637e-01	2.513274e-01	2.244381e+02	4.559388e+00	4.559388e+00
2.513274e-01	3.769911e-01	2.304350e+02	4.708316e+00	4.708316e+00
3.769911e-01	5.026548e-01	2.581534e+02	5.013142e+00	5.013142e+00
5.026548e-01	6.283185e-01	2.640559e+02	5.035110e+00	5.035110e+00
6.283185e-01	7.539822e-01	2.484732e+02	4.910003e+00	4.910003e+00
7.539822e-01	8.796459e-01	2.396430e+02	4.833799e+00	4.833799e+00
8.796459e-01	1.005310e+00	2.395478e+02	4.720834e+00	4.720834e+00
1.005310e+00	1.130973e+00	2.336474e+02	4.714022e+00	4.714022e+00
1.130973e+00	1.256637e+00	2.388397e+02	4.741339e+00	4.741339e+00
1.256637e+00	1.382301e+00	2.401147e+02	4.768304e+00	4.768304e+00
1.382301e+00	1.507964e+00	2.477191e+02	4.864864e+00	4.864864e+00
1.507964e+00	1.633628e+00	2.547529e+02	4.863679e+00	4.863679e+00
1.633628e+00	1.759292e+00	2.644330e+02	4.935808e+00	4.935808e+00
1.759292e+00	1.884956e+00	2.704300e+02	4.984134e+00	4.984134e+00
1.884956e+00	2.010619e+00	2.641518e+02	4.997801e+00	4.997801e+00
2.010619e+00	2.136283e+00	2.721300e+02	5.045052e+00	5.045052e+00
2.136283e+00	2.261947e+00	2.827545e+02	5.092780e+00	5.092780e+00
2.261947e+00	2.387610e+00	2.904065e+02	5.060317e+00	5.060317e+00
2.387610e+00	2.513274e+00	2.829433e+02	5.070401e+00	5.070401e+00
2.513274e+00	2.638938e+00	2.963539e+02	5.123771e+00	5.123771e+00
2.638938e+00	2.764602e+00	3.037674e+02	5.139630e+00	5.139630e+00
2.764602e+00	2.890265e+00	3.136389e+02	5.201126e+00	5.201126e+00
2.890265e+00	3.015929e+00	3.025397e+02	5.223543e+00	5.223543e+00
3.015929e+00	3.141593e+00	3.171308e+02	5.283177e+00	5.283177e+00
# END HISTO1D

