# BEGIN PLOT
Legend=1
LogY=1
Title=Pseudorapidity of leading jet
XLabel=$\eta(\mathrm{jet~1})$
YLabel=$\mathrm{d}\sigma/\mathrm{d}\eta(\mathrm{jet~1})$ [pb]
LegendYPos=0.5
LegendXPos=0.30
DrawOnly=//afs/cern.ch/user/z/zhijun/genValidation/LNu_NLO_2j_v2/merged.yoda/MC_JETS:ENERGY=13600/jet_eta_1 //afs/cern.ch/user/z/zhijun/genValidation/LNu_NLO_2j_v3/merged.yoda/MC_JETS:ENERGY=13600/jet_eta_1
LegendOnly=//afs/cern.ch/user/z/zhijun/genValidation/LNu_NLO_2j_v2/merged.yoda/MC_JETS:ENERGY=13600/jet_eta_1 //afs/cern.ch/user/z/zhijun/genValidation/LNu_NLO_2j_v3/merged.yoda/MC_JETS:ENERGY=13600/jet_eta_1
RatioPlot=1
RatioPlotReference=//afs/cern.ch/user/z/zhijun/genValidation/LNu_NLO_2j_v2/merged.yoda/MC_JETS:ENERGY=13600/jet_eta_1
RatioPlotYLabel=Ratio
# END PLOT

# BEGIN HISTO1D //afs/cern.ch/user/z/zhijun/genValidation/LNu_NLO_2j_v2/merged.yoda/MC_JETS:ENERGY=13600/jet_eta_1
ErrorBars=1
LineColor=red
LineStyle=solid
Path=//afs/cern.ch/user/z/zhijun/genValidation/LNu_NLO_2j_v2/merged.yoda/MC_JETS:ENERGY=13600/jet_eta_1
ScaledBy=1.05288819485268553e-07
Title=LNu_NLO_2j(v2_9_18)
# xlow	 xhigh	 val	 errminus	 errplus
-5.000000e+00	-4.800000e+00	2.587184e+00	5.850489e-01	5.850489e-01
-4.800000e+00	-4.600000e+00	7.291155e+00	8.273841e-01	8.273841e-01
-4.600000e+00	-4.400000e+00	1.126013e+01	1.127589e+00	1.127589e+00
-4.400000e+00	-4.200000e+00	1.966848e+01	1.489558e+00	1.489558e+00
-4.200000e+00	-4.000000e+00	2.978201e+01	1.835783e+00	1.835783e+00
-4.000000e+00	-3.800000e+00	4.595191e+01	2.258051e+00	2.258051e+00
-3.800000e+00	-3.600000e+00	7.102995e+01	2.707019e+00	2.707019e+00
-3.600000e+00	-3.400000e+00	9.031625e+01	3.117490e+00	3.117490e+00
-3.400000e+00	-3.200000e+00	1.149239e+02	3.508693e+00	3.508693e+00
-3.200000e+00	-3.000000e+00	1.465287e+02	3.943084e+00	3.943084e+00
-3.000000e+00	-2.800000e+00	1.851306e+02	4.317571e+00	4.317571e+00
-2.800000e+00	-2.600000e+00	2.100323e+02	4.634180e+00	4.634180e+00
-2.600000e+00	-2.400000e+00	2.436069e+02	4.955243e+00	4.955243e+00
-2.400000e+00	-2.200000e+00	2.795629e+02	5.215216e+00	5.215216e+00
-2.200000e+00	-2.000000e+00	2.999075e+02	5.450871e+00	5.450871e+00
-2.000000e+00	-1.800000e+00	3.285724e+02	5.665247e+00	5.665247e+00
-1.800000e+00	-1.600000e+00	3.435369e+02	5.858831e+00	5.858831e+00
-1.600000e+00	-1.400000e+00	3.805218e+02	6.001812e+00	6.001812e+00
-1.400000e+00	-1.200000e+00	3.991319e+02	6.140692e+00	6.140692e+00
-1.200000e+00	-1.000000e+00	4.238572e+02	6.255669e+00	6.255669e+00
-1.000000e+00	-8.000000e-01	4.294432e+02	6.349748e+00	6.349748e+00
-8.000000e-01	-6.000000e-01	4.463186e+02	6.389507e+00	6.389507e+00
-6.000000e-01	-4.000000e-01	4.489058e+02	6.449424e+00	6.449424e+00
-4.000000e-01	-2.000000e-01	4.657225e+02	6.511446e+00	6.511446e+00
-2.000000e-01	0.000000e+00	4.633411e+02	6.518809e+00	6.518809e+00
0.000000e+00	2.000000e-01	4.503464e+02	6.477575e+00	6.477575e+00
2.000000e-01	4.000000e-01	4.502876e+02	6.476239e+00	6.476239e+00
4.000000e-01	6.000000e-01	4.454661e+02	6.459269e+00	6.459269e+00
6.000000e-01	8.000000e-01	4.425848e+02	6.415766e+00	6.415766e+00
8.000000e-01	1.000000e+00	4.340295e+02	6.329022e+00	6.329022e+00
1.000000e+00	1.200000e+00	4.183300e+02	6.256914e+00	6.256914e+00
1.200000e+00	1.400000e+00	3.854022e+02	6.110567e+00	6.110567e+00
1.400000e+00	1.600000e+00	3.871074e+02	6.020075e+00	6.020075e+00
1.600000e+00	1.800000e+00	3.613532e+02	5.854404e+00	5.854404e+00
1.800000e+00	2.000000e+00	3.410673e+02	5.652033e+00	5.652033e+00
2.000000e+00	2.200000e+00	3.023477e+02	5.450475e+00	5.450475e+00
2.200000e+00	2.400000e+00	2.781223e+02	5.207670e+00	5.207670e+00
2.400000e+00	2.600000e+00	2.453414e+02	4.961083e+00	4.961083e+00
2.600000e+00	2.800000e+00	2.161475e+02	4.647589e+00	4.647589e+00
2.800000e+00	3.000000e+00	1.721653e+02	4.291568e+00	4.291568e+00
3.000000e+00	3.200000e+00	1.442649e+02	3.942317e+00	3.942317e+00
3.200000e+00	3.400000e+00	1.193633e+02	3.513985e+00	3.513985e+00
3.400000e+00	3.600000e+00	8.978705e+01	3.099973e+00	3.099973e+00
3.600000e+00	3.800000e+00	6.579680e+01	2.689722e+00	2.689722e+00
3.800000e+00	4.000000e+00	4.606951e+01	2.250767e+00	2.250767e+00
4.000000e+00	4.200000e+00	2.604824e+01	1.841189e+00	1.841189e+00
4.200000e+00	4.400000e+00	1.837488e+01	1.479661e+00	1.479661e+00
4.400000e+00	4.600000e+00	1.249493e+01	1.144329e+00	1.144329e+00
4.600000e+00	4.800000e+00	5.468365e+00	7.888799e-01	7.888799e-01
4.800000e+00	5.000000e+00	3.145780e+00	5.364963e-01	5.364963e-01
# END HISTO1D


# BEGIN HISTO1D //afs/cern.ch/user/z/zhijun/genValidation/LNu_NLO_2j_v3/merged.yoda/MC_JETS:ENERGY=13600/jet_eta_1
ErrorBars=1
LineColor=blue
LineStyle=solid
Path=//afs/cern.ch/user/z/zhijun/genValidation/LNu_NLO_2j_v3/merged.yoda/MC_JETS:ENERGY=13600/jet_eta_1
ScaledBy=1.32741057796626075e-07
Title=LNu_NLO_2j(v3_5_2)
# xlow	 xhigh	 val	 errminus	 errplus
-5.000000e+00	-4.800000e+00	2.065446e+00	7.775751e-01	7.775751e-01
-4.800000e+00	-4.600000e+00	5.691450e+00	1.091967e+00	1.091967e+00
-4.600000e+00	-4.400000e+00	1.069442e+01	1.527127e+00	1.527127e+00
-4.400000e+00	-4.200000e+00	2.070036e+01	2.000156e+00	2.000156e+00
-4.200000e+00	-4.000000e+00	3.171607e+01	2.480660e+00	2.480660e+00
-4.000000e+00	-3.800000e+00	4.663318e+01	3.003480e+00	3.003480e+00
-3.800000e+00	-3.600000e+00	6.416655e+01	3.593616e+00	3.593616e+00
-3.600000e+00	-3.400000e+00	9.312865e+01	4.138790e+00	4.138790e+00
-3.400000e+00	-3.200000e+00	1.242940e+02	4.673571e+00	4.673571e+00
-3.200000e+00	-3.000000e+00	1.489416e+02	5.182502e+00	5.182502e+00
-3.000000e+00	-2.800000e+00	1.884146e+02	5.697925e+00	5.697925e+00
-2.800000e+00	-2.600000e+00	2.238485e+02	6.089337e+00	6.089337e+00
-2.600000e+00	-2.400000e+00	2.518467e+02	6.486039e+00	6.486039e+00
-2.400000e+00	-2.200000e+00	2.867758e+02	6.827670e+00	6.827670e+00
-2.200000e+00	-2.000000e+00	3.174361e+02	7.147846e+00	7.147846e+00
-2.000000e+00	-1.800000e+00	3.515849e+02	7.412338e+00	7.412338e+00
-1.800000e+00	-1.600000e+00	3.735245e+02	7.625282e+00	7.625282e+00
-1.600000e+00	-1.400000e+00	3.851828e+02	7.787933e+00	7.787933e+00
-1.400000e+00	-1.200000e+00	4.196069e+02	7.999834e+00	7.999834e+00
-1.200000e+00	-1.000000e+00	4.547195e+02	8.149204e+00	8.149204e+00
-1.000000e+00	-8.000000e-01	4.512312e+02	8.276944e+00	8.276944e+00
-8.000000e-01	-6.000000e-01	4.773476e+02	8.365680e+00	8.365680e+00
-6.000000e-01	-4.000000e-01	4.646336e+02	8.440016e+00	8.440016e+00
-4.000000e-01	-2.000000e-01	4.923106e+02	8.415643e+00	8.415643e+00
-2.000000e-01	0.000000e+00	4.808359e+02	8.458092e+00	8.458092e+00
0.000000e+00	2.000000e-01	4.821669e+02	8.439018e+00	8.439018e+00
2.000000e-01	4.000000e-01	4.775312e+02	8.404371e+00	8.404371e+00
4.000000e-01	6.000000e-01	4.837734e+02	8.399859e+00	8.399859e+00
6.000000e-01	8.000000e-01	4.762919e+02	8.381153e+00	8.381153e+00
8.000000e-01	1.000000e+00	4.629354e+02	8.279615e+00	8.279615e+00
1.000000e+00	1.200000e+00	4.271343e+02	8.092001e+00	8.092001e+00
1.200000e+00	1.400000e+00	4.228657e+02	8.065532e+00	8.065532e+00
1.400000e+00	1.600000e+00	4.106107e+02	7.884983e+00	7.884983e+00
1.600000e+00	1.800000e+00	3.781603e+02	7.619893e+00	7.619893e+00
1.800000e+00	2.000000e+00	3.537880e+02	7.408925e+00	7.408925e+00
2.000000e+00	2.200000e+00	3.178951e+02	7.122157e+00	7.122157e+00
2.200000e+00	2.400000e+00	2.793861e+02	6.807738e+00	6.807738e+00
2.400000e+00	2.600000e+00	2.558399e+02	6.478401e+00	6.478401e+00
2.600000e+00	2.800000e+00	2.240321e+02	6.100400e+00	6.100400e+00
2.800000e+00	3.000000e+00	1.847886e+02	5.648352e+00	5.648352e+00
3.000000e+00	3.200000e+00	1.492170e+02	5.175587e+00	5.175587e+00
3.200000e+00	3.400000e+00	1.175010e+02	4.676275e+00	4.676275e+00
3.400000e+00	3.600000e+00	9.312865e+01	4.130127e+00	4.130127e+00
3.600000e+00	3.800000e+00	6.021925e+01	3.616989e+00	3.616989e+00
3.800000e+00	4.000000e+00	4.594470e+01	2.999620e+00	2.999620e+00
4.000000e+00	4.200000e+00	3.350613e+01	2.493788e+00	2.493788e+00
4.200000e+00	4.400000e+00	1.822182e+01	1.966163e+00	1.966163e+00
4.400000e+00	4.600000e+00	1.234678e+01	1.492241e+00	1.492241e+00
4.600000e+00	4.800000e+00	5.324260e+00	1.135474e+00	1.135474e+00
4.800000e+00	5.000000e+00	2.753928e+00	7.707720e-01	7.707720e-01
# END HISTO1D

