# BEGIN PLOT
Legend=1
LogY=1
Title=Azimuthal separation between jets
LegendXPos=0.1
XLabel=$\Delta\phi(\mathrm{jet~1,~jet~3})$
YLabel=$\mathrm{d}\sigma/\mathrm{d}\Delta\phi(\mathrm{jet~1,~jet~3})$ [pb]
DrawOnly=//afs/cern.ch/user/z/zhijun/genValidation/LNu_NLO_2j_v2/merged.yoda/MC_JETS:ENERGY=13600/jets_dphi_13 //afs/cern.ch/user/z/zhijun/genValidation/LNu_NLO_2j_v3/merged.yoda/MC_JETS:ENERGY=13600/jets_dphi_13
LegendOnly=//afs/cern.ch/user/z/zhijun/genValidation/LNu_NLO_2j_v2/merged.yoda/MC_JETS:ENERGY=13600/jets_dphi_13 //afs/cern.ch/user/z/zhijun/genValidation/LNu_NLO_2j_v3/merged.yoda/MC_JETS:ENERGY=13600/jets_dphi_13
RatioPlot=1
RatioPlotReference=//afs/cern.ch/user/z/zhijun/genValidation/LNu_NLO_2j_v2/merged.yoda/MC_JETS:ENERGY=13600/jets_dphi_13
RatioPlotYLabel=Ratio
# END PLOT

# BEGIN HISTO1D //afs/cern.ch/user/z/zhijun/genValidation/LNu_NLO_2j_v2/merged.yoda/MC_JETS:ENERGY=13600/jets_dphi_13
ErrorBars=1
LineColor=red
LineStyle=solid
Path=//afs/cern.ch/user/z/zhijun/genValidation/LNu_NLO_2j_v2/merged.yoda/MC_JETS:ENERGY=13600/jets_dphi_13
ScaledBy=1.05288819485268553e-07
Title=LNu_NLO_2j(v2_9_18)
# xlow	 xhigh	 val	 errminus	 errplus
0.000000e+00	1.256637e-01	2.250659e+02	6.004251e+00	6.004251e+00
1.256637e-01	2.513274e-01	2.430806e+02	6.079084e+00	6.079084e+00
2.513274e-01	3.769911e-01	2.595044e+02	6.292686e+00	6.292686e+00
3.769911e-01	5.026548e-01	2.900590e+02	6.715973e+00	6.715973e+00
5.026548e-01	6.283185e-01	2.940831e+02	6.874177e+00	6.874177e+00
6.283185e-01	7.539822e-01	3.031606e+02	6.884043e+00	6.884043e+00
7.539822e-01	8.796459e-01	3.202862e+02	6.953346e+00	6.953346e+00
8.796459e-01	1.005310e+00	3.162143e+02	7.157359e+00	7.157359e+00
1.005310e+00	1.130973e+00	3.490648e+02	7.392172e+00	7.392172e+00
1.130973e+00	1.256637e+00	3.677316e+02	7.626097e+00	7.626097e+00
1.256637e+00	1.382301e+00	4.102180e+02	7.950504e+00	7.950504e+00
1.382301e+00	1.507964e+00	4.450810e+02	8.324946e+00	8.324946e+00
1.507964e+00	1.633628e+00	4.768487e+02	8.690692e+00	8.690692e+00
1.633628e+00	1.759292e+00	5.553642e+02	9.137943e+00	9.137943e+00
1.759292e+00	1.884956e+00	5.930311e+02	9.515989e+00	9.515989e+00
1.884956e+00	2.010619e+00	6.628487e+02	9.939868e+00	9.939868e+00
2.010619e+00	2.136283e+00	7.125824e+02	1.033682e+01	1.033682e+01
2.136283e+00	2.261947e+00	7.650353e+02	1.081352e+01	1.081352e+01
2.261947e+00	2.387610e+00	8.583903e+02	1.119609e+01	1.119609e+01
2.387610e+00	2.513274e+00	8.937110e+02	1.153438e+01	1.153438e+01
2.513274e+00	2.638938e+00	9.187444e+02	1.181224e+01	1.181224e+01
2.638938e+00	2.764602e+00	9.850944e+02	1.206332e+01	1.206332e+01
2.764602e+00	2.890265e+00	1.011680e+03	1.222012e+01	1.222012e+01
2.890265e+00	3.015929e+00	1.032587e+03	1.231950e+01	1.231950e+01
3.015929e+00	3.141593e+00	1.020468e+03	1.231994e+01	1.231994e+01
# END HISTO1D


# BEGIN HISTO1D //afs/cern.ch/user/z/zhijun/genValidation/LNu_NLO_2j_v3/merged.yoda/MC_JETS:ENERGY=13600/jets_dphi_13
ErrorBars=1
LineColor=blue
LineStyle=solid
Path=//afs/cern.ch/user/z/zhijun/genValidation/LNu_NLO_2j_v3/merged.yoda/MC_JETS:ENERGY=13600/jets_dphi_13
ScaledBy=1.32741057796626075e-07
Title=LNu_NLO_2j(v3_5_2)
# xlow	 xhigh	 val	 errminus	 errplus
0.000000e+00	1.256637e-01	2.396048e+02	7.882657e+00	7.882657e+00
1.256637e-01	2.513274e-01	2.486630e+02	8.025557e+00	8.025557e+00
2.513274e-01	3.769911e-01	2.594744e+02	8.226506e+00	8.226506e+00
3.769911e-01	5.026548e-01	3.246352e+02	8.812170e+00	8.812170e+00
5.026548e-01	6.283185e-01	3.212749e+02	9.068237e+00	9.068237e+00
6.283185e-01	7.539822e-01	3.187912e+02	9.089396e+00	9.089396e+00
7.539822e-01	8.796459e-01	3.404141e+02	9.204909e+00	9.204909e+00
8.796459e-01	1.005310e+00	3.255108e+02	9.443530e+00	9.443530e+00
1.005310e+00	1.130973e+00	3.471366e+02	9.689059e+00	9.689059e+00
1.130973e+00	1.256637e+00	3.808830e+02	1.012633e+01	1.012633e+01
1.256637e+00	1.382301e+00	4.247130e+02	1.040854e+01	1.040854e+01
1.382301e+00	1.507964e+00	4.585388e+02	1.088601e+01	1.088601e+01
1.507964e+00	1.633628e+00	5.098893e+02	1.136392e+01	1.136392e+01
1.633628e+00	1.759292e+00	5.457569e+02	1.185551e+01	1.185551e+01
1.759292e+00	1.884956e+00	6.350972e+02	1.250031e+01	1.250031e+01
1.884956e+00	2.010619e+00	6.704587e+02	1.298946e+01	1.298946e+01
2.010619e+00	2.136283e+00	7.240720e+02	1.355034e+01	1.355034e+01
2.136283e+00	2.261947e+00	8.274382e+02	1.413382e+01	1.413382e+01
2.261947e+00	2.387610e+00	8.928977e+02	1.464825e+01	1.464825e+01
2.387610e+00	2.513274e+00	9.636029e+02	1.505806e+01	1.505806e+01
2.513274e+00	2.638938e+00	1.005095e+03	1.543501e+01	1.543501e+01
2.638938e+00	2.764602e+00	1.031978e+03	1.575055e+01	1.575055e+01
2.764602e+00	2.890265e+00	1.035712e+03	1.592571e+01	1.592571e+01
2.890265e+00	3.015929e+00	1.064924e+03	1.599412e+01	1.599412e+01
3.015929e+00	3.141593e+00	1.069818e+03	1.605756e+01	1.605756e+01
# END HISTO1D

