# BEGIN PLOT
Legend=1
LogY=1
Title=Pseudorapidity $+/-$ ratio of second tau
XLabel=$\eta(\tau\mathrm{2})_+/\eta(\tau\mathrm{2})_-$
YLabel=$|\eta(\tau\mathrm{2}|$
DrawOnly=//afs/cern.ch/user/z/zhijun/genValidation/LNu_NLO_1j_NoMu_v2/merged.yoda/MC_TAUS:ENERGY=13600/tau_eta_pmratio_2 //afs/cern.ch/user/z/zhijun/genValidation/LNu_NLO_1j_NoMu_v3/merged.yoda/MC_TAUS:ENERGY=13600/tau_eta_pmratio_2
LegendOnly=//afs/cern.ch/user/z/zhijun/genValidation/LNu_NLO_1j_NoMu_v2/merged.yoda/MC_TAUS:ENERGY=13600/tau_eta_pmratio_2 //afs/cern.ch/user/z/zhijun/genValidation/LNu_NLO_1j_NoMu_v3/merged.yoda/MC_TAUS:ENERGY=13600/tau_eta_pmratio_2
RatioPlot=1
RatioPlotReference=//afs/cern.ch/user/z/zhijun/genValidation/LNu_NLO_1j_NoMu_v2/merged.yoda/MC_TAUS:ENERGY=13600/tau_eta_pmratio_2
RatioPlotYLabel=Ratio
# END PLOT

# BEGIN HISTO1D //afs/cern.ch/user/z/zhijun/genValidation/LNu_NLO_1j_NoMu_v2/merged.yoda/MC_TAUS:ENERGY=13600/tau_eta_pmratio_2
ErrorBars=1
ErrorBreakdown={0: {"": {up: 0.1951979561631917, dn: 0.1951979561631917}}, 1: {"": {up: 0.2926911808970886, dn: 0.2926911808970886}}, 2: {"": {up: 0.1727574694295882, dn: 0.1727574694295882}}, 3: {"": {up: 0.208758198324802, dn: 0.208758198324802}}, 4: {"": {up: 0.2006253608189321, dn: 0.2006253608189321}}, 5: {"": {up: 0.2257803041454656, dn: 0.2257803041454656}}, 6: {"": {up: 0.1784334570419691, dn: 0.1784334570419691}}, 7: {"": {up: 0.1336807106029762, dn: 0.1336807106029762}}, 8: {"": {up: 0.2717528426748287, dn: 0.2717528426748287}}, 9: {"": {up: 0.1644983680140615, dn: 0.1644983680140615}}, 10: {"": {up: 0.1791578221240762, dn: 0.1791578221240762}}, 11: {"": {up: 0.1745149807071984, dn: 0.1745149807071984}}, 12: {"": {up: 0.2447892027659636, dn: 0.2447892027659636}}, 13: {"": {up: 0.1465960539593897, dn: 0.1465960539593897}}, 14: {"": {up: 0.2361847029262037, dn: 0.2361847029262037}}, 15: {"": {up: 0.1814357904592533, dn: 0.1814357904592533}}, 16: {"": {up: 0.4602944770734358, dn: 0.4602944770734358}}, 17: {"": {up: 0.2327847275053584, dn: 0.2327847275053584}}, 18: {"": {up: 0.1773834811550928, dn: 0.1773834811550928}}, 19: {"": {up: 0.2078047476930252, dn: 0.2078047476930252}}, 20: {"": {up: 0.2185733797238746, dn: 0.2185733797238746}}, 21: {"": {up: 0.4230210227743572, dn: 0.4230210227743572}}, 22: {"": {up: 0.5515801606584553, dn: 0.5515801606584553}}, 23: {"": {up: 0.3428523020404506, dn: 0.3428523020404506}}, 24: {"": {up: 0.217992486955237, dn: 0.217992486955237}}}
LineColor=red
LineStyle=solid
Path=//afs/cern.ch/user/z/zhijun/genValidation/LNu_NLO_1j_NoMu_v2/merged.yoda/MC_TAUS:ENERGY=13600/tau_eta_pmratio_2
Title=LNu_NLO_1j(v2_9_18)
# xlow	 xhigh	 val	 errminus	 errplus
0.000000e+00	2.000000e-01	9.207921e-01	1.951980e-01	1.951980e-01
2.000000e-01	4.000000e-01	1.253165e+00	2.926912e-01	2.926912e-01
4.000000e-01	6.000000e-01	9.500000e-01	1.727575e-01	1.727575e-01
6.000000e-01	8.000000e-01	1.129630e+00	2.087582e-01	2.087582e-01
8.000000e-01	1.000000e+00	1.036364e+00	2.006254e-01	2.006254e-01
1.000000e+00	1.200000e+00	1.132653e+00	2.257803e-01	2.257803e-01
1.200000e+00	1.400000e+00	1.008403e+00	1.784335e-01	1.784335e-01
1.400000e+00	1.600000e+00	7.837838e-01	1.336807e-01	1.336807e-01
1.600000e+00	1.800000e+00	1.288889e+00	2.717528e-01	2.717528e-01
1.800000e+00	2.000000e+00	7.545455e-01	1.644984e-01	1.644984e-01
2.000000e+00	2.200000e+00	7.909091e-01	1.791578e-01	1.791578e-01
2.200000e+00	2.400000e+00	9.051724e-01	1.745150e-01	1.745150e-01
2.400000e+00	2.600000e+00	1.255319e+00	2.447892e-01	2.447892e-01
2.600000e+00	2.800000e+00	5.855856e-01	1.465961e-01	1.465961e-01
2.800000e+00	3.000000e+00	1.202128e+00	2.361847e-01	2.361847e-01
3.000000e+00	3.200000e+00	8.064516e-01	1.814358e-01	1.814358e-01
3.200000e+00	3.400000e+00	1.530612e+00	4.602945e-01	4.602945e-01
3.400000e+00	3.600000e+00	1.109756e+00	2.327847e-01	2.327847e-01
3.600000e+00	3.800000e+00	7.812500e-01	1.773835e-01	1.773835e-01
3.800000e+00	4.000000e+00	8.589744e-01	2.078047e-01	2.078047e-01
4.000000e+00	4.200000e+00	7.812500e-01	2.185734e-01	2.185734e-01
4.200000e+00	4.400000e+00	1.660377e+00	4.230210e-01	4.230210e-01
4.400000e+00	4.600000e+00	1.850000e+00	5.515802e-01	5.515802e-01
4.600000e+00	4.800000e+00	1.291667e+00	3.428523e-01	3.428523e-01
4.800000e+00	5.000000e+00	8.275862e-01	2.179925e-01	2.179925e-01
# END HISTO1D


# BEGIN HISTO1D //afs/cern.ch/user/z/zhijun/genValidation/LNu_NLO_1j_NoMu_v3/merged.yoda/MC_TAUS:ENERGY=13600/tau_eta_pmratio_2
ErrorBars=1
ErrorBreakdown={0: {"": {up: 0.1738240763749598, dn: 0.1738240763749598}}, 1: {"": {up: 0.1498704765272175, dn: 0.1498704765272175}}, 2: {"": {up: 0.1729999159496868, dn: 0.1729999159496868}}, 3: {"": {up: 0.1757418811804101, dn: 0.1757418811804101}}, 4: {"": {up: 0.1200586637869678, dn: 0.1200586637869678}}, 5: {"": {up: 0.218197240871744, dn: 0.218197240871744}}, 6: {"": {up: 0.1978429594431346, dn: 0.1978429594431346}}, 7: {"": {up: 0.1848888077679773, dn: 0.1848888077679773}}, 8: {"": {up: 0.18998147186739, dn: 0.18998147186739}}, 9: {"": {up: 0.2039714789869694, dn: 0.2039714789869694}}, 10: {"": {up: 0.1399902611230306, dn: 0.1399902611230306}}, 11: {"": {up: 0.2744180855717532, dn: 0.2744180855717532}}, 12: {"": {up: 0.1574080565574361, dn: 0.1574080565574361}}, 13: {"": {up: 0.1884874172086732, dn: 0.1884874172086732}}, 14: {"": {up: 0.1910752255025361, dn: 0.1910752255025361}}, 15: {"": {up: 0.1943961306886357, dn: 0.1943961306886357}}, 16: {"": {up: 0.1669677650081628, dn: 0.1669677650081628}}, 17: {"": {up: 0.2656431831341401, dn: 0.2656431831341401}}, 18: {"": {up: 0.3275039485311453, dn: 0.3275039485311453}}, 19: {"": {up: 0.1640331404274946, dn: 0.1640331404274946}}, 20: {"": {up: 0.3034231124141037, dn: 0.3034231124141037}}, 21: {"": {up: 0.2586153380188116, dn: 0.2586153380188116}}, 22: {"": {up: 0.2226808915632567, dn: 0.2226808915632567}}, 23: {"": {up: 0.4791659962293182, dn: 0.4791659962293182}}, 24: {"": {up: 0.7507929529020703, dn: 0.7507929529020703}}}
LineColor=blue
LineStyle=solid
Path=//afs/cern.ch/user/z/zhijun/genValidation/LNu_NLO_1j_NoMu_v3/merged.yoda/MC_TAUS:ENERGY=13600/tau_eta_pmratio_2
Title=LNu_NLO_1j(v3_5_2)
# xlow	 xhigh	 val	 errminus	 errplus
0.000000e+00	2.000000e-01	8.636364e-01	1.738241e-01	1.738241e-01
2.000000e-01	4.000000e-01	6.610169e-01	1.498705e-01	1.498705e-01
4.000000e-01	6.000000e-01	8.636364e-01	1.729999e-01	1.729999e-01
6.000000e-01	8.000000e-01	8.859649e-01	1.757419e-01	1.757419e-01
8.000000e-01	1.000000e+00	6.923077e-01	1.200587e-01	1.200587e-01
1.000000e+00	1.200000e+00	1.112150e+00	2.181972e-01	2.181972e-01
1.200000e+00	1.400000e+00	1.028037e+00	1.978430e-01	1.978430e-01
1.400000e+00	1.600000e+00	8.818182e-01	1.848888e-01	1.848888e-01
1.600000e+00	1.800000e+00	1.042373e+00	1.899815e-01	1.899815e-01
1.800000e+00	2.000000e+00	1.162393e+00	2.039715e-01	2.039715e-01
2.000000e+00	2.200000e+00	7.076923e-01	1.399903e-01	1.399903e-01
2.200000e+00	2.400000e+00	1.310345e+00	2.744181e-01	2.744181e-01
2.400000e+00	2.600000e+00	8.992248e-01	1.574081e-01	1.574081e-01
2.600000e+00	2.800000e+00	8.811882e-01	1.884874e-01	1.884874e-01
2.800000e+00	3.000000e+00	1.000000e+00	1.910752e-01	1.910752e-01
3.000000e+00	3.200000e+00	7.727273e-01	1.943961e-01	1.943961e-01
3.200000e+00	3.400000e+00	7.777778e-01	1.669678e-01	1.669678e-01
3.400000e+00	3.600000e+00	1.317073e+00	2.656432e-01	2.656432e-01
3.600000e+00	3.800000e+00	1.348485e+00	3.275039e-01	3.275039e-01
3.800000e+00	4.000000e+00	5.952381e-01	1.640331e-01	1.640331e-01
4.000000e+00	4.200000e+00	1.216667e+00	3.034231e-01	3.034231e-01
4.200000e+00	4.400000e+00	1.016393e+00	2.586153e-01	2.586153e-01
4.400000e+00	4.600000e+00	1.000000e+00	2.226809e-01	2.226809e-01
4.600000e+00	4.800000e+00	1.650000e+00	4.791660e-01	4.791660e-01
4.800000e+00	5.000000e+00	1.851852e+00	7.507930e-01	7.507930e-01
# END HISTO1D

