# BEGIN PLOT
Legend=1
LogY=1
Title=Pseudorapidity of fourth jet
XLabel=$\eta(\mathrm{jet~4})$
YLabel=$\mathrm{d}\sigma/\mathrm{d}\eta(\mathrm{jet~4})$ [pb]
LegendYPos=0.5
LegendXPos=0.30
DrawOnly=//afs/cern.ch/user/z/zhijun/genValidation/LNu_NLO_2j_v2/merged.yoda/MC_WJETS:ENERGY=13600/jet_eta_4 //afs/cern.ch/user/z/zhijun/genValidation/old_v3/LNu_NLO_2j_v3/merged.yoda/MC_WJETS:ENERGY=13600/jet_eta_4 //afs/cern.ch/user/z/zhijun/genValidation/LNu_NLO_2j_v3/merged.yoda/MC_WJETS:ENERGY=13600/jet_eta_4
LegendOnly=//afs/cern.ch/user/z/zhijun/genValidation/LNu_NLO_2j_v2/merged.yoda/MC_WJETS:ENERGY=13600/jet_eta_4 //afs/cern.ch/user/z/zhijun/genValidation/old_v3/LNu_NLO_2j_v3/merged.yoda/MC_WJETS:ENERGY=13600/jet_eta_4 //afs/cern.ch/user/z/zhijun/genValidation/LNu_NLO_2j_v3/merged.yoda/MC_WJETS:ENERGY=13600/jet_eta_4
RatioPlot=1
RatioPlotReference=//afs/cern.ch/user/z/zhijun/genValidation/LNu_NLO_2j_v2/merged.yoda/MC_WJETS:ENERGY=13600/jet_eta_4
RatioPlotYLabel=Ratio
# END PLOT

# BEGIN HISTO1D //afs/cern.ch/user/z/zhijun/genValidation/LNu_NLO_2j_v2/merged.yoda/MC_WJETS:ENERGY=13600/jet_eta_4
ErrorBars=1
LineColor=red
LineStyle=solid
Path=//afs/cern.ch/user/z/zhijun/genValidation/LNu_NLO_2j_v2/merged.yoda/MC_WJETS:ENERGY=13600/jet_eta_4
ScaledBy=1.03804954396507691e-07
Title=LNu_NLO_2j(v2_9_18)
# xlow	 xhigh	 val	 errminus	 errplus
-5.000000e+00	-4.600000e+00	7.649037e-01	1.664396e-01	1.664396e-01
-4.600000e+00	-4.200000e+00	1.298893e+00	2.597786e-01	2.597786e-01
-4.200000e+00	-3.800000e+00	2.626650e+00	3.233574e-01	3.233574e-01
-3.800000e+00	-3.400000e+00	2.871998e+00	4.033262e-01	4.033262e-01
-3.400000e+00	-3.000000e+00	5.974908e+00	4.609258e-01	4.609258e-01
-3.000000e+00	-2.600000e+00	6.581060e+00	5.286974e-01	5.286974e-01
-2.600000e+00	-2.200000e+00	7.273803e+00	5.762024e-01	5.762024e-01
-2.200000e+00	-1.800000e+00	7.937680e+00	6.237626e-01	6.237626e-01
-1.800000e+00	-1.400000e+00	1.052103e+01	6.758498e-01	6.758498e-01
-1.400000e+00	-1.000000e+00	1.254154e+01	7.185701e-01	7.185701e-01
-1.000000e+00	-6.000000e-01	1.242608e+01	7.425195e-01	7.425195e-01
-6.000000e-01	-2.000000e-01	1.017466e+01	7.402720e-01	7.402720e-01
-2.000000e-01	2.000000e-01	1.359508e+01	7.432204e-01	7.432204e-01
2.000000e-01	6.000000e-01	1.213744e+01	7.368878e-01	7.368878e-01
6.000000e-01	1.000000e+00	1.205084e+01	7.240565e-01	7.240565e-01
1.000000e+00	1.400000e+00	1.169004e+01	7.084993e-01	7.084993e-01
1.400000e+00	1.800000e+00	1.004477e+01	6.660713e-01	6.660713e-01
1.800000e+00	2.200000e+00	9.640675e+00	6.369793e-01	6.369793e-01
2.200000e+00	2.600000e+00	8.082003e+00	5.940016e-01	5.940016e-01
2.600000e+00	3.000000e+00	6.912998e+00	5.193568e-01	5.193568e-01
3.000000e+00	3.400000e+00	4.979090e+00	4.660935e-01	4.660935e-01
3.400000e+00	3.800000e+00	3.564740e+00	4.022920e-01	4.022920e-01
3.800000e+00	4.200000e+00	2.698812e+00	3.268809e-01	3.268809e-01
4.200000e+00	4.600000e+00	1.356622e+00	2.483000e-01	2.483000e-01
4.600000e+00	5.000000e+00	6.638787e-01	1.802574e-01	1.802574e-01
# END HISTO1D


# BEGIN HISTO1D //afs/cern.ch/user/z/zhijun/genValidation/old_v3/LNu_NLO_2j_v3/merged.yoda/MC_WJETS:ENERGY=13600/jet_eta_4
ErrorBars=1
LineColor=blue
LineStyle=solid
Path=//afs/cern.ch/user/z/zhijun/genValidation/old_v3/LNu_NLO_2j_v3/merged.yoda/MC_WJETS:ENERGY=13600/jet_eta_4
ScaledBy=1.32741057796626075e-07
Title=LNu_NLO_2j(v3_5_2)
# xlow	 xhigh	 val	 errminus	 errplus
-5.000000e+00	-4.600000e+00	6.884820e-01	2.576064e-01	2.576064e-01
-4.600000e+00	-4.200000e+00	1.239268e+00	3.450052e-01	3.450052e-01
-4.200000e+00	-3.800000e+00	2.249041e+00	4.181580e-01	4.181580e-01
-3.800000e+00	-3.400000e+00	4.222690e+00	5.121369e-01	5.121369e-01
-3.400000e+00	-3.000000e+00	5.760300e+00	6.495128e-01	6.495128e-01
-3.000000e+00	-2.600000e+00	7.206113e+00	7.162273e-01	7.162273e-01
-2.600000e+00	-2.200000e+00	8.514228e+00	7.833113e-01	7.833113e-01
-2.200000e+00	-1.800000e+00	9.569900e+00	8.801928e-01	8.801928e-01
-1.800000e+00	-1.400000e+00	1.005184e+01	8.953208e-01	8.953208e-01
-1.400000e+00	-1.000000e+00	1.092392e+01	9.655128e-01	9.655128e-01
-1.000000e+00	-6.000000e-01	1.145175e+01	9.857564e-01	9.857564e-01
-6.000000e-01	-2.000000e-01	1.039608e+01	9.905532e-01	9.905532e-01
-2.000000e-01	2.000000e-01	1.376964e+01	9.790550e-01	9.790550e-01
2.000000e-01	6.000000e-01	1.193369e+01	9.854891e-01	9.854891e-01
6.000000e-01	1.000000e+00	1.175009e+01	9.752823e-01	9.752823e-01
1.000000e+00	1.400000e+00	1.035018e+01	9.341845e-01	9.341845e-01
1.400000e+00	1.800000e+00	1.296641e+01	9.307957e-01	9.307957e-01
1.800000e+00	2.200000e+00	8.973217e+00	8.602202e-01	8.602202e-01
2.200000e+00	2.600000e+00	7.619203e+00	7.748611e-01	7.748611e-01
2.600000e+00	3.000000e+00	7.825745e+00	7.246345e-01	7.246345e-01
3.000000e+00	3.400000e+00	5.668503e+00	6.289141e-01	6.289141e-01
3.400000e+00	3.800000e+00	3.809600e+00	5.182705e-01	5.182705e-01
3.800000e+00	4.200000e+00	3.075220e+00	4.450055e-01	4.450055e-01
4.200000e+00	4.600000e+00	1.973649e+00	3.465284e-01	3.465284e-01
4.600000e+00	5.000000e+00	9.179760e-01	2.450326e-01	2.450326e-01
# END HISTO1D


# BEGIN HISTO1D //afs/cern.ch/user/z/zhijun/genValidation/LNu_NLO_2j_v3/merged.yoda/MC_WJETS:ENERGY=13600/jet_eta_4
ErrorBars=1
LineColor=green
LineStyle=solid
Path=//afs/cern.ch/user/z/zhijun/genValidation/LNu_NLO_2j_v3/merged.yoda/MC_WJETS:ENERGY=13600/jet_eta_4
ScaledBy=1.05188368376310600e-07
Title=LNu_NLO_2j(v3_5_6)
# xlow	 xhigh	 val	 errminus	 errplus
-5.000000e+00	-4.600000e+00	8.168572e-01	2.317541e-01	2.317541e-01
-4.600000e+00	-4.200000e+00	7.624000e-01	3.069846e-01	3.069846e-01
-4.200000e+00	-3.800000e+00	2.613942e+00	4.107416e-01	4.107416e-01
-3.800000e+00	-3.400000e+00	3.231125e+00	4.670492e-01	4.670492e-01
-3.400000e+00	-3.000000e+00	5.500173e+00	5.673891e-01	5.673891e-01
-3.000000e+00	-2.600000e+00	8.150420e+00	6.496931e-01	6.496931e-01
-2.600000e+00	-2.200000e+00	9.166953e+00	7.056119e-01	7.056119e-01
-2.200000e+00	-1.800000e+00	1.051023e+01	7.830813e-01	7.830813e-01
-1.800000e+00	-1.400000e+00	1.161752e+01	8.154443e-01	8.154443e-01
-1.400000e+00	-1.000000e+00	1.303341e+01	8.648616e-01	8.648616e-01
-1.000000e+00	-6.000000e-01	1.357798e+01	8.977635e-01	8.977635e-01
-6.000000e-01	-2.000000e-01	1.490311e+01	8.972127e-01	8.972127e-01
-2.000000e-01	2.000000e-01	1.492126e+01	8.995968e-01	8.995968e-01
2.000000e-01	6.000000e-01	1.361429e+01	8.970291e-01	8.970291e-01
6.000000e-01	1.000000e+00	1.403179e+01	8.994137e-01	8.994137e-01
1.000000e+00	1.400000e+00	1.127263e+01	8.554761e-01	8.554761e-01
1.400000e+00	1.800000e+00	1.198057e+01	8.206804e-01	8.206804e-01
1.800000e+00	2.200000e+00	1.154491e+01	7.820287e-01	7.820287e-01
2.200000e+00	2.600000e+00	9.602610e+00	6.943139e-01	6.943139e-01
2.600000e+00	3.000000e+00	7.297258e+00	6.443457e-01	6.443457e-01
3.000000e+00	3.400000e+00	5.699848e+00	5.751757e-01	5.751757e-01
3.400000e+00	3.800000e+00	4.175048e+00	4.782042e-01	4.782042e-01
3.800000e+00	4.200000e+00	2.269048e+00	3.777267e-01	3.777267e-01
4.200000e+00	4.600000e+00	1.833391e+00	3.085905e-01	3.085905e-01
4.600000e+00	5.000000e+00	8.531620e-01	2.345805e-01	2.345805e-01
# END HISTO1D

