# BEGIN PLOT
Legend=1
LogY=1
Title=Rapidity of fourth jet
XLabel=$y(\mathrm{jet~4})$
YLabel=$\mathrm{d}\sigma/\mathrm{d}y(\mathrm{jet~4})$ [pb]
DrawOnly=//afs/cern.ch/user/z/zhijun/genValidation/LNu_NLO_2j_v2/merged.yoda/MC_WJETS:ENERGY=13600/jet_y_4 //afs/cern.ch/user/z/zhijun/genValidation/old_v3/LNu_NLO_2j_v3/merged.yoda/MC_WJETS:ENERGY=13600/jet_y_4 //afs/cern.ch/user/z/zhijun/genValidation/LNu_NLO_2j_v3/merged.yoda/MC_WJETS:ENERGY=13600/jet_y_4
LegendOnly=//afs/cern.ch/user/z/zhijun/genValidation/LNu_NLO_2j_v2/merged.yoda/MC_WJETS:ENERGY=13600/jet_y_4 //afs/cern.ch/user/z/zhijun/genValidation/old_v3/LNu_NLO_2j_v3/merged.yoda/MC_WJETS:ENERGY=13600/jet_y_4 //afs/cern.ch/user/z/zhijun/genValidation/LNu_NLO_2j_v3/merged.yoda/MC_WJETS:ENERGY=13600/jet_y_4
RatioPlot=1
RatioPlotReference=//afs/cern.ch/user/z/zhijun/genValidation/LNu_NLO_2j_v2/merged.yoda/MC_WJETS:ENERGY=13600/jet_y_4
RatioPlotYLabel=Ratio
# END PLOT

# BEGIN HISTO1D //afs/cern.ch/user/z/zhijun/genValidation/LNu_NLO_2j_v2/merged.yoda/MC_WJETS:ENERGY=13600/jet_y_4
ErrorBars=1
LineColor=red
LineStyle=solid
Path=//afs/cern.ch/user/z/zhijun/genValidation/LNu_NLO_2j_v2/merged.yoda/MC_WJETS:ENERGY=13600/jet_y_4
ScaledBy=1.03804954396507691e-07
Title=LNu_NLO_2j(v2_9_18)
# xlow	 xhigh	 val	 errminus	 errplus
-5.000000e+00	-4.600000e+00	7.071752e-01	1.613563e-01	1.613563e-01
-4.600000e+00	-4.200000e+00	1.356622e+00	2.549225e-01	2.549225e-01
-4.200000e+00	-3.800000e+00	2.568922e+00	3.194692e-01	3.194692e-01
-3.800000e+00	-3.400000e+00	2.756540e+00	3.955040e-01	3.955040e-01
-3.400000e+00	-3.000000e+00	5.397623e+00	4.563845e-01	4.563845e-01
-3.000000e+00	-2.600000e+00	6.985160e+00	5.255362e-01	5.255362e-01
-2.600000e+00	-2.200000e+00	7.129480e+00	5.718482e-01	5.718482e-01
-2.200000e+00	-1.800000e+00	8.024275e+00	6.187335e-01	6.187335e-01
-1.800000e+00	-1.400000e+00	1.004477e+01	6.756957e-01	6.756957e-01
-1.400000e+00	-1.000000e+00	1.280132e+01	7.205963e-01	7.205963e-01
-1.000000e+00	-6.000000e-01	1.278688e+01	7.493606e-01	7.493606e-01
-6.000000e-01	-2.000000e-01	1.029012e+01	7.483871e-01	7.483871e-01
-2.000000e-01	2.000000e-01	1.381156e+01	7.528270e-01	7.528270e-01
2.000000e-01	6.000000e-01	1.239722e+01	7.475517e-01	7.475517e-01
6.000000e-01	1.000000e+00	1.271472e+01	7.312129e-01	7.312129e-01
1.000000e+00	1.400000e+00	1.161788e+01	7.051104e-01	7.051104e-01
1.400000e+00	1.800000e+00	9.669537e+00	6.651325e-01	6.651325e-01
1.800000e+00	2.200000e+00	9.842725e+00	6.379596e-01	6.379596e-01
2.200000e+00	2.600000e+00	8.038705e+00	5.899553e-01	5.899553e-01
2.600000e+00	3.000000e+00	6.768678e+00	5.157347e-01	5.157347e-01
3.000000e+00	3.400000e+00	4.719313e+00	4.597947e-01	4.597947e-01
3.400000e+00	3.800000e+00	3.348258e+00	3.947133e-01	3.947133e-01
3.800000e+00	4.200000e+00	2.857565e+00	3.246431e-01	3.246431e-01
4.200000e+00	4.600000e+00	1.241165e+00	2.397648e-01	2.397648e-01
4.600000e+00	5.000000e+00	6.061500e-01	1.779314e-01	1.779314e-01
# END HISTO1D


# BEGIN HISTO1D //afs/cern.ch/user/z/zhijun/genValidation/old_v3/LNu_NLO_2j_v3/merged.yoda/MC_WJETS:ENERGY=13600/jet_y_4
ErrorBars=1
LineColor=blue
LineStyle=solid
Path=//afs/cern.ch/user/z/zhijun/genValidation/old_v3/LNu_NLO_2j_v3/merged.yoda/MC_WJETS:ENERGY=13600/jet_y_4
ScaledBy=1.32741057796626075e-07
Title=LNu_NLO_2j(v3_5_2)
# xlow	 xhigh	 val	 errminus	 errplus
-5.000000e+00	-4.600000e+00	5.507857e-01	2.513981e-01	2.513981e-01
-4.600000e+00	-4.200000e+00	1.262217e+00	3.365043e-01	3.365043e-01
-4.200000e+00	-3.800000e+00	2.134294e+00	4.098895e-01	4.098895e-01
-3.800000e+00	-3.400000e+00	3.901398e+00	5.080067e-01	5.080067e-01
-3.400000e+00	-3.000000e+00	5.806200e+00	6.380595e-01	6.380595e-01
-3.000000e+00	-2.600000e+00	7.114315e+00	7.154916e-01	7.154916e-01
-2.600000e+00	-2.200000e+00	8.330633e+00	7.799422e-01	7.799422e-01
-2.200000e+00	-1.800000e+00	9.914142e+00	8.732844e-01	8.732844e-01
-1.800000e+00	-1.400000e+00	9.868242e+00	9.005998e-01	9.005998e-01
-1.400000e+00	-1.000000e+00	1.090097e+01	9.636016e-01	9.636016e-01
-1.000000e+00	-6.000000e-01	1.188779e+01	9.865575e-01	9.865575e-01
-6.000000e-01	-2.000000e-01	1.046493e+01	1.006640e+00	1.006640e+00
-2.000000e-01	2.000000e-01	1.404503e+01	9.950625e-01	9.950625e-01
2.000000e-01	6.000000e-01	1.209434e+01	9.990242e-01	9.990242e-01
6.000000e-01	1.000000e+00	1.223203e+01	9.798616e-01	9.798616e-01
1.000000e+00	1.400000e+00	1.030428e+01	9.347480e-01	9.347480e-01
1.400000e+00	1.800000e+00	1.280577e+01	9.361557e-01	9.361557e-01
1.800000e+00	2.200000e+00	8.858470e+00	8.550000e-01	8.550000e-01
2.200000e+00	2.600000e+00	8.078190e+00	7.721375e-01	7.721375e-01
2.600000e+00	3.000000e+00	7.229063e+00	7.114315e-01	7.114315e-01
3.000000e+00	3.400000e+00	5.714400e+00	6.247129e-01	6.247129e-01
3.400000e+00	3.800000e+00	3.878450e+00	5.126508e-01	5.126508e-01
3.800000e+00	4.200000e+00	2.776877e+00	4.348291e-01	4.348291e-01
4.200000e+00	4.600000e+00	1.996598e+00	3.457676e-01	3.457676e-01
4.600000e+00	5.000000e+00	7.343810e-01	2.294940e-01	2.294940e-01
# END HISTO1D


# BEGIN HISTO1D //afs/cern.ch/user/z/zhijun/genValidation/LNu_NLO_2j_v3/merged.yoda/MC_WJETS:ENERGY=13600/jet_y_4
ErrorBars=1
LineColor=green
LineStyle=solid
Path=//afs/cern.ch/user/z/zhijun/genValidation/LNu_NLO_2j_v3/merged.yoda/MC_WJETS:ENERGY=13600/jet_y_4
ScaledBy=1.05188368376310600e-07
Title=LNu_NLO_2j(v3_5_6)
# xlow	 xhigh	 val	 errminus	 errplus
-5.000000e+00	-4.600000e+00	6.534857e-01	2.252652e-01	2.252652e-01
-4.600000e+00	-4.200000e+00	9.983810e-01	3.042894e-01	3.042894e-01
-4.200000e+00	-3.800000e+00	2.269048e+00	4.014099e-01	4.014099e-01
-3.800000e+00	-3.400000e+00	3.448953e+00	4.606559e-01	4.606559e-01
-3.400000e+00	-3.000000e+00	5.064515e+00	5.650613e-01	5.650613e-01
-3.000000e+00	-2.600000e+00	8.350095e+00	6.397267e-01	6.397267e-01
-2.600000e+00	-2.200000e+00	8.876515e+00	7.056119e-01	7.056119e-01
-2.200000e+00	-1.800000e+00	1.052838e+01	7.820287e-01	7.820287e-01
-1.800000e+00	-1.400000e+00	1.121817e+01	8.077302e-01	8.077302e-01
-1.400000e+00	-1.000000e+00	1.312417e+01	8.669544e-01	8.669544e-01
-1.000000e+00	-6.000000e-01	1.408625e+01	9.058021e-01	9.058021e-01
-6.000000e-01	-2.000000e-01	1.506648e+01	9.105191e-01	9.105191e-01
-2.000000e-01	2.000000e-01	1.535691e+01	9.112426e-01	9.112426e-01
2.000000e-01	6.000000e-01	1.385027e+01	9.085263e-01	9.085263e-01
6.000000e-01	1.000000e+00	1.366874e+01	9.037993e-01	9.037993e-01
1.000000e+00	1.400000e+00	1.199873e+01	8.547057e-01	8.547057e-01
1.400000e+00	1.800000e+00	1.205318e+01	8.222849e-01	8.222849e-01
1.800000e+00	2.200000e+00	1.169013e+01	7.807636e-01	7.807636e-01
2.200000e+00	2.600000e+00	9.384783e+00	6.890737e-01	6.890737e-01
2.600000e+00	3.000000e+00	6.879753e+00	6.363699e-01	6.363699e-01
3.000000e+00	3.400000e+00	5.718000e+00	5.737417e-01	5.737417e-01
3.400000e+00	3.800000e+00	4.211353e+00	4.698628e-01	4.698628e-01
3.800000e+00	4.200000e+00	1.815238e+00	3.684532e-01	3.684532e-01
4.200000e+00	4.600000e+00	1.978610e+00	3.042894e-01	3.042894e-01
4.600000e+00	5.000000e+00	7.624000e-01	2.281719e-01	2.281719e-01
# END HISTO1D

