# BEGIN PLOT
Legend=1
LogY=1
Title=Pseudorapidity $+/-$ ratio of second tau
XLabel=$\eta(\tau\mathrm{2})_+/\eta(\tau\mathrm{2})_-$
YLabel=$|\eta(\tau\mathrm{2}|$
DrawOnly=//afs/cern.ch/user/z/zhijun/genValidation/LNu_LO_1j_v2/merged.yoda/MC_TAUS:ENERGY=13600/tau_eta_pmratio_2 //afs/cern.ch/user/z/zhijun/genValidation/old_v3/LNu_LO_1j_v3/merged.yoda/MC_TAUS:ENERGY=13600/tau_eta_pmratio_2 //afs/cern.ch/user/z/zhijun/genValidation/LNu_LO_1j_v3/merged.yoda/MC_TAUS:ENERGY=13600/tau_eta_pmratio_2
LegendOnly=//afs/cern.ch/user/z/zhijun/genValidation/LNu_LO_1j_v2/merged.yoda/MC_TAUS:ENERGY=13600/tau_eta_pmratio_2 //afs/cern.ch/user/z/zhijun/genValidation/old_v3/LNu_LO_1j_v3/merged.yoda/MC_TAUS:ENERGY=13600/tau_eta_pmratio_2 //afs/cern.ch/user/z/zhijun/genValidation/LNu_LO_1j_v3/merged.yoda/MC_TAUS:ENERGY=13600/tau_eta_pmratio_2
RatioPlot=1
RatioPlotReference=//afs/cern.ch/user/z/zhijun/genValidation/LNu_LO_1j_v2/merged.yoda/MC_TAUS:ENERGY=13600/tau_eta_pmratio_2
RatioPlotYLabel=Ratio
# END PLOT

# BEGIN HISTO1D //afs/cern.ch/user/z/zhijun/genValidation/LNu_LO_1j_v2/merged.yoda/MC_TAUS:ENERGY=13600/tau_eta_pmratio_2
ErrorBars=1
ErrorBreakdown={0: {"": {up: 0.1949585964644415, dn: 0.1949585964644415}}, 1: {"": {up: 0.3278261393031698, dn: 0.3278261393031698}}, 2: {"": {up: 0.4581621289927276, dn: 0.4581621289927276}}, 3: {"": {up: 0.5590169943749472, dn: 0.5590169943749472}}, 4: {"": {up: 0.3922322702763681, dn: 0.3922322702763681}}, 5: {"": {up: 0.4030213594354583, dn: 0.4030213594354583}}, 6: {"": {up: 0.5138093031466051, dn: 0.5138093031466051}}, 7: {"": {up: 0.3202172114362374, dn: 0.3202172114362374}}, 8: {"": {up: 0.09421501545842807, dn: 0.09421501545842807}}, 9: {"": {up: 0.2746585476264239, dn: 0.2746585476264239}}, 10: {"": {up: 0.5920117603919888, dn: 0.5920117603919888}}, 11: {"": {up: 0.3284080569228652, dn: 0.3284080569228652}}, 12: {"": {up: 0.3284080569228652, dn: 0.3284080569228652}}, 13: {"": {up: 0.2191140660407266, dn: 0.2191140660407266}}, 14: {"": {up: 0.2503813496903189, dn: 0.2503813496903189}}, 15: {"": {up: 0.5879447357921312, dn: 0.5879447357921312}}, 16: {"": {up: 0.3098740839015095, dn: 0.3098740839015095}}, 17: {"": {up: 0.3307189138830738, dn: 0.3307189138830738}}, 18: {"": {up: 0.5138093031466051, dn: 0.5138093031466051}}, 19: {"": {up: 0.4818036209662079, dn: 0.4818036209662079}}, 20: {"": {up: 0.5, dn: 0.5}}, 21: {"": {up: 0.4319223625811334, dn: 0.4319223625811334}}, 22: {"": {up: 0.7040076861494017, dn: 0.7040076861494017}}, 23: {"": {up: 1.224744871391589, dn: 1.224744871391589}}, 24: {"": {up: 0.504608392349582, dn: 0.504608392349582}}}
LineColor=red
LineStyle=solid
Path=//afs/cern.ch/user/z/zhijun/genValidation/LNu_LO_1j_v2/merged.yoda/MC_TAUS:ENERGY=13600/tau_eta_pmratio_2
Title=LNu_LO_1j(v2_9_18)
# xlow	 xhigh	 val	 errminus	 errplus
0.000000e+00	2.000000e-01	5.238095e-01	1.949586e-01	1.949586e-01
2.000000e-01	4.000000e-01	9.411765e-01	3.278261e-01	3.278261e-01
4.000000e-01	6.000000e-01	1.285714e+00	4.581621e-01	4.581621e-01
6.000000e-01	8.000000e-01	1.500000e+00	5.590170e-01	5.590170e-01
8.000000e-01	1.000000e+00	1.000000e+00	3.922323e-01	3.922323e-01
1.000000e+00	1.200000e+00	1.235294e+00	4.030214e-01	4.030214e-01
1.200000e+00	1.400000e+00	1.200000e+00	5.138093e-01	5.138093e-01
1.400000e+00	1.600000e+00	8.750000e-01	3.202172e-01	3.202172e-01
1.600000e+00	1.800000e+00	1.739130e-01	9.421502e-02	9.421502e-02
1.800000e+00	2.000000e+00	6.428571e-01	2.746585e-01	2.746585e-01
2.000000e+00	2.200000e+00	1.692308e+00	5.920118e-01	5.920118e-01
2.200000e+00	2.400000e+00	8.666667e-01	3.284081e-01	3.284081e-01
2.400000e+00	2.600000e+00	8.666667e-01	3.284081e-01	3.284081e-01
2.600000e+00	2.800000e+00	5.555556e-01	2.191141e-01	2.191141e-01
2.800000e+00	3.000000e+00	6.470588e-01	2.503813e-01	2.503813e-01
3.000000e+00	3.200000e+00	1.333333e+00	5.879447e-01	5.879447e-01
3.200000e+00	3.400000e+00	5.555556e-01	3.098741e-01	3.098741e-01
3.400000e+00	3.600000e+00	7.500000e-01	3.307189e-01	3.307189e-01
3.600000e+00	3.800000e+00	1.200000e+00	5.138093e-01	5.138093e-01
3.800000e+00	4.000000e+00	1.307692e+00	4.818036e-01	4.818036e-01
4.000000e+00	4.200000e+00	1.000000e+00	5.000000e-01	5.000000e-01
4.200000e+00	4.400000e+00	8.888889e-01	4.319224e-01	4.319224e-01
4.400000e+00	4.600000e+00	1.428571e+00	7.040077e-01	7.040077e-01
4.600000e+00	4.800000e+00	2.000000e+00	1.224745e+00	1.224745e+00
4.800000e+00	5.000000e+00	8.333333e-01	5.046084e-01	5.046084e-01
# END HISTO1D


# BEGIN HISTO1D //afs/cern.ch/user/z/zhijun/genValidation/old_v3/LNu_LO_1j_v3/merged.yoda/MC_TAUS:ENERGY=13600/tau_eta_pmratio_2
ErrorBars=1
ErrorBreakdown={0: {"": {up: 0.4195235392680606, dn: 0.4195235392680606}}, 1: {"": {up: 0.2064582282206258, dn: 0.2064582282206258}}, 2: {"": {up: 0.3981553676556464, dn: 0.3981553676556464}}, 3: {"": {up: 0.3535533905932738, dn: 0.3535533905932738}}, 4: {"": {up: 0.4372296615836962, dn: 0.4372296615836962}}, 5: {"": {up: 0.3333333333333333, dn: 0.3333333333333333}}, 6: {"": {up: 0.3284080569228652, dn: 0.3284080569228652}}, 7: {"": {up: 0.3651483716701108, dn: 0.3651483716701108}}, 8: {"": {up: 0.5480963870726349, dn: 0.5480963870726349}}, 9: {"": {up: 0.5341356811952613, dn: 0.5341356811952613}}, 10: {"": {up: 0.4147924773567311, dn: 0.4147924773567311}}, 11: {"": {up: 0.28641098093474, dn: 0.28641098093474}}, 12: {"": {up: 0.2067148502195167, dn: 0.2067148502195167}}, 13: {"": {up: 0.5039669668607711, dn: 0.5039669668607711}}, 14: {"": {up: 0.3054152315272342, dn: 0.3054152315272342}}, 15: {"": {up: 0.6490734136415514, dn: 0.6490734136415514}}, 16: {"": {up: 0.2721655269759087, dn: 0.2721655269759087}}, 17: {"": {up: 0.3568120160740313, dn: 0.3568120160740313}}, 18: {"": {up: 0.2136109305012963, dn: 0.2136109305012963}}, 19: {"": {up: 0.2721655269759087, dn: 0.2721655269759087}}, 20: {"": {up: 0.4768702630835887, dn: 0.4768702630835887}}, 21: {"": {up: 1.003992031840891, dn: 1.003992031840891}}, 22: {"": {up: 3.872983346207417, dn: 3.872983346207417}}, 23: {"": {up: 0.3061862178478972, dn: 0.3061862178478972}}, 24: {"": {up: 0.8606629658238704, dn: 0.8606629658238704}}}
LineColor=blue
LineStyle=solid
Path=//afs/cern.ch/user/z/zhijun/genValidation/old_v3/LNu_LO_1j_v3/merged.yoda/MC_TAUS:ENERGY=13600/tau_eta_pmratio_2
Title=LNu_LO_1j(v3_5_2)
# xlow	 xhigh	 val	 errminus	 errplus
0.000000e+00	2.000000e-01	1.200000e+00	4.195235e-01	4.195235e-01
2.000000e-01	4.000000e-01	5.500000e-01	2.064582e-01	2.064582e-01
4.000000e-01	6.000000e-01	1.071429e+00	3.981554e-01	3.981554e-01
6.000000e-01	8.000000e-01	1.000000e+00	3.535534e-01	3.535534e-01
8.000000e-01	1.000000e+00	1.153846e+00	4.372297e-01	4.372297e-01
1.000000e+00	1.200000e+00	1.000000e+00	3.333333e-01	3.333333e-01
1.200000e+00	1.400000e+00	8.666667e-01	3.284081e-01	3.284081e-01
1.400000e+00	1.600000e+00	1.000000e+00	3.651484e-01	3.651484e-01
1.600000e+00	1.800000e+00	1.538462e+00	5.480964e-01	5.480964e-01
1.800000e+00	2.000000e+00	1.416667e+00	5.341357e-01	5.341357e-01
2.000000e+00	2.200000e+00	1.076923e+00	4.147925e-01	4.147925e-01
2.200000e+00	2.400000e+00	7.500000e-01	2.864110e-01	2.864110e-01
2.400000e+00	2.600000e+00	5.909091e-01	2.067149e-01	2.067149e-01
2.600000e+00	2.800000e+00	1.384615e+00	5.039670e-01	5.039670e-01
2.800000e+00	3.000000e+00	8.888889e-01	3.054152e-01	3.054152e-01
3.000000e+00	3.200000e+00	1.166667e+00	6.490734e-01	6.490734e-01
3.200000e+00	3.400000e+00	6.666667e-01	2.721655e-01	2.721655e-01
3.400000e+00	3.600000e+00	8.333333e-01	3.568120e-01	3.568120e-01
3.600000e+00	3.800000e+00	4.666667e-01	2.136109e-01	2.136109e-01
3.800000e+00	4.000000e+00	6.666667e-01	2.721655e-01	2.721655e-01
4.000000e+00	4.200000e+00	8.571429e-01	4.768703e-01	4.768703e-01
4.200000e+00	4.400000e+00	1.800000e+00	1.003992e+00	1.003992e+00
4.400000e+00	4.600000e+00	5.000000e+00	3.872983e+00	3.872983e+00
4.600000e+00	4.800000e+00	5.000000e-01	3.061862e-01	3.061862e-01
4.800000e+00	5.000000e+00	1.666667e+00	8.606630e-01	8.606630e-01
# END HISTO1D


# BEGIN HISTO1D //afs/cern.ch/user/z/zhijun/genValidation/LNu_LO_1j_v3/merged.yoda/MC_TAUS:ENERGY=13600/tau_eta_pmratio_2
ErrorBars=1
ErrorBreakdown={0: {"": {up: 0.7407407407407407, dn: 0.7407407407407407}}, 1: {"": {up: 0.2857351126477037, dn: 0.2857351126477037}}, 2: {"": {up: 0.459561842341955, dn: 0.459561842341955}}, 3: {"": {up: 0.4589642122738418, dn: 0.4589642122738418}}, 4: {"": {up: 0.414792477356731, dn: 0.414792477356731}}, 5: {"": {up: 0.2414726442081476, dn: 0.2414726442081476}}, 6: {"": {up: 0.4806245936279166, dn: 0.4806245936279166}}, 7: {"": {up: 0.5697086922186474, dn: 0.5697086922186474}}, 8: {"": {up: 0.3202172114362374, dn: 0.3202172114362374}}, 9: {"": {up: 0.4818036209662079, dn: 0.4818036209662079}}, 10: {"": {up: 0.459561842341955, dn: 0.459561842341955}}, 11: {"": {up: 0.3609923831410727, dn: 0.3609923831410727}}, 12: {"": {up: 0.2503813496903189, dn: 0.2503813496903189}}, 13: {"": {up: 0.4147924773567311, dn: 0.4147924773567311}}, 14: {"": {up: 0.5138093031466051, dn: 0.5138093031466051}}, 15: {"": {up: 0.3922322702763681, dn: 0.3922322702763681}}, 16: {"": {up: 0.2765283182378207, dn: 0.2765283182378207}}, 17: {"": {up: 0.5138093031466051, dn: 0.5138093031466051}}, 18: {"": {up: 0.3794733192202055, dn: 0.3794733192202055}}, 19: {"": {up: 0.3919631571947543, dn: 0.3919631571947543}}, 20: {"": {up: 0.2366431913239846, dn: 0.2366431913239846}}, 21: {"": {up: 0.3794733192202055, dn: 0.3794733192202055}}, 22: {"": {up: 1.414213562373095, dn: 1.414213562373095}}, 23: {"": {up: 0.8606629658238703, dn: 0.8606629658238703}}, 24: {"": {up: nan, dn: nan}}}
LineColor=green
LineStyle=solid
Path=//afs/cern.ch/user/z/zhijun/genValidation/LNu_LO_1j_v3/merged.yoda/MC_TAUS:ENERGY=13600/tau_eta_pmratio_2
Title=LNu_LO_1j(v3_5_6)
# xlow	 xhigh	 val	 errminus	 errplus
0.000000e+00	2.000000e-01	1.777778e+00	7.407407e-01	7.407407e-01
2.000000e-01	4.000000e-01	8.421053e-01	2.857351e-01	2.857351e-01
4.000000e-01	6.000000e-01	1.230769e+00	4.595618e-01	4.595618e-01
6.000000e-01	8.000000e-01	1.166667e+00	4.589642e-01	4.589642e-01
8.000000e-01	1.000000e+00	1.076923e+00	4.147925e-01	4.147925e-01
1.000000e+00	1.200000e+00	7.142857e-01	2.414726e-01	2.414726e-01
1.200000e+00	1.400000e+00	1.100000e+00	4.806246e-01	4.806246e-01
1.400000e+00	1.600000e+00	1.454545e+00	5.697087e-01	5.697087e-01
1.600000e+00	1.800000e+00	8.750000e-01	3.202172e-01	3.202172e-01
1.800000e+00	2.000000e+00	1.307692e+00	4.818036e-01	4.818036e-01
2.000000e+00	2.200000e+00	1.230769e+00	4.595618e-01	4.595618e-01
2.200000e+00	2.400000e+00	1.111111e+00	3.609924e-01	3.609924e-01
2.400000e+00	2.600000e+00	6.470588e-01	2.503813e-01	2.503813e-01
2.600000e+00	2.800000e+00	1.076923e+00	4.147925e-01	4.147925e-01
2.800000e+00	3.000000e+00	1.200000e+00	5.138093e-01	5.138093e-01
3.000000e+00	3.200000e+00	1.000000e+00	3.922323e-01	3.922323e-01
3.200000e+00	3.400000e+00	6.153846e-01	2.765283e-01	2.765283e-01
3.400000e+00	3.600000e+00	1.200000e+00	5.138093e-01	5.138093e-01
3.600000e+00	3.800000e+00	8.000000e-01	3.794733e-01	3.794733e-01
3.800000e+00	4.000000e+00	7.777778e-01	3.919632e-01	3.919632e-01
4.000000e+00	4.200000e+00	4.000000e-01	2.366432e-01	2.366432e-01
4.200000e+00	4.400000e+00	8.000000e-01	3.794733e-01	3.794733e-01
4.400000e+00	4.600000e+00	2.000000e+00	1.414214e+00	1.414214e+00
4.600000e+00	4.800000e+00	1.666667e+00	8.606630e-01	8.606630e-01
4.800000e+00	5.000000e+00	nan	nan	nan
# END HISTO1D

