# BEGIN PLOT
Legend=1
LogY=1
Title=Transverse momentum of second tau
XLabel=$p_\perp(\tau\mathrm{2})$ [GeV]
YLabel=$\mathrm{d}\sigma/\mathrm{d}p_\perp(\tau\mathrm{2})$ [pb/GeV]
LogX=1
LegendXPos=0.05
LegendYPos=0.5
DrawOnly=//afs/cern.ch/user/z/zhijun/genValidation/LNu_LO_1j_v2/merged.yoda/MC_TAUS:ENERGY=13600/tau_pt_2 //afs/cern.ch/user/z/zhijun/genValidation/old_v3/LNu_LO_1j_v3/merged.yoda/MC_TAUS:ENERGY=13600/tau_pt_2 //afs/cern.ch/user/z/zhijun/genValidation/LNu_LO_1j_v3/merged.yoda/MC_TAUS:ENERGY=13600/tau_pt_2
LegendOnly=//afs/cern.ch/user/z/zhijun/genValidation/LNu_LO_1j_v2/merged.yoda/MC_TAUS:ENERGY=13600/tau_pt_2 //afs/cern.ch/user/z/zhijun/genValidation/old_v3/LNu_LO_1j_v3/merged.yoda/MC_TAUS:ENERGY=13600/tau_pt_2 //afs/cern.ch/user/z/zhijun/genValidation/LNu_LO_1j_v3/merged.yoda/MC_TAUS:ENERGY=13600/tau_pt_2
RatioPlot=1
RatioPlotReference=//afs/cern.ch/user/z/zhijun/genValidation/LNu_LO_1j_v2/merged.yoda/MC_TAUS:ENERGY=13600/tau_pt_2
RatioPlotYLabel=Ratio
# END PLOT

# BEGIN HISTO1D //afs/cern.ch/user/z/zhijun/genValidation/LNu_LO_1j_v2/merged.yoda/MC_TAUS:ENERGY=13600/tau_pt_2
ErrorBars=1
LineColor=red
LineStyle=solid
Path=//afs/cern.ch/user/z/zhijun/genValidation/LNu_LO_1j_v2/merged.yoda/MC_TAUS:ENERGY=13600/tau_pt_2
ScaledBy=3.84269747225734967e-02
Title=LNu_LO_1j(v2_9_18)
# xlow	 xhigh	 val	 errminus	 errplus
1.000000e+00	1.167099e+00	6.668993e+00	1.238401e+00	1.238401e+00
1.167099e+00	1.362120e+00	7.290487e+00	1.198549e+00	1.198549e+00
1.362120e+00	1.589730e+00	7.766096e+00	1.145048e+00	1.145048e+00
1.589730e+00	1.855372e+00	7.088194e+00	1.012599e+00	1.012599e+00
1.855372e+00	2.165403e+00	4.585987e+00	7.539316e-01	7.539316e-01
2.165403e+00	2.527240e+00	4.247987e+00	6.716658e-01	6.716658e-01
2.527240e+00	2.949540e+00	4.367736e+00	6.304283e-01	6.304283e-01
2.949540e+00	3.442405e+00	3.976294e+00	5.567924e-01	5.567924e-01
3.442405e+00	4.017629e+00	2.805747e+00	4.329361e-01	4.329361e-01
4.017629e+00	4.688971e+00	2.289562e+00	3.620115e-01	3.620115e-01
4.688971e+00	5.472494e+00	1.226096e+00	2.452192e-01	2.452192e-01
5.472494e+00	6.386943e+00	1.176616e+00	2.223595e-01	2.223595e-01
6.386943e+00	7.454196e+00	1.080165e+00	1.972102e-01	1.972102e-01
7.454196e+00	8.699785e+00	3.085044e-01	9.755766e-02	9.755766e-02
8.699785e+00	1.015351e+01	2.379011e-01	7.930036e-02	7.930036e-02
1.015351e+01	1.185016e+01	2.717848e-01	7.845752e-02	7.845752e-02
1.185016e+01	1.383031e+01	1.746548e-01	5.821828e-02	5.821828e-02
1.383031e+01	1.614134e+01	1.995317e-01	5.759984e-02	5.759984e-02
1.614134e+01	1.883854e+01	1.424699e-01	4.505292e-02	4.505292e-02
1.883854e+01	2.198645e+01	9.765711e-02	3.452700e-02	3.452700e-02
2.198645e+01	2.566036e+01	6.275652e-02	2.562025e-02	2.562025e-02
2.566036e+01	2.994819e+01	4.480936e-02	2.003935e-02	2.003935e-02
2.994819e+01	3.495251e+01	2.303628e-02	1.330000e-02	1.330000e-02
3.495251e+01	4.079304e+01	2.631746e-02	1.315873e-02	1.315873e-02
4.079304e+01	4.760952e+01	1.691209e-02	9.764200e-03	9.764200e-03
4.760952e+01	5.556503e+01	0.000000e+00	0.000000e+00	0.000000e+00
5.556503e+01	6.484990e+01	0.000000e+00	0.000000e+00	0.000000e+00
6.484990e+01	7.568627e+01	0.000000e+00	0.000000e+00	0.000000e+00
7.568627e+01	8.833338e+01	0.000000e+00	0.000000e+00	0.000000e+00
8.833338e+01	1.030938e+02	0.000000e+00	0.000000e+00	0.000000e+00
1.030938e+02	1.203207e+02	0.000000e+00	0.000000e+00	0.000000e+00
1.203207e+02	1.404262e+02	0.000000e+00	0.000000e+00	0.000000e+00
1.404262e+02	1.638913e+02	0.000000e+00	0.000000e+00	0.000000e+00
1.638913e+02	1.912774e+02	0.000000e+00	0.000000e+00	0.000000e+00
1.912774e+02	2.232397e+02	0.000000e+00	0.000000e+00	0.000000e+00
2.232397e+02	2.605428e+02	0.000000e+00	0.000000e+00	0.000000e+00
2.605428e+02	3.040793e+02	0.000000e+00	0.000000e+00	0.000000e+00
3.040793e+02	3.548907e+02	0.000000e+00	0.000000e+00	0.000000e+00
3.548907e+02	4.141926e+02	0.000000e+00	0.000000e+00	0.000000e+00
4.141926e+02	4.834039e+02	0.000000e+00	0.000000e+00	0.000000e+00
4.834039e+02	5.641803e+02	0.000000e+00	0.000000e+00	0.000000e+00
5.641803e+02	6.584543e+02	0.000000e+00	0.000000e+00	0.000000e+00
6.584543e+02	7.684814e+02	0.000000e+00	0.000000e+00	0.000000e+00
7.684814e+02	8.968940e+02	0.000000e+00	0.000000e+00	0.000000e+00
8.968940e+02	1.046764e+03	0.000000e+00	0.000000e+00	0.000000e+00
1.046764e+03	1.221678e+03	0.000000e+00	0.000000e+00	0.000000e+00
1.221678e+03	1.425819e+03	0.000000e+00	0.000000e+00	0.000000e+00
1.425819e+03	1.664072e+03	0.000000e+00	0.000000e+00	0.000000e+00
1.664072e+03	1.942137e+03	0.000000e+00	0.000000e+00	0.000000e+00
1.942137e+03	2.266667e+03	0.000000e+00	0.000000e+00	0.000000e+00
# END HISTO1D


# BEGIN HISTO1D //afs/cern.ch/user/z/zhijun/genValidation/old_v3/LNu_LO_1j_v3/merged.yoda/MC_TAUS:ENERGY=13600/tau_pt_2
ErrorBars=1
LineColor=blue
LineStyle=solid
Path=//afs/cern.ch/user/z/zhijun/genValidation/old_v3/LNu_LO_1j_v3/merged.yoda/MC_TAUS:ENERGY=13600/tau_pt_2
ScaledBy=3.72766293670276361e-02
Title=LNu_LO_1j(v3_5_2)
# xlow	 xhigh	 val	 errminus	 errplus
1.000000e+00	1.167099e+00	6.692434e+00	1.221865e+00	1.221865e+00
1.167099e+00	1.362120e+00	5.351967e+00	1.011426e+00	1.011426e+00
1.362120e+00	1.589730e+00	6.878511e+00	1.061378e+00	1.061378e+00
1.589730e+00	1.855372e+00	6.876002e+00	9.822860e-01	9.822860e-01
1.855372e+00	2.165403e+00	5.410582e+00	8.065620e-01	8.065620e-01
2.165403e+00	2.527240e+00	6.799354e+00	8.369425e-01	8.369425e-01
2.527240e+00	2.949540e+00	4.590066e+00	6.365276e-01	6.365276e-01
2.949540e+00	3.442405e+00	3.327832e+00	5.016895e-01	5.016895e-01
3.442405e+00	4.017629e+00	2.851362e+00	4.298589e-01	4.298589e-01
4.017629e+00	4.688971e+00	1.887868e+00	3.237668e-01	3.237668e-01
4.688971e+00	5.472494e+00	1.569997e+00	2.733014e-01	2.733014e-01
5.472494e+00	6.386943e+00	1.304449e+00	2.305962e-01	2.305962e-01
6.386943e+00	7.454196e+00	4.889870e-01	1.306873e-01	1.306873e-01
7.454196e+00	8.699785e+00	5.386843e-01	1.269691e-01	1.269691e-01
8.699785e+00	1.015351e+01	2.564215e-01	8.108758e-02	8.108758e-02
1.015351e+01	1.185016e+01	2.636487e-01	7.610883e-02	7.610883e-02
1.185016e+01	1.383031e+01	1.694264e-01	5.647545e-02	5.647545e-02
1.383031e+01	1.614134e+01	2.580780e-01	6.451950e-02	6.451950e-02
1.614134e+01	1.883854e+01	9.674344e-02	3.656558e-02	3.656558e-02
1.883854e+01	2.198645e+01	4.736682e-02	2.368341e-02	2.368341e-02
2.198645e+01	2.566036e+01	7.102417e-02	2.684461e-02	2.684461e-02
2.566036e+01	2.994819e+01	4.346793e-02	1.943945e-02	1.943945e-02
2.994819e+01	3.495251e+01	3.724444e-02	1.665622e-02	1.665622e-02
3.495251e+01	4.079304e+01	1.276481e-02	9.026084e-03	9.026084e-03
4.079304e+01	4.760952e+01	5.468604e-03	5.468604e-03	5.468604e-03
4.760952e+01	5.556503e+01	1.874254e-02	9.371273e-03	9.371273e-03
5.556503e+01	6.484990e+01	0.000000e+00	0.000000e+00	0.000000e+00
6.484990e+01	7.568627e+01	0.000000e+00	0.000000e+00	0.000000e+00
7.568627e+01	8.833338e+01	0.000000e+00	0.000000e+00	0.000000e+00
8.833338e+01	1.030938e+02	0.000000e+00	0.000000e+00	0.000000e+00
1.030938e+02	1.203207e+02	0.000000e+00	0.000000e+00	0.000000e+00
1.203207e+02	1.404262e+02	0.000000e+00	0.000000e+00	0.000000e+00
1.404262e+02	1.638913e+02	0.000000e+00	0.000000e+00	0.000000e+00
1.638913e+02	1.912774e+02	0.000000e+00	0.000000e+00	0.000000e+00
1.912774e+02	2.232397e+02	0.000000e+00	0.000000e+00	0.000000e+00
2.232397e+02	2.605428e+02	0.000000e+00	0.000000e+00	0.000000e+00
2.605428e+02	3.040793e+02	0.000000e+00	0.000000e+00	0.000000e+00
3.040793e+02	3.548907e+02	0.000000e+00	0.000000e+00	0.000000e+00
3.548907e+02	4.141926e+02	0.000000e+00	0.000000e+00	0.000000e+00
4.141926e+02	4.834039e+02	0.000000e+00	0.000000e+00	0.000000e+00
4.834039e+02	5.641803e+02	0.000000e+00	0.000000e+00	0.000000e+00
5.641803e+02	6.584543e+02	0.000000e+00	0.000000e+00	0.000000e+00
6.584543e+02	7.684814e+02	0.000000e+00	0.000000e+00	0.000000e+00
7.684814e+02	8.968940e+02	0.000000e+00	0.000000e+00	0.000000e+00
8.968940e+02	1.046764e+03	0.000000e+00	0.000000e+00	0.000000e+00
1.046764e+03	1.221678e+03	0.000000e+00	0.000000e+00	0.000000e+00
1.221678e+03	1.425819e+03	0.000000e+00	0.000000e+00	0.000000e+00
1.425819e+03	1.664072e+03	0.000000e+00	0.000000e+00	0.000000e+00
1.664072e+03	1.942137e+03	0.000000e+00	0.000000e+00	0.000000e+00
1.942137e+03	2.266667e+03	0.000000e+00	0.000000e+00	0.000000e+00
# END HISTO1D


# BEGIN HISTO1D //afs/cern.ch/user/z/zhijun/genValidation/LNu_LO_1j_v3/merged.yoda/MC_TAUS:ENERGY=13600/tau_pt_2
ErrorBars=1
LineColor=green
LineStyle=solid
Path=//afs/cern.ch/user/z/zhijun/genValidation/LNu_LO_1j_v3/merged.yoda/MC_TAUS:ENERGY=13600/tau_pt_2
ScaledBy=3.80242913615324654e-02
Title=LNu_LO_1j(v3_5_6)
# xlow	 xhigh	 val	 errminus	 errplus
1.000000e+00	1.167099e+00	7.281773e+00	1.287248e+00	1.287248e+00
1.167099e+00	1.362120e+00	6.629163e+00	1.136892e+00	1.136892e+00
1.362120e+00	1.589730e+00	6.348240e+00	1.029821e+00	1.029821e+00
1.589730e+00	1.855372e+00	5.725646e+00	9.053039e-01	9.053039e-01
1.855372e+00	2.165403e+00	6.377630e+00	8.844182e-01	8.844182e-01
2.165403e+00	2.527240e+00	5.464513e+00	7.577917e-01	7.577917e-01
2.527240e+00	2.949540e+00	4.321965e+00	6.238220e-01	6.238220e-01
2.949540e+00	3.442405e+00	3.626027e+00	5.289104e-01	5.289104e-01
3.442405e+00	4.017629e+00	3.305173e+00	4.674220e-01	4.674220e-01
4.017629e+00	4.688971e+00	1.925734e+00	3.302606e-01	3.302606e-01
4.688971e+00	5.472494e+00	1.164718e+00	2.377470e-01	2.377470e-01
5.472494e+00	6.386943e+00	6.653063e-01	1.663266e-01	1.663266e-01
6.386943e+00	7.454196e+00	8.194483e-01	1.708668e-01	1.708668e-01
7.454196e+00	8.699785e+00	6.105431e-01	1.365216e-01	1.365216e-01
8.699785e+00	1.015351e+01	2.615645e-01	8.271398e-02	8.271398e-02
1.015351e+01	1.185016e+01	2.241139e-01	7.087106e-02	7.087106e-02
1.185016e+01	1.383031e+01	1.920273e-01	6.072438e-02	6.072438e-02
1.383031e+01	1.614134e+01	1.480806e-01	4.936019e-02	4.936019e-02
1.614134e+01	1.883854e+01	8.458613e-02	3.453215e-02	3.453215e-02
1.883854e+01	2.198645e+01	1.207922e-01	3.819784e-02	3.819784e-02
2.198645e+01	2.566036e+01	4.139927e-02	2.069963e-02	2.069963e-02
2.566036e+01	2.994819e+01	3.547184e-02	1.773591e-02	1.773591e-02
2.994819e+01	3.495251e+01	3.039318e-02	1.519659e-02	1.519659e-02
3.495251e+01	4.079304e+01	6.510418e-03	6.510419e-03	6.510419e-03
4.079304e+01	4.760952e+01	1.115658e-02	7.888890e-03	7.888890e-03
4.760952e+01	5.556503e+01	4.779617e-03	4.779618e-03	4.779618e-03
5.556503e+01	6.484990e+01	8.190592e-03	5.791623e-03	5.791623e-03
6.484990e+01	7.568627e+01	0.000000e+00	0.000000e+00	0.000000e+00
7.568627e+01	8.833338e+01	0.000000e+00	0.000000e+00	0.000000e+00
8.833338e+01	1.030938e+02	0.000000e+00	0.000000e+00	0.000000e+00
1.030938e+02	1.203207e+02	0.000000e+00	0.000000e+00	0.000000e+00
1.203207e+02	1.404262e+02	0.000000e+00	0.000000e+00	0.000000e+00
1.404262e+02	1.638913e+02	0.000000e+00	0.000000e+00	0.000000e+00
1.638913e+02	1.912774e+02	0.000000e+00	0.000000e+00	0.000000e+00
1.912774e+02	2.232397e+02	0.000000e+00	0.000000e+00	0.000000e+00
2.232397e+02	2.605428e+02	0.000000e+00	0.000000e+00	0.000000e+00
2.605428e+02	3.040793e+02	0.000000e+00	0.000000e+00	0.000000e+00
3.040793e+02	3.548907e+02	0.000000e+00	0.000000e+00	0.000000e+00
3.548907e+02	4.141926e+02	0.000000e+00	0.000000e+00	0.000000e+00
4.141926e+02	4.834039e+02	0.000000e+00	0.000000e+00	0.000000e+00
4.834039e+02	5.641803e+02	0.000000e+00	0.000000e+00	0.000000e+00
5.641803e+02	6.584543e+02	0.000000e+00	0.000000e+00	0.000000e+00
6.584543e+02	7.684814e+02	0.000000e+00	0.000000e+00	0.000000e+00
7.684814e+02	8.968940e+02	0.000000e+00	0.000000e+00	0.000000e+00
8.968940e+02	1.046764e+03	0.000000e+00	0.000000e+00	0.000000e+00
1.046764e+03	1.221678e+03	0.000000e+00	0.000000e+00	0.000000e+00
1.221678e+03	1.425819e+03	0.000000e+00	0.000000e+00	0.000000e+00
1.425819e+03	1.664072e+03	0.000000e+00	0.000000e+00	0.000000e+00
1.664072e+03	1.942137e+03	0.000000e+00	0.000000e+00	0.000000e+00
1.942137e+03	2.266667e+03	0.000000e+00	0.000000e+00	0.000000e+00
# END HISTO1D

