# BEGIN PLOT
Legend=1
LogY=1
XLabel=Lepton $p_\perp$ [GeV]
Title=Scalar $\sum{p_\perp}^\gamma$ vs. associated lepton $p_\perp$
YLabel=$\langle\sum{p_\perp}^\gamma\rangle$ [GeV]
DrawOnly=//afs/cern.ch/user/z/zhijun/genValidation/LNu_NLO_1j_NoMu_v2/merged.yoda/MC_PHOTONS:ENERGY=13600/sumPtGamma_vs_pTlep //afs/cern.ch/user/z/zhijun/genValidation/old_v3/LNu_NLO_1j_NoMu_v3/merged.yoda/MC_PHOTONS:ENERGY=13600/sumPtGamma_vs_pTlep //afs/cern.ch/user/z/zhijun/genValidation/LNu_NLO_1j_NoMu_v3/merged.yoda/MC_PHOTONS:ENERGY=13600/sumPtGamma_vs_pTlep
LegendOnly=//afs/cern.ch/user/z/zhijun/genValidation/LNu_NLO_1j_NoMu_v2/merged.yoda/MC_PHOTONS:ENERGY=13600/sumPtGamma_vs_pTlep //afs/cern.ch/user/z/zhijun/genValidation/old_v3/LNu_NLO_1j_NoMu_v3/merged.yoda/MC_PHOTONS:ENERGY=13600/sumPtGamma_vs_pTlep //afs/cern.ch/user/z/zhijun/genValidation/LNu_NLO_1j_NoMu_v3/merged.yoda/MC_PHOTONS:ENERGY=13600/sumPtGamma_vs_pTlep
RatioPlot=1
RatioPlotReference=//afs/cern.ch/user/z/zhijun/genValidation/LNu_NLO_1j_NoMu_v2/merged.yoda/MC_PHOTONS:ENERGY=13600/sumPtGamma_vs_pTlep
RatioPlotYLabel=Ratio
# END PLOT

# BEGIN HISTO1D //afs/cern.ch/user/z/zhijun/genValidation/LNu_NLO_1j_NoMu_v2/merged.yoda/MC_PHOTONS:ENERGY=13600/sumPtGamma_vs_pTlep
ErrorBars=1
LineColor=red
LineStyle=solid
Path=//afs/cern.ch/user/z/zhijun/genValidation/LNu_NLO_1j_NoMu_v2/merged.yoda/MC_PHOTONS:ENERGY=13600/sumPtGamma_vs_pTlep
Title=LNu_NLO_1j(v2_9_18)
# xlow	 xhigh	 val	 errminus	 errplus
1.000000e+01	1.220000e+01	6.133022e+01	2.785503e-01	2.785503e-01
1.220000e+01	1.440000e+01	6.192917e+01	2.787774e-01	2.787774e-01
1.440000e+01	1.660000e+01	6.176844e+01	2.711780e-01	2.711780e-01
1.660000e+01	1.880000e+01	6.176169e+01	2.625543e-01	2.625543e-01
1.880000e+01	2.100000e+01	6.235964e+01	2.639123e-01	2.639123e-01
2.100000e+01	2.320000e+01	6.207596e+01	2.593165e-01	2.593165e-01
2.320000e+01	2.540000e+01	6.166404e+01	2.457934e-01	2.457934e-01
2.540000e+01	2.760000e+01	6.117314e+01	2.531355e-01	2.531355e-01
2.760000e+01	2.980000e+01	6.139276e+01	2.581609e-01	2.581609e-01
2.980000e+01	3.200000e+01	6.148428e+01	2.678359e-01	2.678359e-01
3.200000e+01	3.420000e+01	6.136414e+01	2.742329e-01	2.742329e-01
3.420000e+01	3.640000e+01	6.183932e+01	2.828489e-01	2.828489e-01
3.640000e+01	3.860000e+01	6.184966e+01	2.969293e-01	2.969293e-01
3.860000e+01	4.080000e+01	6.148018e+01	3.072410e-01	3.072410e-01
4.080000e+01	4.300000e+01	6.137122e+01	3.164816e-01	3.164816e-01
4.300000e+01	4.520000e+01	6.136965e+01	3.286846e-01	3.286846e-01
4.520000e+01	4.740000e+01	6.168268e+01	3.290871e-01	3.290871e-01
4.740000e+01	4.960000e+01	6.168819e+01	3.452404e-01	3.452404e-01
4.960000e+01	5.180000e+01	6.101466e+01	3.581283e-01	3.581283e-01
5.180000e+01	5.400000e+01	6.089309e+01	3.770132e-01	3.770132e-01
5.400000e+01	5.620000e+01	6.110999e+01	3.980788e-01	3.980788e-01
5.620000e+01	5.840000e+01	6.147845e+01	4.089758e-01	4.089758e-01
5.840000e+01	6.060000e+01	6.145614e+01	4.461048e-01	4.461048e-01
6.060000e+01	6.280000e+01	6.182256e+01	4.667031e-01	4.667031e-01
6.280000e+01	6.500000e+01	6.310014e+01	5.162466e-01	5.162466e-01
6.500000e+01	6.720000e+01	6.434702e+01	5.349520e-01	5.349520e-01
6.720000e+01	6.940000e+01	6.466675e+01	5.946613e-01	5.946613e-01
6.940000e+01	7.160000e+01	6.618361e+01	6.968510e-01	6.968510e-01
7.160000e+01	7.380000e+01	6.611858e+01	7.344140e-01	7.344140e-01
7.380000e+01	7.600000e+01	6.539615e+01	7.333333e-01	7.333333e-01
7.600000e+01	7.820000e+01	6.786654e+01	8.400844e-01	8.400844e-01
7.820000e+01	8.040000e+01	6.884633e+01	9.424813e-01	9.424813e-01
8.040000e+01	8.260000e+01	6.751341e+01	9.663401e-01	9.663401e-01
8.260000e+01	8.480000e+01	7.064318e+01	1.044428e+00	1.044428e+00
8.480000e+01	8.700000e+01	7.170795e+01	1.196175e+00	1.196175e+00
8.700000e+01	8.920000e+01	7.069654e+01	1.328020e+00	1.328020e+00
8.920000e+01	9.140000e+01	7.053463e+01	1.324802e+00	1.324802e+00
9.140000e+01	9.360000e+01	7.300724e+01	1.478504e+00	1.478504e+00
9.360000e+01	9.580000e+01	7.605653e+01	1.638019e+00	1.638019e+00
9.580000e+01	9.800000e+01	7.763833e+01	1.813631e+00	1.813631e+00
9.800000e+01	1.002000e+02	7.402506e+01	1.632979e+00	1.632979e+00
1.002000e+02	1.024000e+02	7.763598e+01	1.921370e+00	1.921370e+00
1.024000e+02	1.046000e+02	7.734365e+01	2.083256e+00	2.083256e+00
1.046000e+02	1.068000e+02	8.258845e+01	2.371941e+00	2.371941e+00
1.068000e+02	1.090000e+02	7.767940e+01	2.370278e+00	2.370278e+00
1.090000e+02	1.112000e+02	8.065988e+01	2.458482e+00	2.458482e+00
1.112000e+02	1.134000e+02	8.179013e+01	2.768176e+00	2.768176e+00
1.134000e+02	1.156000e+02	7.529441e+01	2.807813e+00	2.807813e+00
1.156000e+02	1.178000e+02	8.056205e+01	2.818883e+00	2.818883e+00
1.178000e+02	1.200000e+02	8.567427e+01	3.524332e+00	3.524332e+00
# END HISTO1D


# BEGIN HISTO1D //afs/cern.ch/user/z/zhijun/genValidation/old_v3/LNu_NLO_1j_NoMu_v3/merged.yoda/MC_PHOTONS:ENERGY=13600/sumPtGamma_vs_pTlep
ErrorBars=1
LineColor=blue
LineStyle=solid
Path=//afs/cern.ch/user/z/zhijun/genValidation/old_v3/LNu_NLO_1j_NoMu_v3/merged.yoda/MC_PHOTONS:ENERGY=13600/sumPtGamma_vs_pTlep
Title=LNu_NLO_1j(v3_5_2)
# xlow	 xhigh	 val	 errminus	 errplus
1.000000e+01	1.220000e+01	6.063982e+01	2.616056e-01	2.616056e-01
1.220000e+01	1.440000e+01	6.141499e+01	2.619754e-01	2.619754e-01
1.440000e+01	1.660000e+01	6.126463e+01	2.543336e-01	2.543336e-01
1.660000e+01	1.880000e+01	6.146634e+01	2.477218e-01	2.477218e-01
1.880000e+01	2.100000e+01	6.057543e+01	2.410313e-01	2.410313e-01
2.100000e+01	2.320000e+01	6.082374e+01	2.341959e-01	2.341959e-01
2.320000e+01	2.540000e+01	6.044477e+01	2.340069e-01	2.340069e-01
2.540000e+01	2.760000e+01	6.008486e+01	2.389767e-01	2.389767e-01
2.760000e+01	2.980000e+01	5.998155e+01	2.460448e-01	2.460448e-01
2.980000e+01	3.200000e+01	6.023842e+01	2.507568e-01	2.507568e-01
3.200000e+01	3.420000e+01	6.031993e+01	2.608006e-01	2.608006e-01
3.420000e+01	3.640000e+01	6.061403e+01	2.699957e-01	2.699957e-01
3.640000e+01	3.860000e+01	6.029567e+01	2.832946e-01	2.832946e-01
3.860000e+01	4.080000e+01	6.047566e+01	2.885503e-01	2.885503e-01
4.080000e+01	4.300000e+01	6.018069e+01	2.963163e-01	2.963163e-01
4.300000e+01	4.520000e+01	6.053972e+01	3.065861e-01	3.065861e-01
4.520000e+01	4.740000e+01	6.033600e+01	3.103213e-01	3.103213e-01
4.740000e+01	4.960000e+01	5.989283e+01	3.369414e-01	3.369414e-01
4.960000e+01	5.180000e+01	5.989102e+01	3.343428e-01	3.343428e-01
5.180000e+01	5.400000e+01	6.043028e+01	3.508218e-01	3.508218e-01
5.400000e+01	5.620000e+01	5.992159e+01	3.656613e-01	3.656613e-01
5.620000e+01	5.840000e+01	6.033337e+01	3.731954e-01	3.731954e-01
5.840000e+01	6.060000e+01	6.066522e+01	3.987694e-01	3.987694e-01
6.060000e+01	6.280000e+01	6.123978e+01	4.307548e-01	4.307548e-01
6.280000e+01	6.500000e+01	6.192924e+01	4.696534e-01	4.696534e-01
6.500000e+01	6.720000e+01	6.267257e+01	5.092634e-01	5.092634e-01
6.720000e+01	6.940000e+01	6.308036e+01	5.539867e-01	5.539867e-01
6.940000e+01	7.160000e+01	6.473736e+01	6.063558e-01	6.063558e-01
7.160000e+01	7.380000e+01	6.483456e+01	6.781768e-01	6.781768e-01
7.380000e+01	7.600000e+01	6.569334e+01	7.280737e-01	7.280737e-01
7.600000e+01	7.820000e+01	6.616023e+01	7.939802e-01	7.939802e-01
7.820000e+01	8.040000e+01	6.937731e+01	8.378663e-01	8.378663e-01
8.040000e+01	8.260000e+01	6.726967e+01	8.687518e-01	8.687518e-01
8.260000e+01	8.480000e+01	6.905729e+01	9.695535e-01	9.695535e-01
8.480000e+01	8.700000e+01	7.078281e+01	1.137431e+00	1.137431e+00
8.700000e+01	8.920000e+01	7.075064e+01	1.141621e+00	1.141621e+00
8.920000e+01	9.140000e+01	7.214498e+01	1.235994e+00	1.235994e+00
9.140000e+01	9.360000e+01	7.120650e+01	1.376113e+00	1.376113e+00
9.360000e+01	9.580000e+01	7.478651e+01	1.393929e+00	1.393929e+00
9.580000e+01	9.800000e+01	7.444787e+01	1.557371e+00	1.557371e+00
9.800000e+01	1.002000e+02	7.184238e+01	1.499256e+00	1.499256e+00
1.002000e+02	1.024000e+02	7.417979e+01	1.716581e+00	1.716581e+00
1.024000e+02	1.046000e+02	7.785660e+01	1.926091e+00	1.926091e+00
1.046000e+02	1.068000e+02	7.525741e+01	2.206704e+00	2.206704e+00
1.068000e+02	1.090000e+02	8.043286e+01	2.363120e+00	2.363120e+00
1.090000e+02	1.112000e+02	7.961000e+01	2.461901e+00	2.461901e+00
1.112000e+02	1.134000e+02	7.727716e+01	2.368307e+00	2.368307e+00
1.134000e+02	1.156000e+02	7.975887e+01	2.667331e+00	2.667331e+00
1.156000e+02	1.178000e+02	8.200157e+01	2.653267e+00	2.653267e+00
1.178000e+02	1.200000e+02	8.871849e+01	3.144655e+00	3.144655e+00
# END HISTO1D


# BEGIN HISTO1D //afs/cern.ch/user/z/zhijun/genValidation/LNu_NLO_1j_NoMu_v3/merged.yoda/MC_PHOTONS:ENERGY=13600/sumPtGamma_vs_pTlep
ErrorBars=1
LineColor=green
LineStyle=solid
Path=//afs/cern.ch/user/z/zhijun/genValidation/LNu_NLO_1j_NoMu_v3/merged.yoda/MC_PHOTONS:ENERGY=13600/sumPtGamma_vs_pTlep
Title=LNu_NLO_1j(v3_5_6)
# xlow	 xhigh	 val	 errminus	 errplus
1.000000e+01	1.220000e+01	6.147472e+01	2.669747e-01	2.669747e-01
1.220000e+01	1.440000e+01	6.194085e+01	2.658143e-01	2.658143e-01
1.440000e+01	1.660000e+01	6.238016e+01	2.589243e-01	2.589243e-01
1.660000e+01	1.880000e+01	6.201998e+01	2.519025e-01	2.519025e-01
1.880000e+01	2.100000e+01	6.242261e+01	2.489446e-01	2.489446e-01
2.100000e+01	2.320000e+01	6.189350e+01	2.395678e-01	2.395678e-01
2.320000e+01	2.540000e+01	6.107733e+01	2.371752e-01	2.371752e-01
2.540000e+01	2.760000e+01	6.132996e+01	2.409930e-01	2.409930e-01
2.760000e+01	2.980000e+01	6.087968e+01	2.459895e-01	2.459895e-01
2.980000e+01	3.200000e+01	6.137299e+01	2.614122e-01	2.614122e-01
3.200000e+01	3.420000e+01	6.162155e+01	2.688365e-01	2.688365e-01
3.420000e+01	3.640000e+01	6.149966e+01	2.752016e-01	2.752016e-01
3.640000e+01	3.860000e+01	6.155697e+01	2.846496e-01	2.846496e-01
3.860000e+01	4.080000e+01	6.161744e+01	2.967493e-01	2.967493e-01
4.080000e+01	4.300000e+01	6.120297e+01	2.977660e-01	2.977660e-01
4.300000e+01	4.520000e+01	6.146120e+01	3.102477e-01	3.102477e-01
4.520000e+01	4.740000e+01	6.148571e+01	3.189706e-01	3.189706e-01
4.740000e+01	4.960000e+01	6.112989e+01	3.332148e-01	3.332148e-01
4.960000e+01	5.180000e+01	6.123063e+01	3.359339e-01	3.359339e-01
5.180000e+01	5.400000e+01	6.153284e+01	3.594762e-01	3.594762e-01
5.400000e+01	5.620000e+01	6.138963e+01	3.765098e-01	3.765098e-01
5.620000e+01	5.840000e+01	6.119811e+01	3.933032e-01	3.933032e-01
5.840000e+01	6.060000e+01	6.179901e+01	4.197281e-01	4.197281e-01
6.060000e+01	6.280000e+01	6.302786e+01	4.581869e-01	4.581869e-01
6.280000e+01	6.500000e+01	6.321553e+01	4.972314e-01	4.972314e-01
6.500000e+01	6.720000e+01	6.334844e+01	5.245699e-01	5.245699e-01
6.720000e+01	6.940000e+01	6.558706e+01	5.670202e-01	5.670202e-01
6.940000e+01	7.160000e+01	6.576011e+01	6.421018e-01	6.421018e-01
7.160000e+01	7.380000e+01	6.555190e+01	6.840905e-01	6.840905e-01
7.380000e+01	7.600000e+01	6.628100e+01	7.508335e-01	7.508335e-01
7.600000e+01	7.820000e+01	6.865900e+01	8.366749e-01	8.366749e-01
7.820000e+01	8.040000e+01	6.777869e+01	8.869913e-01	8.869913e-01
8.040000e+01	8.260000e+01	7.072330e+01	1.003546e+00	1.003546e+00
8.260000e+01	8.480000e+01	6.950092e+01	9.994906e-01	9.994906e-01
8.480000e+01	8.700000e+01	7.277558e+01	1.128012e+00	1.128012e+00
8.700000e+01	8.920000e+01	7.098831e+01	1.238068e+00	1.238068e+00
8.920000e+01	9.140000e+01	7.317382e+01	1.323013e+00	1.323013e+00
9.140000e+01	9.360000e+01	7.322904e+01	1.379227e+00	1.379227e+00
9.360000e+01	9.580000e+01	7.492840e+01	1.430374e+00	1.430374e+00
9.580000e+01	9.800000e+01	7.295689e+01	1.446213e+00	1.446213e+00
9.800000e+01	1.002000e+02	7.442771e+01	1.742368e+00	1.742368e+00
1.002000e+02	1.024000e+02	7.607285e+01	1.893764e+00	1.893764e+00
1.024000e+02	1.046000e+02	7.439720e+01	1.948566e+00	1.948566e+00
1.046000e+02	1.068000e+02	7.680286e+01	2.012703e+00	2.012703e+00
1.068000e+02	1.090000e+02	7.984583e+01	2.047390e+00	2.047390e+00
1.090000e+02	1.112000e+02	7.977768e+01	2.485705e+00	2.485705e+00
1.112000e+02	1.134000e+02	8.016521e+01	2.469531e+00	2.469531e+00
1.134000e+02	1.156000e+02	8.012930e+01	2.926268e+00	2.926268e+00
1.156000e+02	1.178000e+02	8.861705e+01	2.937417e+00	2.937417e+00
1.178000e+02	1.200000e+02	8.914010e+01	3.349911e+00	3.349911e+00
# END HISTO1D

