# BEGIN PLOT
Legend=1
LogY=1
Title=Pseudorapidity separation between electrons
LegendYPos=0.5
LegendXPos=0.30
XLabel=$\Delta\eta(\mathrm{e1,~e2})$
YLabel=$\mathrm{d}\sigma/\mathrm{d}\Delta\eta(\mathrm{e1,~e2})$ [pb]
DrawOnly=//afs/cern.ch/user/z/zhijun/genValidation/LNu_NLO_1j_NoMu_v2/merged.yoda/MC_ELECTRONS:ENERGY=13600/electrons_deta_12 //afs/cern.ch/user/z/zhijun/genValidation/LNu_NLO_1j_NoMu_v3/merged.yoda/MC_ELECTRONS:ENERGY=13600/electrons_deta_12
LegendOnly=//afs/cern.ch/user/z/zhijun/genValidation/LNu_NLO_1j_NoMu_v2/merged.yoda/MC_ELECTRONS:ENERGY=13600/electrons_deta_12 //afs/cern.ch/user/z/zhijun/genValidation/LNu_NLO_1j_NoMu_v3/merged.yoda/MC_ELECTRONS:ENERGY=13600/electrons_deta_12
RatioPlot=1
RatioPlotReference=//afs/cern.ch/user/z/zhijun/genValidation/LNu_NLO_1j_NoMu_v2/merged.yoda/MC_ELECTRONS:ENERGY=13600/electrons_deta_12
RatioPlotYLabel=Ratio
# END PLOT

# BEGIN HISTO1D //afs/cern.ch/user/z/zhijun/genValidation/LNu_NLO_1j_NoMu_v2/merged.yoda/MC_ELECTRONS:ENERGY=13600/electrons_deta_12
ErrorBars=1
LineColor=red
LineStyle=solid
Path=//afs/cern.ch/user/z/zhijun/genValidation/LNu_NLO_1j_NoMu_v2/merged.yoda/MC_ELECTRONS:ENERGY=13600/electrons_deta_12
ScaledBy=9.97307099169993888e-08
Title=LNu_NLO_1j(v2_9_18)
# xlow	 xhigh	 val	 errminus	 errplus
-5.000000e+00	-4.600000e+00	3.343845e+01	1.079859e+00	1.079859e+00
-4.600000e+00	-4.200000e+00	3.930713e+01	1.149357e+00	1.149357e+00
-4.200000e+00	-3.800000e+00	4.495005e+01	1.220223e+00	1.220223e+00
-3.800000e+00	-3.400000e+00	4.838420e+01	1.288706e+00	1.288706e+00
-3.400000e+00	-3.000000e+00	5.391428e+01	1.339833e+00	1.339833e+00
-3.000000e+00	-2.600000e+00	6.091153e+01	1.421360e+00	1.421360e+00
-2.600000e+00	-2.200000e+00	6.428118e+01	1.488972e+00	1.488972e+00
-2.200000e+00	-1.800000e+00	7.218127e+01	1.559574e+00	1.559574e+00
-1.800000e+00	-1.400000e+00	7.922690e+01	1.642300e+00	1.642300e+00
-1.400000e+00	-1.000000e+00	8.414433e+01	1.700237e+00	1.700237e+00
-1.000000e+00	-6.000000e-01	9.027095e+01	1.729642e+00	1.729642e+00
-6.000000e-01	-2.000000e-01	9.717145e+01	1.805238e+00	1.805238e+00
-2.000000e-01	2.000000e-01	2.665565e+02	2.979297e+00	2.979297e+00
2.000000e-01	6.000000e-01	9.289895e+01	1.773789e+00	1.773789e+00
6.000000e-01	1.000000e+00	8.646600e+01	1.741475e+00	1.741475e+00
1.000000e+00	1.400000e+00	8.349943e+01	1.697942e+00	1.697942e+00
1.400000e+00	1.800000e+00	7.767912e+01	1.638497e+00	1.638497e+00
1.800000e+00	2.200000e+00	7.047227e+01	1.559740e+00	1.559740e+00
2.200000e+00	2.600000e+00	6.692530e+01	1.496113e+00	1.496113e+00
2.600000e+00	3.000000e+00	6.125010e+01	1.424921e+00	1.424921e+00
3.000000e+00	3.400000e+00	5.334998e+01	1.356128e+00	1.356128e+00
3.400000e+00	3.800000e+00	4.964178e+01	1.283249e+00	1.283249e+00
3.800000e+00	4.200000e+00	4.627212e+01	1.224264e+00	1.224264e+00
4.200000e+00	4.600000e+00	4.141920e+01	1.159826e+00	1.159826e+00
4.600000e+00	5.000000e+00	3.459930e+01	1.083224e+00	1.083224e+00
# END HISTO1D


# BEGIN HISTO1D //afs/cern.ch/user/z/zhijun/genValidation/LNu_NLO_1j_NoMu_v3/merged.yoda/MC_ELECTRONS:ENERGY=13600/electrons_deta_12
ErrorBars=1
LineColor=blue
LineStyle=solid
Path=//afs/cern.ch/user/z/zhijun/genValidation/LNu_NLO_1j_NoMu_v3/merged.yoda/MC_ELECTRONS:ENERGY=13600/electrons_deta_12
ScaledBy=1.03822937565205431e-07
Title=LNu_NLO_1j(v3_5_2)
# xlow	 xhigh	 val	 errminus	 errplus
-5.000000e+00	-4.600000e+00	3.253247e+01	9.992244e-01	9.992244e-01
-4.600000e+00	-4.200000e+00	3.609280e+01	1.067376e+00	1.067376e+00
-4.200000e+00	-3.800000e+00	4.325797e+01	1.142560e+00	1.142560e+00
-3.800000e+00	-3.400000e+00	4.753035e+01	1.205906e+00	1.205906e+00
-3.400000e+00	-3.000000e+00	5.358293e+01	1.277680e+00	1.277680e+00
-3.000000e+00	-2.600000e+00	5.965030e+01	1.343912e+00	1.343912e+00
-2.600000e+00	-2.200000e+00	6.418973e+01	1.404447e+00	1.404447e+00
-2.200000e+00	-1.800000e+00	6.887747e+01	1.462629e+00	1.462629e+00
-1.800000e+00	-1.400000e+00	7.528607e+01	1.531426e+00	1.531426e+00
-1.400000e+00	-1.000000e+00	8.305945e+01	1.596298e+00	1.596298e+00
-1.000000e+00	-6.000000e-01	8.561102e+01	1.642637e+00	1.642637e+00
-6.000000e-01	-2.000000e-01	9.397778e+01	1.683917e+00	1.683917e+00
-2.000000e-01	2.000000e-01	2.594737e+02	2.822142e+00	2.822142e+00
2.000000e-01	6.000000e-01	9.307287e+01	1.698427e+00	1.698427e+00
6.000000e-01	1.000000e+00	8.623408e+01	1.641431e+00	1.641431e+00
1.000000e+00	1.400000e+00	8.286660e+01	1.589598e+00	1.589598e+00
1.400000e+00	1.800000e+00	7.571627e+01	1.539524e+00	1.539524e+00
1.800000e+00	2.200000e+00	6.766105e+01	1.478938e+00	1.478938e+00
2.200000e+00	2.600000e+00	6.248373e+01	1.404525e+00	1.404525e+00
2.600000e+00	3.000000e+00	5.671303e+01	1.329258e+00	1.329258e+00
3.000000e+00	3.400000e+00	5.324173e+01	1.278971e+00	1.278971e+00
3.400000e+00	3.800000e+00	4.576503e+01	1.212005e+00	1.212005e+00
3.800000e+00	4.200000e+00	4.061740e+01	1.141018e+00	1.141018e+00
4.200000e+00	4.600000e+00	3.877790e+01	1.084050e+00	1.084050e+00
4.600000e+00	5.000000e+00	3.291817e+01	1.009305e+00	1.009305e+00
# END HISTO1D

