# BEGIN PLOT
Legend=1
LogY=1
Title=Inclusive prompt muon multiplicity
XLabel=$N_{\mathrm{muon}}$
YLabel=$\sigma(\geq N_{\mathrm{muon}})$ [pb]
XMajorTickMarks=10
XMinorTickMarks=0
ErrorBands=1
DrawOnly=//afs/cern.ch/user/z/zhijun/genValidation/LNu_NLO_0j_v2/merged.yoda/MC_MUONS:ENERGY=13600/muon_multi_inclusive_prompt //afs/cern.ch/user/z/zhijun/genValidation/LNu_NLO_0j_v3/merged.yoda/MC_MUONS:ENERGY=13600/muon_multi_inclusive_prompt
LegendOnly=//afs/cern.ch/user/z/zhijun/genValidation/LNu_NLO_0j_v2/merged.yoda/MC_MUONS:ENERGY=13600/muon_multi_inclusive_prompt //afs/cern.ch/user/z/zhijun/genValidation/LNu_NLO_0j_v3/merged.yoda/MC_MUONS:ENERGY=13600/muon_multi_inclusive_prompt
RatioPlot=1
RatioPlotReference=//afs/cern.ch/user/z/zhijun/genValidation/LNu_NLO_0j_v2/merged.yoda/MC_MUONS:ENERGY=13600/muon_multi_inclusive_prompt
RatioPlotYLabel=Ratio
# END PLOT

# BEGIN HISTO1D //afs/cern.ch/user/z/zhijun/genValidation/LNu_NLO_0j_v2/merged.yoda/MC_MUONS:ENERGY=13600/muon_multi_inclusive_prompt
ErrorBars=1
LineColor=red
LineStyle=solid
Path=//afs/cern.ch/user/z/zhijun/genValidation/LNu_NLO_0j_v2/merged.yoda/MC_MUONS:ENERGY=13600/muon_multi_inclusive_prompt
ScaledBy=9.98887698110747368e-07
Title=LNu_NLO_0j(v2_9_18)
# xlow	 xhigh	 val	 errminus	 errplus
-5.000000e-01	5.000000e-01	5.318899e+04	7.153535e+01	7.153535e+01
5.000000e-01	1.500000e+00	1.776621e+04	4.131659e+01	4.131659e+01
1.500000e+00	2.500000e+00	1.257040e+01	1.049280e+00	1.049280e+00
2.500000e+00	3.500000e+00	3.180462e+00	5.354587e-01	5.354587e-01
3.500000e+00	4.500000e+00	0.000000e+00	0.000000e+00	0.000000e+00
# END HISTO1D


# BEGIN HISTO1D //afs/cern.ch/user/z/zhijun/genValidation/LNu_NLO_0j_v3/merged.yoda/MC_MUONS:ENERGY=13600/muon_multi_inclusive_prompt
ErrorBars=1
LineColor=blue
LineStyle=solid
Path=//afs/cern.ch/user/z/zhijun/genValidation/LNu_NLO_0j_v3/merged.yoda/MC_MUONS:ENERGY=13600/muon_multi_inclusive_prompt
ScaledBy=1.01006287099596851e-06
Title=LNu_NLO_0j(v3_5_2)
# xlow	 xhigh	 val	 errminus	 errplus
-5.000000e-01	5.000000e-01	5.325779e+04	7.200526e+01	7.200526e+01
5.000000e-01	1.500000e+00	1.771606e+04	4.156953e+01	4.156953e+01
1.500000e+00	2.500000e+00	1.370293e+01	1.096068e+00	1.096068e+00
2.500000e+00	3.500000e+00	4.746268e+00	6.219171e-01	6.219171e-01
3.500000e+00	4.500000e+00	0.000000e+00	0.000000e+00	0.000000e+00
# END HISTO1D

