# BEGIN PLOT
Legend=1
LogY=1
Title=Rapidity $+/-$ ratio of third jet
XLabel=$|y(\mathrm{jet~3}|$
YLabel=$y(\mathrm{jet~3})_+/y(\mathrm{jet~3})_-$
DrawOnly=//afs/cern.ch/user/z/zhijun/genValidation/LNu_NLO_1j_NoMu_v2/merged.yoda/MC_JETS:ENERGY=13600/jet_y_pmratio_3 //afs/cern.ch/user/z/zhijun/genValidation/old_v3/LNu_NLO_1j_NoMu_v3/merged.yoda/MC_JETS:ENERGY=13600/jet_y_pmratio_3 //afs/cern.ch/user/z/zhijun/genValidation/LNu_NLO_1j_NoMu_v3/merged.yoda/MC_JETS:ENERGY=13600/jet_y_pmratio_3
LegendOnly=//afs/cern.ch/user/z/zhijun/genValidation/LNu_NLO_1j_NoMu_v2/merged.yoda/MC_JETS:ENERGY=13600/jet_y_pmratio_3 //afs/cern.ch/user/z/zhijun/genValidation/old_v3/LNu_NLO_1j_NoMu_v3/merged.yoda/MC_JETS:ENERGY=13600/jet_y_pmratio_3 //afs/cern.ch/user/z/zhijun/genValidation/LNu_NLO_1j_NoMu_v3/merged.yoda/MC_JETS:ENERGY=13600/jet_y_pmratio_3
RatioPlot=1
RatioPlotReference=//afs/cern.ch/user/z/zhijun/genValidation/LNu_NLO_1j_NoMu_v2/merged.yoda/MC_JETS:ENERGY=13600/jet_y_pmratio_3
RatioPlotYLabel=Ratio
# END PLOT

# BEGIN HISTO1D //afs/cern.ch/user/z/zhijun/genValidation/LNu_NLO_1j_NoMu_v2/merged.yoda/MC_JETS:ENERGY=13600/jet_y_pmratio_3
ErrorBars=1
ErrorBreakdown={0: {"": {up: 0.02339499675387144, dn: 0.02339499675387144}}, 1: {"": {up: 0.02298379903648081, dn: 0.02298379903648081}}, 2: {"": {up: 0.02247890850354509, dn: 0.02247890850354509}}, 3: {"": {up: 0.02303619199209011, dn: 0.02303619199209011}}, 4: {"": {up: 0.02360064804000953, dn: 0.02360064804000953}}, 5: {"": {up: 0.02577880425208207, dn: 0.02577880425208207}}, 6: {"": {up: 0.02498265867556463, dn: 0.02498265867556463}}, 7: {"": {up: 0.02890186126486172, dn: 0.02890186126486172}}, 8: {"": {up: 0.02995108890240144, dn: 0.02995108890240144}}, 9: {"": {up: 0.03327161382148483, dn: 0.03327161382148483}}, 10: {"": {up: 0.0374831058381103, dn: 0.0374831058381103}}, 11: {"": {up: 0.04201280425505463, dn: 0.04201280425505463}}, 12: {"": {up: 0.05468465915739337, dn: 0.05468465915739337}}, 13: {"": {up: 0.06396158651959405, dn: 0.06396158651959405}}, 14: {"": {up: 0.08136336732356993, dn: 0.08136336732356993}}}
LineColor=red
LineStyle=solid
Path=//afs/cern.ch/user/z/zhijun/genValidation/LNu_NLO_1j_NoMu_v2/merged.yoda/MC_JETS:ENERGY=13600/jet_y_pmratio_3
Title=LNu_NLO_1j(v2_9_18)
# xlow	 xhigh	 val	 errminus	 errplus
0.000000e+00	3.333334e-01	1.045714e+00	2.339500e-02	2.339500e-02
3.333333e-01	6.666667e-01	1.002870e+00	2.298380e-02	2.298380e-02
6.666666e-01	1.000000e+00	9.987773e-01	2.247891e-02	2.247891e-02
1.000000e+00	1.333334e+00	1.007083e+00	2.303619e-02	2.303619e-02
1.333333e+00	1.666667e+00	9.873975e-01	2.360065e-02	2.360065e-02
1.666666e+00	2.000000e+00	1.050668e+00	2.577880e-02	2.577880e-02
2.000000e+00	2.333334e+00	9.519929e-01	2.498266e-02	2.498266e-02
2.333333e+00	2.666667e+00	1.025969e+00	2.890186e-02	2.890186e-02
2.666666e+00	3.000000e+00	1.003769e+00	2.995109e-02	2.995109e-02
3.000000e+00	3.333334e+00	1.014068e+00	3.327161e-02	3.327161e-02
3.333333e+00	3.666667e+00	1.018620e+00	3.748311e-02	3.748311e-02
3.666666e+00	4.000000e+00	9.628916e-01	4.201280e-02	4.201280e-02
4.000000e+00	4.333334e+00	1.057951e+00	5.468466e-02	5.468466e-02
4.333333e+00	4.666667e+00	1.058462e+00	6.396159e-02	6.396159e-02
4.666666e+00	5.000000e+00	9.559083e-01	8.136337e-02	8.136337e-02
# END HISTO1D


# BEGIN HISTO1D //afs/cern.ch/user/z/zhijun/genValidation/old_v3/LNu_NLO_1j_NoMu_v3/merged.yoda/MC_JETS:ENERGY=13600/jet_y_pmratio_3
ErrorBars=1
ErrorBreakdown={0: {"": {up: 0.02205765121262798, dn: 0.02205765121262798}}, 1: {"": {up: 0.02290116735837779, dn: 0.02290116735837779}}, 2: {"": {up: 0.02224037923674908, dn: 0.02224037923674908}}, 3: {"": {up: 0.02388171716931927, dn: 0.02388171716931927}}, 4: {"": {up: 0.02450865777521827, dn: 0.02450865777521827}}, 5: {"": {up: 0.0249447613847695, dn: 0.0249447613847695}}, 6: {"": {up: 0.026103983050403, dn: 0.026103983050403}}, 7: {"": {up: 0.02700111538090486, dn: 0.02700111538090486}}, 8: {"": {up: 0.03052623447826025, dn: 0.03052623447826025}}, 9: {"": {up: 0.03210647961430351, dn: 0.03210647961430351}}, 10: {"": {up: 0.03615790842455419, dn: 0.03615790842455419}}, 11: {"": {up: 0.04523564103723943, dn: 0.04523564103723943}}, 12: {"": {up: 0.05331887366652213, dn: 0.05331887366652213}}, 13: {"": {up: 0.06711360556236862, dn: 0.06711360556236862}}, 14: {"": {up: 0.06508669396511012, dn: 0.06508669396511012}}}
LineColor=blue
LineStyle=solid
Path=//afs/cern.ch/user/z/zhijun/genValidation/old_v3/LNu_NLO_1j_NoMu_v3/merged.yoda/MC_JETS:ENERGY=13600/jet_y_pmratio_3
Title=LNu_NLO_1j(v3_5_2)
# xlow	 xhigh	 val	 errminus	 errplus
0.000000e+00	3.333334e-01	9.619544e-01	2.205765e-02	2.205765e-02
3.333333e-01	6.666667e-01	1.007521e+00	2.290117e-02	2.290117e-02
6.666666e-01	1.000000e+00	9.742330e-01	2.224038e-02	2.224038e-02
1.000000e+00	1.333334e+00	1.003456e+00	2.388172e-02	2.388172e-02
1.333333e+00	1.666667e+00	1.021525e+00	2.450866e-02	2.450866e-02
1.666666e+00	2.000000e+00	1.001268e+00	2.494476e-02	2.494476e-02
2.000000e+00	2.333334e+00	9.986036e-01	2.610398e-02	2.610398e-02
2.333333e+00	2.666667e+00	9.744087e-01	2.700112e-02	2.700112e-02
2.666666e+00	3.000000e+00	1.013222e+00	3.052623e-02	3.052623e-02
3.000000e+00	3.333334e+00	9.931638e-01	3.210648e-02	3.210648e-02
3.333333e+00	3.666667e+00	9.948630e-01	3.615791e-02	3.615791e-02
3.666666e+00	4.000000e+00	1.047481e+00	4.523564e-02	4.523564e-02
4.000000e+00	4.333334e+00	1.006233e+00	5.331887e-02	5.331887e-02
4.333333e+00	4.666667e+00	1.036726e+00	6.711361e-02	6.711361e-02
4.666666e+00	5.000000e+00	8.268398e-01	6.508669e-02	6.508669e-02
# END HISTO1D


# BEGIN HISTO1D //afs/cern.ch/user/z/zhijun/genValidation/LNu_NLO_1j_NoMu_v3/merged.yoda/MC_JETS:ENERGY=13600/jet_y_pmratio_3
ErrorBars=1
ErrorBreakdown={0: {"": {up: 0.02199258621793086, dn: 0.02199258621793086}}, 1: {"": {up: 0.0219835543341799, dn: 0.0219835543341799}}, 2: {"": {up: 0.02164243169529372, dn: 0.02164243169529372}}, 3: {"": {up: 0.02180296426076991, dn: 0.02180296426076991}}, 4: {"": {up: 0.02313597435600811, dn: 0.02313597435600811}}, 5: {"": {up: 0.02463955693094773, dn: 0.02463955693094773}}, 6: {"": {up: 0.02449917154971728, dn: 0.02449917154971728}}, 7: {"": {up: 0.02693292586589494, dn: 0.02693292586589494}}, 8: {"": {up: 0.03070830328902435, dn: 0.03070830328902435}}, 9: {"": {up: 0.03056396625556128, dn: 0.03056396625556128}}, 10: {"": {up: 0.03459325441470675, dn: 0.03459325441470675}}, 11: {"": {up: 0.03943608391026184, dn: 0.03943608391026184}}, 12: {"": {up: 0.04836003504215615, dn: 0.04836003504215615}}, 13: {"": {up: 0.05852525409184441, dn: 0.05852525409184441}}, 14: {"": {up: 0.07535783647641475, dn: 0.07535783647641475}}}
LineColor=green
LineStyle=solid
Path=//afs/cern.ch/user/z/zhijun/genValidation/LNu_NLO_1j_NoMu_v3/merged.yoda/MC_JETS:ENERGY=13600/jet_y_pmratio_3
Title=LNu_NLO_1j(v3_5_6)
# xlow	 xhigh	 val	 errminus	 errplus
0.000000e+00	3.333334e-01	1.003217e+00	2.199259e-02	2.199259e-02
3.333333e-01	6.666667e-01	9.913273e-01	2.198355e-02	2.198355e-02
6.666666e-01	1.000000e+00	9.753994e-01	2.164243e-02	2.164243e-02
1.000000e+00	1.333334e+00	9.475885e-01	2.180296e-02	2.180296e-02
1.333333e+00	1.666667e+00	9.890557e-01	2.313597e-02	2.313597e-02
1.666666e+00	2.000000e+00	1.005841e+00	2.463956e-02	2.463956e-02
2.000000e+00	2.333334e+00	9.633192e-01	2.449917e-02	2.449917e-02
2.333333e+00	2.666667e+00	1.000000e+00	2.693293e-02	2.693293e-02
2.666666e+00	3.000000e+00	1.035344e+00	3.070830e-02	3.070830e-02
3.000000e+00	3.333334e+00	9.727666e-01	3.056397e-02	3.056397e-02
3.333333e+00	3.666667e+00	9.716057e-01	3.459325e-02	3.459325e-02
3.666666e+00	4.000000e+00	9.433636e-01	3.943608e-02	3.943608e-02
4.000000e+00	4.333334e+00	9.747692e-01	4.836004e-02	4.836004e-02
4.333333e+00	4.666667e+00	1.003626e+00	5.852525e-02	5.852525e-02
4.666666e+00	5.000000e+00	1.008929e+00	7.535784e-02	7.535784e-02
# END HISTO1D

