# BEGIN PLOT
Legend=1
LogY=1
DrawOnly=//afs/cern.ch/user/z/zhijun/genValidation/LNu_NLO_1j_NoMu_v2/merged.yoda/MC_WINC:ENERGY=13600/lepton_dsigplus_deta //afs/cern.ch/user/z/zhijun/genValidation/old_v3/LNu_NLO_1j_NoMu_v3/merged.yoda/MC_WINC:ENERGY=13600/lepton_dsigplus_deta //afs/cern.ch/user/z/zhijun/genValidation/LNu_NLO_1j_NoMu_v3/merged.yoda/MC_WINC:ENERGY=13600/lepton_dsigplus_deta
LegendOnly=//afs/cern.ch/user/z/zhijun/genValidation/LNu_NLO_1j_NoMu_v2/merged.yoda/MC_WINC:ENERGY=13600/lepton_dsigplus_deta //afs/cern.ch/user/z/zhijun/genValidation/old_v3/LNu_NLO_1j_NoMu_v3/merged.yoda/MC_WINC:ENERGY=13600/lepton_dsigplus_deta //afs/cern.ch/user/z/zhijun/genValidation/LNu_NLO_1j_NoMu_v3/merged.yoda/MC_WINC:ENERGY=13600/lepton_dsigplus_deta
RatioPlot=1
RatioPlotReference=//afs/cern.ch/user/z/zhijun/genValidation/LNu_NLO_1j_NoMu_v2/merged.yoda/MC_WINC:ENERGY=13600/lepton_dsigplus_deta
RatioPlotYLabel=Ratio
# END PLOT

# BEGIN HISTO1D //afs/cern.ch/user/z/zhijun/genValidation/LNu_NLO_1j_NoMu_v2/merged.yoda/MC_WINC:ENERGY=13600/lepton_dsigplus_deta
ErrorBars=1
LineColor=red
LineStyle=solid
Path=//afs/cern.ch/user/z/zhijun/genValidation/LNu_NLO_1j_NoMu_v2/merged.yoda/MC_WINC:ENERGY=13600/lepton_dsigplus_deta
ScaledBy=1.00000000000000000e+00
Title=LNu_NLO_1j(v2_9_18)
# xlow	 xhigh	 val	 errminus	 errplus
0.000000e+00	2.000000e-01	8.625060e+08	2.424371e+07	2.424371e+07
2.000000e-01	4.000000e-01	9.339505e+08	2.435338e+07	2.435338e+07
4.000000e-01	6.000000e-01	9.430020e+08	2.443906e+07	2.443906e+07
6.000000e-01	8.000000e-01	8.851355e+08	2.415733e+07	2.415733e+07
8.000000e-01	1.000000e+00	9.126140e+08	2.436625e+07	2.436625e+07
1.000000e+00	1.200000e+00	8.773770e+08	2.437697e+07	2.437697e+07
1.200000e+00	1.400000e+00	8.770535e+08	2.399891e+07	2.399891e+07
1.400000e+00	1.600000e+00	8.628290e+08	2.418976e+07	2.418976e+07
1.600000e+00	1.800000e+00	8.722045e+08	2.423077e+07	2.423077e+07
1.800000e+00	2.000000e+00	8.146610e+08	2.398802e+07	2.398802e+07
2.000000e+00	2.200000e+00	8.259755e+08	2.384162e+07	2.384162e+07
2.200000e+00	2.400000e+00	8.398765e+08	2.368550e+07	2.368550e+07
2.400000e+00	2.600000e+00	8.007600e+08	2.334104e+07	2.334104e+07
2.600000e+00	2.800000e+00	7.726345e+08	2.279054e+07	2.279054e+07
2.800000e+00	3.000000e+00	6.656295e+08	2.191387e+07	2.191387e+07
3.000000e+00	3.200000e+00	6.187545e+08	2.064935e+07	2.064935e+07
3.200000e+00	3.400000e+00	5.062535e+08	1.918540e+07	1.918540e+07
3.400000e+00	3.600000e+00	2.269412e+08	1.255385e+07	1.255385e+07
3.600000e+00	3.800000e+00	0.000000e+00	0.000000e+00	0.000000e+00
3.800000e+00	4.000000e+00	0.000000e+00	0.000000e+00	0.000000e+00
# END HISTO1D


# BEGIN HISTO1D //afs/cern.ch/user/z/zhijun/genValidation/old_v3/LNu_NLO_1j_NoMu_v3/merged.yoda/MC_WINC:ENERGY=13600/lepton_dsigplus_deta
ErrorBars=1
LineColor=blue
LineStyle=solid
Path=//afs/cern.ch/user/z/zhijun/genValidation/old_v3/LNu_NLO_1j_NoMu_v3/merged.yoda/MC_WINC:ENERGY=13600/lepton_dsigplus_deta
ScaledBy=1.00000000000000000e+00
Title=LNu_NLO_1j(v3_5_2)
# xlow	 xhigh	 val	 errminus	 errplus
0.000000e+00	2.000000e-01	8.510205e+08	2.232294e+07	2.232294e+07
2.000000e-01	4.000000e-01	8.941715e+08	2.248151e+07	2.248151e+07
4.000000e-01	6.000000e-01	8.641660e+08	2.252324e+07	2.252324e+07
6.000000e-01	8.000000e-01	8.924570e+08	2.239416e+07	2.239416e+07
8.000000e-01	1.000000e+00	9.104605e+08	2.265700e+07	2.265700e+07
1.000000e+00	1.200000e+00	8.804545e+08	2.253593e+07	2.253593e+07
1.200000e+00	1.400000e+00	8.661660e+08	2.252143e+07	2.252143e+07
1.400000e+00	1.600000e+00	8.535925e+08	2.247788e+07	2.247788e+07
1.600000e+00	1.800000e+00	8.390180e+08	2.253775e+07	2.253775e+07
1.800000e+00	2.000000e+00	8.687380e+08	2.259203e+07	2.259203e+07
2.000000e+00	2.200000e+00	8.052975e+08	2.196150e+07	2.196150e+07
2.200000e+00	2.400000e+00	8.361605e+08	2.187581e+07	2.187581e+07
2.400000e+00	2.600000e+00	7.518585e+08	2.159212e+07	2.159212e+07
2.600000e+00	2.800000e+00	7.244245e+08	2.111019e+07	2.111019e+07
2.800000e+00	3.000000e+00	6.666995e+08	2.025738e+07	2.025738e+07
3.000000e+00	3.200000e+00	6.246915e+08	1.935650e+07	1.935650e+07
3.200000e+00	3.400000e+00	5.258150e+08	1.787371e+07	1.787371e+07
3.400000e+00	3.600000e+00	2.374741e+08	1.172350e+07	1.172350e+07
3.600000e+00	3.800000e+00	0.000000e+00	0.000000e+00	0.000000e+00
3.800000e+00	4.000000e+00	0.000000e+00	0.000000e+00	0.000000e+00
# END HISTO1D


# BEGIN HISTO1D //afs/cern.ch/user/z/zhijun/genValidation/LNu_NLO_1j_NoMu_v3/merged.yoda/MC_WINC:ENERGY=13600/lepton_dsigplus_deta
ErrorBars=1
LineColor=green
LineStyle=solid
Path=//afs/cern.ch/user/z/zhijun/genValidation/LNu_NLO_1j_NoMu_v3/merged.yoda/MC_WINC:ENERGY=13600/lepton_dsigplus_deta
ScaledBy=1.00000000000000000e+00
Title=LNu_NLO_1j(v3_5_6)
# xlow	 xhigh	 val	 errminus	 errplus
0.000000e+00	2.000000e-01	8.516790e+08	2.259796e+07	2.259796e+07
2.000000e-01	4.000000e-01	8.582525e+08	2.241833e+07	2.241833e+07
4.000000e-01	6.000000e-01	8.628255e+08	2.246928e+07	2.246928e+07
6.000000e-01	8.000000e-01	8.456775e+08	2.248019e+07	2.248019e+07
8.000000e-01	1.000000e+00	8.476780e+08	2.221152e+07	2.221152e+07
1.000000e+00	1.200000e+00	8.631110e+08	2.246747e+07	2.246747e+07
1.200000e+00	1.400000e+00	8.388185e+08	2.211755e+07	2.211755e+07
1.400000e+00	1.600000e+00	8.296730e+08	2.254187e+07	2.254187e+07
1.600000e+00	1.800000e+00	8.493930e+08	2.233620e+07	2.233620e+07
1.800000e+00	2.000000e+00	8.436770e+08	2.230327e+07	2.230327e+07
2.000000e+00	2.200000e+00	8.073805e+08	2.213601e+07	2.213601e+07
2.200000e+00	2.400000e+00	7.796580e+08	2.187805e+07	2.187805e+07
2.400000e+00	2.600000e+00	7.559370e+08	2.173384e+07	2.173384e+07
2.600000e+00	2.800000e+00	7.216410e+08	2.105813e+07	2.105813e+07
2.800000e+00	3.000000e+00	6.570505e+08	2.029169e+07	2.029169e+07
3.000000e+00	3.200000e+00	5.907455e+08	1.945320e+07	1.945320e+07
3.200000e+00	3.400000e+00	5.241545e+08	1.765947e+07	1.765947e+07
3.400000e+00	3.600000e+00	2.229227e+08	1.158806e+07	1.158806e+07
3.600000e+00	3.800000e+00	0.000000e+00	0.000000e+00	0.000000e+00
3.800000e+00	4.000000e+00	0.000000e+00	0.000000e+00	0.000000e+00
# END HISTO1D

