# BEGIN PLOT
Legend=1
LogY=1
Title=Rapidity of second jet
XLabel=$y(\mathrm{jet~2})$
YLabel=$\mathrm{d}\sigma/\mathrm{d}y(\mathrm{jet~2})$ [pb]
DrawOnly=//afs/cern.ch/user/z/zhijun/genValidation/LNu_NLO_0j_v2/merged.yoda/MC_WJETS:ENERGY=13600/jet_y_2 //afs/cern.ch/user/z/zhijun/genValidation/old_v3/LNu_NLO_0j_v3/merged.yoda/MC_WJETS:ENERGY=13600/jet_y_2 //afs/cern.ch/user/z/zhijun/genValidation/LNu_NLO_0j_v3/merged.yoda/MC_WJETS:ENERGY=13600/jet_y_2
LegendOnly=//afs/cern.ch/user/z/zhijun/genValidation/LNu_NLO_0j_v2/merged.yoda/MC_WJETS:ENERGY=13600/jet_y_2 //afs/cern.ch/user/z/zhijun/genValidation/old_v3/LNu_NLO_0j_v3/merged.yoda/MC_WJETS:ENERGY=13600/jet_y_2 //afs/cern.ch/user/z/zhijun/genValidation/LNu_NLO_0j_v3/merged.yoda/MC_WJETS:ENERGY=13600/jet_y_2
RatioPlot=1
RatioPlotReference=//afs/cern.ch/user/z/zhijun/genValidation/LNu_NLO_0j_v2/merged.yoda/MC_WJETS:ENERGY=13600/jet_y_2
RatioPlotYLabel=Ratio
# END PLOT

# BEGIN HISTO1D //afs/cern.ch/user/z/zhijun/genValidation/LNu_NLO_0j_v2/merged.yoda/MC_WJETS:ENERGY=13600/jet_y_2
ErrorBars=1
LineColor=red
LineStyle=solid
Path=//afs/cern.ch/user/z/zhijun/genValidation/LNu_NLO_0j_v2/merged.yoda/MC_WJETS:ENERGY=13600/jet_y_2
ScaledBy=9.97914589665909659e-07
Title=LNu_NLO_0j(v2_9_18)
# xlow	 xhigh	 val	 errminus	 errplus
-5.000000e+00	-4.800000e+00	1.134795e+00	1.000796e+00	1.000796e+00
-4.800000e+00	-4.600000e+00	3.026121e+00	1.069896e+00	1.069896e+00
-4.600000e+00	-4.400000e+00	4.917448e+00	1.465015e+00	1.465015e+00
-4.400000e+00	-4.200000e+00	6.808775e+00	1.604843e+00	1.604843e+00
-4.200000e+00	-4.000000e+00	6.430510e+00	1.733429e+00	1.733429e+00
-4.000000e+00	-3.800000e+00	6.808775e+00	1.604843e+00	1.604843e+00
-3.800000e+00	-3.600000e+00	1.248275e+01	2.300898e+00	2.300898e+00
-3.600000e+00	-3.400000e+00	1.096969e+01	2.237847e+00	2.237847e+00
-3.400000e+00	-3.200000e+00	1.702194e+01	2.593256e+00	2.593256e+00
-3.200000e+00	-3.000000e+00	1.550887e+01	2.753812e+00	2.753812e+00
-3.000000e+00	-2.800000e+00	2.193938e+01	2.930030e+00	2.930030e+00
-2.800000e+00	-2.600000e+00	1.891326e+01	2.830678e+00	2.830678e+00
-2.600000e+00	-2.400000e+00	2.269591e+01	3.119255e+00	3.119255e+00
-2.400000e+00	-2.200000e+00	2.307418e+01	3.231900e+00	3.231900e+00
-2.200000e+00	-2.000000e+00	2.269591e+01	3.026122e+00	3.026122e+00
-2.000000e+00	-1.800000e+00	2.231765e+01	3.096234e+00	3.096234e+00
-1.800000e+00	-1.600000e+00	2.572204e+01	3.253961e+00	3.253961e+00
-1.600000e+00	-1.400000e+00	2.496550e+01	3.340748e+00	3.340748e+00
-1.400000e+00	-1.200000e+00	2.988296e+01	3.608420e+00	3.608420e+00
-1.200000e+00	-1.000000e+00	3.101775e+01	3.744635e+00	3.744635e+00
-1.000000e+00	-8.000000e-01	2.950469e+01	3.744635e+00	3.744635e+00
-8.000000e-01	-6.000000e-01	3.555693e+01	3.744635e+00	3.744635e+00
-6.000000e-01	-4.000000e-01	2.647857e+01	3.588539e+00	3.588539e+00
-4.000000e-01	-2.000000e-01	2.761336e+01	3.763692e+00	3.763692e+00
-2.000000e-01	0.000000e+00	2.118285e+01	3.253961e+00	3.253961e+00
0.000000e+00	2.000000e-01	2.610030e+01	3.487433e+00	3.487433e+00
2.000000e-01	4.000000e-01	2.874816e+01	3.588539e+00	3.588539e+00
4.000000e-01	6.000000e-01	2.988296e+01	3.608420e+00	3.608420e+00
6.000000e-01	8.000000e-01	2.420897e+01	3.297640e+00	3.297640e+00
8.000000e-01	1.000000e+00	2.799163e+01	3.588539e+00	3.588539e+00
1.000000e+00	1.200000e+00	2.685683e+01	3.446160e+00	3.446160e+00
1.200000e+00	1.400000e+00	3.026122e+01	3.667418e+00	3.667418e+00
1.400000e+00	1.600000e+00	2.269591e+01	3.340748e+00	3.340748e+00
1.600000e+00	1.800000e+00	2.420898e+01	3.548442e+00	3.548442e+00
1.800000e+00	2.000000e+00	2.685683e+01	3.446160e+00	3.446160e+00
2.000000e+00	2.200000e+00	2.193938e+01	3.383307e+00	3.383307e+00
2.200000e+00	2.400000e+00	2.080459e+01	2.905510e+00	2.905510e+00
2.400000e+00	2.600000e+00	1.550887e+01	2.855840e+00	2.855840e+00
2.600000e+00	2.800000e+00	2.156112e+01	2.905510e+00	2.905510e+00
2.800000e+00	3.000000e+00	1.891326e+01	2.830678e+00	2.830678e+00
3.000000e+00	3.200000e+00	9.834895e+00	2.205646e+00	2.205646e+00
3.200000e+00	3.400000e+00	1.210449e+01	2.392359e+00	2.392359e+00
3.400000e+00	3.600000e+00	1.134795e+01	2.269591e+00	2.269591e+00
3.600000e+00	3.800000e+00	9.834895e+00	2.071844e+00	2.071844e+00
3.800000e+00	4.000000e+00	8.321835e+00	2.071844e+00	2.071844e+00
4.000000e+00	4.200000e+00	4.539183e+00	1.691654e+00	1.691654e+00
4.200000e+00	4.400000e+00	7.565305e+00	1.853114e+00	1.853114e+00
4.400000e+00	4.600000e+00	6.430510e+00	1.733429e+00	1.733429e+00
4.600000e+00	4.800000e+00	3.404387e+00	1.254564e+00	1.254564e+00
4.800000e+00	5.000000e+00	4.539182e+00	1.310349e+00	1.310349e+00
# END HISTO1D


# BEGIN HISTO1D //afs/cern.ch/user/z/zhijun/genValidation/old_v3/LNu_NLO_0j_v3/merged.yoda/MC_WJETS:ENERGY=13600/jet_y_2
ErrorBars=1
LineColor=blue
LineStyle=solid
Path=//afs/cern.ch/user/z/zhijun/genValidation/old_v3/LNu_NLO_0j_v3/merged.yoda/MC_WJETS:ENERGY=13600/jet_y_2
ScaledBy=1.01006287099596851e-06
Title=LNu_NLO_0j(v3_5_2)
# xlow	 xhigh	 val	 errminus	 errplus
-5.000000e+00	-4.800000e+00	3.444871e+00	1.269483e+00	1.269483e+00
-4.800000e+00	-4.600000e+00	1.913817e+00	1.269483e+00	1.269483e+00
-4.600000e+00	-4.400000e+00	2.679345e+00	1.012697e+00	1.012697e+00
-4.400000e+00	-4.200000e+00	6.889745e+00	1.795320e+00	1.795320e+00
-4.200000e+00	-4.000000e+00	8.038035e+00	1.754042e+00	1.754042e+00
-4.000000e+00	-3.800000e+00	9.569090e+00	1.913818e+00	1.913818e+00
-3.800000e+00	-3.600000e+00	8.803560e+00	2.198809e+00	2.198809e+00
-3.600000e+00	-3.400000e+00	1.645883e+01	2.567656e+00	2.567656e+00
-3.400000e+00	-3.200000e+00	9.569090e+00	2.264460e+00	2.264460e+00
-3.200000e+00	-3.000000e+00	1.760712e+01	2.864340e+00	2.864340e+00
-3.000000e+00	-2.800000e+00	1.684159e+01	2.812726e+00	2.812726e+00
-2.800000e+00	-2.600000e+00	1.531054e+01	2.864340e+00	2.864340e+00
-2.600000e+00	-2.400000e+00	2.258305e+01	2.989479e+00	2.989479e+00
-2.400000e+00	-2.200000e+00	1.875542e+01	2.940062e+00	2.940062e+00
-2.200000e+00	-2.000000e+00	2.602792e+01	3.292656e+00	3.292656e+00
-2.000000e+00	-1.800000e+00	2.717621e+01	3.610984e+00	3.610984e+00
-1.800000e+00	-1.600000e+00	2.717621e+01	3.528905e+00	3.528905e+00
-1.600000e+00	-1.400000e+00	2.602792e+01	3.423541e+00	3.423541e+00
-1.400000e+00	-1.200000e+00	2.181752e+01	3.085938e+00	3.085938e+00
-1.200000e+00	-1.000000e+00	3.215214e+01	3.750301e+00	3.750301e+00
-1.000000e+00	-8.000000e-01	2.947280e+01	3.570180e+00	3.570180e+00
-8.000000e-01	-6.000000e-01	2.679345e+01	3.631214e+00	3.631214e+00
-6.000000e-01	-4.000000e-01	3.215214e+01	3.827635e+00	3.827635e+00
-4.000000e-01	-2.000000e-01	2.909003e+01	3.590640e+00	3.590640e+00
-2.000000e-01	0.000000e+00	2.985555e+01	3.789165e+00	3.789165e+00
0.000000e+00	2.000000e-01	3.253490e+01	3.691238e+00	3.691238e+00
2.000000e-01	4.000000e-01	2.985555e+01	3.711030e+00	3.711030e+00
4.000000e-01	6.000000e-01	2.602792e+01	3.466071e+00	3.466071e+00
6.000000e-01	8.000000e-01	2.679345e+01	3.750301e+00	3.750301e+00
8.000000e-01	1.000000e+00	3.062109e+01	3.631214e+00	3.631214e+00
1.000000e+00	1.200000e+00	2.602792e+01	3.466071e+00	3.466071e+00
1.200000e+00	1.400000e+00	3.330043e+01	3.651331e+00	3.651331e+00
1.400000e+00	1.600000e+00	2.258305e+01	3.270333e+00	3.270333e+00
1.600000e+00	1.800000e+00	2.220029e+01	3.062108e+00	3.062108e+00
1.800000e+00	2.000000e+00	2.602792e+01	3.336855e+00	3.336855e+00
2.000000e+00	2.200000e+00	1.875541e+01	2.940062e+00	2.940062e+00
2.200000e+00	2.400000e+00	1.875542e+01	2.989479e+00	2.989479e+00
2.400000e+00	2.600000e+00	2.105199e+01	2.989479e+00	2.989479e+00
2.600000e+00	2.800000e+00	1.684160e+01	2.596029e+00	2.596029e+00
2.800000e+00	3.000000e+00	1.684159e+01	2.812726e+00	2.812726e+00
3.000000e+00	3.200000e+00	1.837265e+01	2.706547e+00	2.706547e+00
3.200000e+00	3.400000e+00	1.454502e+01	2.420809e+00	2.420809e+00
3.400000e+00	3.600000e+00	1.645883e+01	2.679345e+00	2.679345e+00
3.600000e+00	3.800000e+00	1.110015e+01	2.061245e+00	2.061245e+00
3.800000e+00	4.000000e+00	6.124215e+00	1.711770e+00	1.711770e+00
4.000000e+00	4.200000e+00	3.444871e+00	1.269483e+00	1.269483e+00
4.200000e+00	4.400000e+00	8.803560e+00	1.913818e+00	1.913818e+00
4.400000e+00	4.600000e+00	2.679345e+00	1.148291e+00	1.148291e+00
4.600000e+00	4.800000e+00	2.296581e+00	9.375753e-01	9.375753e-01
4.800000e+00	5.000000e+00	3.062108e+00	1.210405e+00	1.210405e+00
# END HISTO1D


# BEGIN HISTO1D //afs/cern.ch/user/z/zhijun/genValidation/LNu_NLO_0j_v3/merged.yoda/MC_WJETS:ENERGY=13600/jet_y_2
ErrorBars=1
LineColor=green
LineStyle=solid
Path=//afs/cern.ch/user/z/zhijun/genValidation/LNu_NLO_0j_v3/merged.yoda/MC_WJETS:ENERGY=13600/jet_y_2
ScaledBy=1.06378427485543912e-06
Title=LNu_NLO_0j(v3_5_6)
# xlow	 xhigh	 val	 errminus	 errplus
-5.000000e+00	-4.800000e+00	1.612482e+00	9.874399e-01	9.874399e-01
-4.800000e+00	-4.600000e+00	3.628086e+00	1.209362e+00	1.209362e+00
-4.600000e+00	-4.400000e+00	3.224966e+00	1.396451e+00	1.396451e+00
-4.400000e+00	-4.200000e+00	4.031207e+00	1.508339e+00	1.508339e+00
-4.200000e+00	-4.000000e+00	5.240570e+00	1.662109e+00	1.662109e+00
-4.000000e+00	-3.800000e+00	1.128738e+01	2.133114e+00	2.133114e+00
-3.800000e+00	-3.600000e+00	9.674895e+00	2.055520e+00	2.055520e+00
-3.600000e+00	-3.400000e+00	1.128738e+01	2.280395e+00	2.280395e+00
-3.400000e+00	-3.200000e+00	1.370611e+01	2.350577e+00	2.350577e+00
-3.200000e+00	-3.000000e+00	1.491546e+01	2.704216e+00	2.704216e+00
-3.000000e+00	-2.800000e+00	1.451234e+01	2.962320e+00	2.962320e+00
-2.800000e+00	-2.600000e+00	1.491547e+01	2.643439e+00	2.643439e+00
-2.600000e+00	-2.400000e+00	1.693107e+01	2.962320e+00	2.962320e+00
-2.400000e+00	-2.200000e+00	2.297788e+01	3.199671e+00	3.199671e+00
-2.200000e+00	-2.000000e+00	1.934979e+01	3.122559e+00	3.122559e+00
-2.000000e+00	-1.800000e+00	2.902469e+01	3.650413e+00	3.650413e+00
-1.800000e+00	-1.600000e+00	3.144342e+01	3.738387e+00	3.738387e+00
-1.600000e+00	-1.400000e+00	2.378412e+01	3.396755e+00	3.396755e+00
-1.400000e+00	-1.200000e+00	2.459037e+01	3.348572e+00	3.348572e+00
-1.200000e+00	-1.000000e+00	2.660597e+01	3.560265e+00	3.560265e+00
-1.000000e+00	-8.000000e-01	2.942782e+01	3.628086e+00	3.628086e+00
-8.000000e-01	-6.000000e-01	2.741221e+01	3.781607e+00	3.781607e+00
-6.000000e-01	-4.000000e-01	2.862157e+01	3.628086e+00	3.628086e+00
-4.000000e-01	-2.000000e-01	3.023405e+01	3.970278e+00	3.970278e+00
-2.000000e-01	0.000000e+00	2.942781e+01	3.672604e+00	3.672604e+00
0.000000e+00	2.000000e-01	3.950583e+01	4.227966e+00	4.227966e+00
2.000000e-01	4.000000e-01	3.144341e+01	3.908400e+00	3.908400e+00
4.000000e-01	6.000000e-01	4.071519e+01	4.208703e+00	4.208703e+00
6.000000e-01	8.000000e-01	3.466838e+01	3.949760e+00	3.949760e+00
8.000000e-01	1.000000e+00	2.862157e+01	3.672604e+00	3.672604e+00
1.000000e+00	1.200000e+00	3.345902e+01	3.887555e+00	3.887555e+00
1.200000e+00	1.400000e+00	2.459037e+01	3.491128e+00	3.491128e+00
1.400000e+00	1.600000e+00	2.378412e+01	3.444265e+00	3.444265e+00
1.600000e+00	1.800000e+00	3.184654e+01	3.803033e+00	3.803033e+00
1.800000e+00	2.000000e+00	2.781533e+01	3.583015e+00	3.583015e+00
2.000000e+00	2.200000e+00	2.338100e+01	3.174175e+00	3.174175e+00
2.200000e+00	2.400000e+00	2.378412e+01	3.348572e+00	3.348572e+00
2.400000e+00	2.600000e+00	2.378412e+01	3.250063e+00	3.250063e+00
2.600000e+00	2.800000e+00	1.693107e+01	3.016679e+00	3.016679e+00
2.800000e+00	3.000000e+00	1.854355e+01	2.906945e+00	2.906945e+00
3.000000e+00	3.200000e+00	1.773731e+01	3.016679e+00	3.016679e+00
3.200000e+00	3.400000e+00	1.531859e+01	2.674000e+00	2.674000e+00
3.400000e+00	3.600000e+00	9.271775e+00	2.244481e+00	2.244481e+00
3.600000e+00	3.800000e+00	1.209362e+01	2.418724e+00	2.418724e+00
3.800000e+00	4.000000e+00	4.434328e+00	1.662109e+00	1.662109e+00
4.000000e+00	4.200000e+00	3.628086e+00	1.337000e+00	1.337000e+00
4.200000e+00	4.400000e+00	6.046810e+00	1.561280e+00	1.561280e+00
4.400000e+00	4.600000e+00	3.224966e+00	1.396451e+00	1.396451e+00
4.600000e+00	4.800000e+00	1.612482e+00	9.874399e-01	9.874399e-01
4.800000e+00	5.000000e+00	2.821845e+00	1.066557e+00	1.066557e+00
# END HISTO1D

