# BEGIN PLOT
Legend=1
LogY=0
Title=$A_4$ for $W^+$
XLabel=$p_\perp(W)$ [GeV]
YLabel=$A_4$
LogX=1
YMin=-1.0
YMax=-0.4
DrawOnly=//afs/cern.ch/user/z/zhijun/genValidation/LNu_LO_1j_v2/merged.yoda/MC_WPOL:ENERGY=13600/A4_wplus //afs/cern.ch/user/z/zhijun/genValidation/LNu_LO_1j_v3/merged.yoda/MC_WPOL:ENERGY=13600/A4_wplus
LegendOnly=//afs/cern.ch/user/z/zhijun/genValidation/LNu_LO_1j_v2/merged.yoda/MC_WPOL:ENERGY=13600/A4_wplus //afs/cern.ch/user/z/zhijun/genValidation/LNu_LO_1j_v3/merged.yoda/MC_WPOL:ENERGY=13600/A4_wplus
RatioPlot=1
RatioPlotReference=//afs/cern.ch/user/z/zhijun/genValidation/LNu_LO_1j_v2/merged.yoda/MC_WPOL:ENERGY=13600/A4_wplus
RatioPlotYLabel=Ratio
# END PLOT

# BEGIN HISTO1D //afs/cern.ch/user/z/zhijun/genValidation/LNu_LO_1j_v2/merged.yoda/MC_WPOL:ENERGY=13600/A4_wplus
ErrorBars=1
LineColor=red
LineStyle=solid
Path=//afs/cern.ch/user/z/zhijun/genValidation/LNu_LO_1j_v2/merged.yoda/MC_WPOL:ENERGY=13600/A4_wplus
Title=LNu_LO_1j(v2_9_18)
# xlow	 xhigh	 val	 errminus	 errplus
1.000000e+00	1.092258e+00	-1.780577e+00	nan	nan
1.092258e+00	1.193027e+00	nan	nan	nan
1.193027e+00	1.303093e+00	-2.968107e+00	2.447049e-02	2.447049e-02
1.303093e+00	1.423313e+00	nan	nan	nan
1.423313e+00	1.554624e+00	-5.255696e-01	nan	nan
1.554624e+00	1.698050e+00	nan	nan	nan
1.698050e+00	1.854708e+00	-1.145360e+00	6.626132e-01	6.626132e-01
1.854708e+00	2.025819e+00	1.567673e+00	9.489533e-01	9.489533e-01
2.025819e+00	2.212717e+00	-4.214439e-01	nan	nan
2.212717e+00	2.416857e+00	-7.968120e-01	1.263696e+00	1.263696e+00
2.416857e+00	2.639830e+00	-5.890523e-01	9.183300e-01	9.183300e-01
2.639830e+00	2.883375e+00	-1.182794e+00	2.522243e-02	2.522243e-02
2.883375e+00	3.149388e+00	1.144252e+00	1.022598e+00	1.022598e+00
3.149388e+00	3.439943e+00	-2.583156e-01	1.009685e+00	1.009685e+00
3.439943e+00	3.757304e+00	-1.513346e+00	8.854497e-01	8.854497e-01
3.757304e+00	4.103944e+00	5.457112e-01	5.923346e-01	5.923346e-01
4.103944e+00	4.482564e+00	-2.028234e+00	5.658863e-01	5.658863e-01
4.482564e+00	4.896115e+00	-1.400558e+00	8.333565e-01	8.333565e-01
4.896115e+00	5.347819e+00	-1.188554e+00	4.548831e-01	4.548831e-01
5.347819e+00	5.841196e+00	1.570060e-01	6.668864e-01	6.668864e-01
5.841196e+00	6.380091e+00	-1.252179e+00	3.661719e-01	3.661719e-01
6.380091e+00	6.968703e+00	-1.069342e+00	4.570963e-01	4.570963e-01
6.968703e+00	7.611619e+00	-5.698734e-01	4.014715e-01	4.014715e-01
7.611619e+00	8.313849e+00	-1.446949e+00	3.630241e-01	3.630241e-01
8.313849e+00	9.080865e+00	-1.181656e+00	2.968262e-01	2.968262e-01
9.080865e+00	9.918644e+00	-6.844234e-01	2.615503e-01	2.615503e-01
9.918644e+00	1.083371e+01	-3.506551e-01	2.519865e-01	2.519865e-01
1.083371e+01	1.183321e+01	-4.131517e-01	2.036236e-01	2.036236e-01
1.183321e+01	1.292491e+01	-5.836501e-01	2.020617e-01	2.020617e-01
1.292491e+01	1.411733e+01	-5.448028e-01	1.886632e-01	1.886632e-01
1.411733e+01	1.541977e+01	-7.652315e-01	1.619108e-01	1.619108e-01
1.541977e+01	1.684236e+01	-5.687266e-01	1.603957e-01	1.603957e-01
1.684236e+01	1.839619e+01	-8.366744e-01	1.298611e-01	1.298611e-01
1.839619e+01	2.009338e+01	-7.918785e-01	1.136410e-01	1.136410e-01
2.009338e+01	2.194715e+01	-8.025729e-01	1.033965e-01	1.033965e-01
2.194715e+01	2.397194e+01	-6.723755e-01	8.878733e-02	8.878733e-02
2.397194e+01	2.618354e+01	-7.047643e-01	7.523210e-02	7.523210e-02
2.618354e+01	2.859917e+01	-6.991523e-01	6.459440e-02	6.459440e-02
2.859917e+01	3.123766e+01	-8.738759e-01	4.946985e-02	4.946985e-02
3.123766e+01	3.411957e+01	-7.063200e-01	4.626170e-02	4.626170e-02
3.411957e+01	3.726736e+01	-6.682011e-01	4.245354e-02	4.245354e-02
3.726736e+01	4.070556e+01	-7.115439e-01	4.122457e-02	4.122457e-02
4.070556e+01	4.446096e+01	-7.562521e-01	4.251796e-02	4.251796e-02
4.446096e+01	4.856282e+01	-6.578689e-01	4.303550e-02	4.303550e-02
4.856282e+01	5.304311e+01	-6.405014e-01	4.525766e-02	4.525766e-02
5.304311e+01	5.793675e+01	-7.001860e-01	4.703224e-02	4.703224e-02
5.793675e+01	6.328185e+01	-6.293670e-01	5.428952e-02	5.428952e-02
6.328185e+01	6.912009e+01	-6.620891e-01	5.925651e-02	5.925651e-02
6.912009e+01	7.549694e+01	-6.185710e-01	6.646295e-02	6.646295e-02
7.549694e+01	8.246211e+01	-6.644575e-01	7.364617e-02	7.364617e-02
8.246211e+01	9.006987e+01	-5.156362e-01	8.657835e-02	8.657835e-02
9.006987e+01	9.837951e+01	-7.236822e-01	1.028840e-01	1.028840e-01
9.837951e+01	1.074558e+02	-5.359533e-01	1.158975e-01	1.158975e-01
1.074558e+02	1.173694e+02	-6.063223e-01	1.342726e-01	1.342726e-01
1.173694e+02	1.281976e+02	-5.858036e-01	1.592181e-01	1.592181e-01
1.281976e+02	1.400248e+02	-8.538172e-01	1.873968e-01	1.873968e-01
1.400248e+02	1.529432e+02	-7.046559e-01	2.183493e-01	2.183493e-01
1.529432e+02	1.670533e+02	-8.100521e-01	2.898712e-01	2.898712e-01
1.670533e+02	1.824653e+02	-2.067824e-01	3.165283e-01	3.165283e-01
1.824653e+02	1.992991e+02	-7.953008e-01	3.298648e-01	3.298648e-01
1.992991e+02	2.176860e+02	-3.387667e-01	5.796036e-01	5.796036e-01
2.176860e+02	2.377692e+02	-5.622630e-01	5.428044e-01	5.428044e-01
2.377692e+02	2.597052e+02	-7.398200e-01	5.144579e-01	5.144579e-01
2.597052e+02	2.836650e+02	-1.420521e+00	7.585185e-01	7.585185e-01
2.836650e+02	3.098352e+02	-3.184730e-01	1.538614e+00	1.538614e+00
3.098352e+02	3.384199e+02	-3.449169e+00	1.449992e-01	1.449992e-01
3.384199e+02	3.696417e+02	nan	nan	nan
3.696417e+02	4.037440e+02	1.413931e+00	nan	nan
4.037440e+02	4.409924e+02	-3.741824e+00	nan	nan
4.409924e+02	4.816774e+02	nan	nan	nan
4.816774e+02	5.261158e+02	nan	nan	nan
5.261158e+02	5.746540e+02	nan	nan	nan
5.746540e+02	6.276702e+02	nan	nan	nan
6.276702e+02	6.855776e+02	nan	nan	nan
6.855776e+02	7.488273e+02	nan	nan	nan
7.488273e+02	8.179124e+02	nan	nan	nan
8.179124e+02	8.933710e+02	nan	nan	nan
8.933710e+02	9.757913e+02	nan	nan	nan
9.757913e+02	1.065816e+03	nan	nan	nan
1.065816e+03	1.164145e+03	nan	nan	nan
1.164145e+03	1.271546e+03	nan	nan	nan
1.271546e+03	1.388856e+03	nan	nan	nan
1.388856e+03	1.516989e+03	nan	nan	nan
1.516989e+03	1.656943e+03	nan	nan	nan
1.656943e+03	1.809808e+03	nan	nan	nan
1.809808e+03	1.976777e+03	nan	nan	nan
1.976777e+03	2.159150e+03	nan	nan	nan
2.159150e+03	2.358348e+03	nan	nan	nan
2.358348e+03	2.575923e+03	nan	nan	nan
2.575923e+03	2.813572e+03	nan	nan	nan
2.813572e+03	3.073145e+03	nan	nan	nan
3.073145e+03	3.356667e+03	nan	nan	nan
3.356667e+03	3.666345e+03	nan	nan	nan
3.666345e+03	4.004593e+03	nan	nan	nan
4.004593e+03	4.374047e+03	nan	nan	nan
4.374047e+03	4.777586e+03	nan	nan	nan
4.777586e+03	5.218355e+03	nan	nan	nan
5.218355e+03	5.699788e+03	nan	nan	nan
5.699788e+03	6.225637e+03	nan	nan	nan
6.225637e+03	6.800000e+03	nan	nan	nan
# END HISTO1D


# BEGIN HISTO1D //afs/cern.ch/user/z/zhijun/genValidation/LNu_LO_1j_v3/merged.yoda/MC_WPOL:ENERGY=13600/A4_wplus
ErrorBars=1
LineColor=blue
LineStyle=solid
Path=//afs/cern.ch/user/z/zhijun/genValidation/LNu_LO_1j_v3/merged.yoda/MC_WPOL:ENERGY=13600/A4_wplus
Title=LNu_LO_1j(v3_5_2)
# xlow	 xhigh	 val	 errminus	 errplus
1.000000e+00	1.092258e+00	nan	nan	nan
1.092258e+00	1.193027e+00	-2.658314e+00	6.617432e-01	6.617432e-01
1.193027e+00	1.303093e+00	nan	nan	nan
1.303093e+00	1.423313e+00	nan	nan	nan
1.423313e+00	1.554624e+00	nan	nan	nan
1.554624e+00	1.698050e+00	nan	nan	nan
1.698050e+00	1.854708e+00	-2.524552e+00	5.562908e-01	5.562908e-01
1.854708e+00	2.025819e+00	-1.925815e-01	2.035775e+00	2.035775e+00
2.025819e+00	2.212717e+00	-2.044227e-01	1.109889e+00	1.109889e+00
2.212717e+00	2.416857e+00	-1.042643e+00	1.159113e+00	1.159113e+00
2.416857e+00	2.639830e+00	-1.277421e+00	nan	nan
2.639830e+00	2.883375e+00	-1.754030e+00	6.887874e-01	6.887874e-01
2.883375e+00	3.149388e+00	-2.533019e-01	1.997534e+00	1.997534e+00
3.149388e+00	3.439943e+00	-1.873937e-01	9.739653e-01	9.739653e-01
3.439943e+00	3.757304e+00	-5.079498e-01	1.012424e+00	1.012424e+00
3.757304e+00	4.103944e+00	-2.417146e+00	5.441639e-01	5.441639e-01
4.103944e+00	4.482564e+00	-5.227330e-01	1.148178e+00	1.148178e+00
4.482564e+00	4.896115e+00	-3.979459e-01	6.784144e-01	6.784144e-01
4.896115e+00	5.347819e+00	-1.348647e+00	6.864072e-01	6.864072e-01
5.347819e+00	5.841196e+00	-7.390826e-01	4.712338e-01	4.712338e-01
5.841196e+00	6.380091e+00	-8.917686e-01	3.958811e-01	3.958811e-01
6.380091e+00	6.968703e+00	-5.376393e-01	5.179259e-01	5.179259e-01
6.968703e+00	7.611619e+00	-4.581280e-01	3.335388e-01	3.335388e-01
7.611619e+00	8.313849e+00	-6.727141e-01	4.200696e-01	4.200696e-01
8.313849e+00	9.080865e+00	-7.176936e-01	3.213002e-01	3.213002e-01
9.080865e+00	9.918644e+00	-5.757472e-01	2.697346e-01	2.697346e-01
9.918644e+00	1.083371e+01	-1.290301e+00	2.231407e-01	2.231407e-01
1.083371e+01	1.183321e+01	-1.121840e-01	2.616529e-01	2.616529e-01
1.183321e+01	1.292491e+01	-1.087205e+00	1.970172e-01	1.970172e-01
1.292491e+01	1.411733e+01	-7.082281e-01	1.970581e-01	1.970581e-01
1.411733e+01	1.541977e+01	-5.620605e-01	1.680182e-01	1.680182e-01
1.541977e+01	1.684236e+01	-7.645861e-01	1.357697e-01	1.357697e-01
1.684236e+01	1.839619e+01	-8.124208e-01	1.343118e-01	1.343118e-01
1.839619e+01	2.009338e+01	-7.086065e-01	1.083526e-01	1.083526e-01
2.009338e+01	2.194715e+01	-6.919443e-01	1.002707e-01	1.002707e-01
2.194715e+01	2.397194e+01	-8.879938e-01	8.393846e-02	8.393846e-02
2.397194e+01	2.618354e+01	-6.260809e-01	7.355246e-02	7.355246e-02
2.618354e+01	2.859917e+01	-6.346632e-01	6.182722e-02	6.182722e-02
2.859917e+01	3.123766e+01	-7.202445e-01	5.275193e-02	5.275193e-02
3.123766e+01	3.411957e+01	-7.219109e-01	4.479736e-02	4.479736e-02
3.411957e+01	3.726736e+01	-7.725367e-01	4.313422e-02	4.313422e-02
3.726736e+01	4.070556e+01	-6.781209e-01	4.084971e-02	4.084971e-02
4.070556e+01	4.446096e+01	-7.182071e-01	4.148923e-02	4.148923e-02
4.446096e+01	4.856282e+01	-6.733986e-01	4.218913e-02	4.218913e-02
4.856282e+01	5.304311e+01	-6.329870e-01	4.671308e-02	4.671308e-02
5.304311e+01	5.793675e+01	-6.681931e-01	4.894416e-02	4.894416e-02
5.793675e+01	6.328185e+01	-6.360217e-01	5.275613e-02	5.275613e-02
6.328185e+01	6.912009e+01	-7.392419e-01	5.723336e-02	5.723336e-02
6.912009e+01	7.549694e+01	-6.843469e-01	6.864126e-02	6.864126e-02
7.549694e+01	8.246211e+01	-6.263368e-01	7.398845e-02	7.398845e-02
8.246211e+01	9.006987e+01	-5.681395e-01	8.544181e-02	8.544181e-02
9.006987e+01	9.837951e+01	-5.669523e-01	1.026319e-01	1.026319e-01
9.837951e+01	1.074558e+02	-7.531703e-01	1.175374e-01	1.175374e-01
1.074558e+02	1.173694e+02	-5.868866e-01	1.334919e-01	1.334919e-01
1.173694e+02	1.281976e+02	-6.269882e-01	1.610690e-01	1.610690e-01
1.281976e+02	1.400248e+02	-6.218009e-01	1.745310e-01	1.745310e-01
1.400248e+02	1.529432e+02	-9.136236e-01	2.118234e-01	2.118234e-01
1.529432e+02	1.670533e+02	-5.289807e-01	2.934227e-01	2.934227e-01
1.670533e+02	1.824653e+02	-9.483095e-01	3.120695e-01	3.120695e-01
1.824653e+02	1.992991e+02	-7.592491e-01	4.033290e-01	4.033290e-01
1.992991e+02	2.176860e+02	-6.487967e-01	4.052226e-01	4.052226e-01
2.176860e+02	2.377692e+02	-9.236553e-01	5.211788e-01	5.211788e-01
2.377692e+02	2.597052e+02	-2.909111e+00	3.910574e-01	3.910574e-01
2.597052e+02	2.836650e+02	5.213477e-01	1.230920e+00	1.230920e+00
2.836650e+02	3.098352e+02	-1.036520e+00	8.019425e-01	8.019425e-01
3.098352e+02	3.384199e+02	-2.871751e+00	6.297016e-01	6.297016e-01
3.384199e+02	3.696417e+02	9.216645e-01	1.578283e+00	1.578283e+00
3.696417e+02	4.037440e+02	4.764567e-01	4.075180e-01	4.075180e-01
4.037440e+02	4.409924e+02	nan	nan	nan
4.409924e+02	4.816774e+02	nan	nan	nan
4.816774e+02	5.261158e+02	nan	nan	nan
5.261158e+02	5.746540e+02	nan	nan	nan
5.746540e+02	6.276702e+02	nan	nan	nan
6.276702e+02	6.855776e+02	nan	nan	nan
6.855776e+02	7.488273e+02	nan	nan	nan
7.488273e+02	8.179124e+02	nan	nan	nan
8.179124e+02	8.933710e+02	nan	nan	nan
8.933710e+02	9.757913e+02	nan	nan	nan
9.757913e+02	1.065816e+03	nan	nan	nan
1.065816e+03	1.164145e+03	nan	nan	nan
1.164145e+03	1.271546e+03	nan	nan	nan
1.271546e+03	1.388856e+03	nan	nan	nan
1.388856e+03	1.516989e+03	nan	nan	nan
1.516989e+03	1.656943e+03	nan	nan	nan
1.656943e+03	1.809808e+03	nan	nan	nan
1.809808e+03	1.976777e+03	nan	nan	nan
1.976777e+03	2.159150e+03	nan	nan	nan
2.159150e+03	2.358348e+03	nan	nan	nan
2.358348e+03	2.575923e+03	nan	nan	nan
2.575923e+03	2.813572e+03	nan	nan	nan
2.813572e+03	3.073145e+03	nan	nan	nan
3.073145e+03	3.356667e+03	nan	nan	nan
3.356667e+03	3.666345e+03	nan	nan	nan
3.666345e+03	4.004593e+03	nan	nan	nan
4.004593e+03	4.374047e+03	nan	nan	nan
4.374047e+03	4.777586e+03	nan	nan	nan
4.777586e+03	5.218355e+03	nan	nan	nan
5.218355e+03	5.699788e+03	nan	nan	nan
5.699788e+03	6.225637e+03	nan	nan	nan
6.225637e+03	6.800000e+03	nan	nan	nan
# END HISTO1D

