# BEGIN PLOT
Legend=1
LogY=0
Title=$\phi^*$ inclusive for $W^-$
XLabel=$\phi^*$
YLabel=$\mathrm{d}\sigma/\mathrm{d}\phi^*$ [pb]
LogX=0
DrawOnly=//afs/cern.ch/user/z/zhijun/genValidation/LNu_LO_1j_v2/merged.yoda/MC_WPOL:ENERGY=13600/phistar_wminus //afs/cern.ch/user/z/zhijun/genValidation/LNu_LO_1j_v3/merged.yoda/MC_WPOL:ENERGY=13600/phistar_wminus
LegendOnly=//afs/cern.ch/user/z/zhijun/genValidation/LNu_LO_1j_v2/merged.yoda/MC_WPOL:ENERGY=13600/phistar_wminus //afs/cern.ch/user/z/zhijun/genValidation/LNu_LO_1j_v3/merged.yoda/MC_WPOL:ENERGY=13600/phistar_wminus
RatioPlot=1
RatioPlotReference=//afs/cern.ch/user/z/zhijun/genValidation/LNu_LO_1j_v2/merged.yoda/MC_WPOL:ENERGY=13600/phistar_wminus
RatioPlotYLabel=Ratio
# END PLOT

# BEGIN HISTO1D //afs/cern.ch/user/z/zhijun/genValidation/LNu_LO_1j_v2/merged.yoda/MC_WPOL:ENERGY=13600/phistar_wminus
ErrorBars=1
LineColor=red
LineStyle=solid
Path=//afs/cern.ch/user/z/zhijun/genValidation/LNu_LO_1j_v2/merged.yoda/MC_WPOL:ENERGY=13600/phistar_wminus
ScaledBy=3.72529867212361698e-02
Title=LNu_LO_1j(v2_9_18)
# xlow	 xhigh	 val	 errminus	 errplus
0.000000e+00	4.000000e+00	2.896420e+00	1.642409e-01	1.642409e-01
4.000000e+00	8.000000e+00	3.241010e+00	1.737364e-01	1.737364e-01
8.000000e+00	1.200000e+01	2.747408e+00	1.599603e-01	1.599603e-01
1.200000e+01	1.600000e+01	3.073373e+00	1.691835e-01	1.691835e-01
1.600000e+01	2.000000e+01	2.719467e+00	1.591448e-01	1.591448e-01
2.000000e+01	2.400000e+01	2.849852e+00	1.629153e-01	1.629153e-01
2.400000e+01	2.800000e+01	2.924360e+00	1.650312e-01	1.650312e-01
2.800000e+01	3.200000e+01	2.915045e+00	1.647682e-01	1.647682e-01
3.200000e+01	3.600000e+01	2.849852e+00	1.629153e-01	1.629153e-01
3.600000e+01	4.000000e+01	2.728782e+00	1.594171e-01	1.594171e-01
4.000000e+01	4.400000e+01	2.933673e+00	1.652937e-01	1.652937e-01
4.400000e+01	4.800000e+01	2.570455e+00	1.547233e-01	1.547233e-01
4.800000e+01	5.200000e+01	2.989552e+00	1.668605e-01	1.668605e-01
5.200000e+01	5.600000e+01	2.663588e+00	1.575013e-01	1.575013e-01
5.600000e+01	6.000000e+01	2.458697e+00	1.513223e-01	1.513223e-01
6.000000e+01	6.400000e+01	2.691527e+00	1.583252e-01	1.583252e-01
6.400000e+01	6.800000e+01	2.672903e+00	1.577764e-01	1.577764e-01
6.800000e+01	7.200000e+01	2.728782e+00	1.594171e-01	1.594171e-01
7.200000e+01	7.600000e+01	2.505263e+00	1.527486e-01	1.527486e-01
7.600000e+01	8.000000e+01	2.421444e+00	1.501716e-01	1.501716e-01
8.000000e+01	8.400000e+01	2.533202e+00	1.535980e-01	1.535980e-01
8.400000e+01	8.800000e+01	2.384191e+00	1.490120e-01	1.490120e-01
8.800000e+01	9.200000e+01	2.188613e+00	1.427694e-01	1.427694e-01
9.200000e+01	9.600000e+01	2.468010e+00	1.516087e-01	1.516087e-01
9.600000e+01	1.000000e+02	2.672903e+00	1.577764e-01	1.577764e-01
1.000000e+02	1.040000e+02	2.309685e+00	1.466652e-01	1.466652e-01
1.040000e+02	1.080000e+02	2.607710e+00	1.558404e-01	1.558404e-01
1.080000e+02	1.120000e+02	2.356251e+00	1.481363e-01	1.481363e-01
1.120000e+02	1.160000e+02	2.263119e+00	1.451792e-01	1.451792e-01
1.160000e+02	1.200000e+02	2.533202e+00	1.535980e-01	1.535980e-01
1.200000e+02	1.240000e+02	2.812600e+00	1.618470e-01	1.618470e-01
1.240000e+02	1.280000e+02	2.598395e+00	1.555619e-01	1.555619e-01
1.280000e+02	1.320000e+02	2.486637e+00	1.521797e-01	1.521797e-01
1.320000e+02	1.360000e+02	2.784660e+00	1.610411e-01	1.610411e-01
1.360000e+02	1.400000e+02	2.561142e+00	1.544427e-01	1.544427e-01
1.400000e+02	1.440000e+02	2.710155e+00	1.588721e-01	1.588721e-01
1.440000e+02	1.480000e+02	2.784660e+00	1.610411e-01	1.610411e-01
1.480000e+02	1.520000e+02	2.821912e+00	1.621147e-01	1.621147e-01
1.520000e+02	1.560000e+02	2.905733e+00	1.645047e-01	1.645047e-01
1.560000e+02	1.600000e+02	2.589082e+00	1.552828e-01	1.552828e-01
1.600000e+02	1.640000e+02	2.766035e+00	1.605016e-01	1.605016e-01
1.640000e+02	1.680000e+02	3.241010e+00	1.737364e-01	1.737364e-01
1.680000e+02	1.720000e+02	2.412131e+00	1.498825e-01	1.498825e-01
1.720000e+02	1.760000e+02	2.812600e+00	1.618470e-01	1.618470e-01
1.760000e+02	1.800000e+02	2.831227e+00	1.623820e-01	1.623820e-01
1.800000e+02	1.840000e+02	2.756720e+00	1.602312e-01	1.602312e-01
1.840000e+02	1.880000e+02	2.756720e+00	1.602312e-01	1.602312e-01
1.880000e+02	1.920000e+02	3.129250e+00	1.707146e-01	1.707146e-01
1.920000e+02	1.960000e+02	3.036118e+00	1.681550e-01	1.681550e-01
1.960000e+02	2.000000e+02	2.868480e+00	1.634468e-01	1.634468e-01
2.000000e+02	2.040000e+02	2.533202e+00	1.535980e-01	1.535980e-01
2.040000e+02	2.080000e+02	2.421444e+00	1.501716e-01	1.501716e-01
2.080000e+02	2.120000e+02	2.849852e+00	1.629153e-01	1.629153e-01
2.120000e+02	2.160000e+02	2.915045e+00	1.647682e-01	1.647682e-01
2.160000e+02	2.200000e+02	2.924360e+00	1.650312e-01	1.650312e-01
2.200000e+02	2.240000e+02	2.756720e+00	1.602312e-01	1.602312e-01
2.240000e+02	2.280000e+02	2.523890e+00	1.533154e-01	1.533154e-01
2.280000e+02	2.320000e+02	2.412131e+00	1.498825e-01	1.498825e-01
2.320000e+02	2.360000e+02	2.300372e+00	1.463692e-01	1.463692e-01
2.360000e+02	2.400000e+02	2.533202e+00	1.535980e-01	1.535980e-01
2.400000e+02	2.440000e+02	2.551830e+00	1.541617e-01	1.541617e-01
2.440000e+02	2.480000e+02	2.700842e+00	1.585989e-01	1.585989e-01
2.480000e+02	2.520000e+02	2.123420e+00	1.406269e-01	1.406269e-01
2.520000e+02	2.560000e+02	2.225866e+00	1.439793e-01	1.439793e-01
2.560000e+02	2.600000e+02	2.263119e+00	1.451792e-01	1.451792e-01
2.600000e+02	2.640000e+02	2.374878e+00	1.487206e-01	1.487206e-01
2.640000e+02	2.680000e+02	2.589082e+00	1.552828e-01	1.552828e-01
2.680000e+02	2.720000e+02	2.430757e+00	1.504601e-01	1.504601e-01
2.720000e+02	2.760000e+02	2.533202e+00	1.535980e-01	1.535980e-01
2.760000e+02	2.800000e+02	2.579770e+00	1.550033e-01	1.550033e-01
2.800000e+02	2.840000e+02	2.421444e+00	1.501716e-01	1.501716e-01
2.840000e+02	2.880000e+02	2.328312e+00	1.472554e-01	1.472554e-01
2.880000e+02	2.920000e+02	2.644963e+00	1.569496e-01	1.569496e-01
2.920000e+02	2.960000e+02	2.617023e+00	1.561185e-01	1.561185e-01
2.960000e+02	3.000000e+02	2.495950e+00	1.524644e-01	1.524644e-01
3.000000e+02	3.040000e+02	2.561142e+00	1.544427e-01	1.544427e-01
3.040000e+02	3.080000e+02	2.728782e+00	1.594171e-01	1.594171e-01
3.080000e+02	3.120000e+02	2.533202e+00	1.535980e-01	1.535980e-01
3.120000e+02	3.160000e+02	2.235179e+00	1.442802e-01	1.442802e-01
3.160000e+02	3.200000e+02	2.607710e+00	1.558404e-01	1.558404e-01
3.200000e+02	3.240000e+02	2.849852e+00	1.629153e-01	1.629153e-01
3.240000e+02	3.280000e+02	2.626335e+00	1.563960e-01	1.563960e-01
3.280000e+02	3.320000e+02	2.859167e+00	1.631813e-01	1.631813e-01
3.320000e+02	3.360000e+02	2.952300e+00	1.658177e-01	1.658177e-01
3.360000e+02	3.400000e+02	2.961613e+00	1.660790e-01	1.660790e-01
3.400000e+02	3.440000e+02	2.747408e+00	1.599603e-01	1.599603e-01
3.440000e+02	3.480000e+02	2.589082e+00	1.552828e-01	1.552828e-01
3.480000e+02	3.520000e+02	2.952300e+00	1.658177e-01	1.658177e-01
3.520000e+02	3.560000e+02	3.371395e+00	1.771966e-01	1.771966e-01
3.560000e+02	3.600000e+02	3.073373e+00	1.691835e-01	1.691835e-01
# END HISTO1D


# BEGIN HISTO1D //afs/cern.ch/user/z/zhijun/genValidation/LNu_LO_1j_v3/merged.yoda/MC_WPOL:ENERGY=13600/phistar_wminus
ErrorBars=1
LineColor=blue
LineStyle=solid
Path=//afs/cern.ch/user/z/zhijun/genValidation/LNu_LO_1j_v3/merged.yoda/MC_WPOL:ENERGY=13600/phistar_wminus
ScaledBy=3.72766293670276361e-02
Title=LNu_LO_1j(v3_5_2)
# xlow	 xhigh	 val	 errminus	 errplus
0.000000e+00	4.000000e+00	3.028725e+00	1.680035e-01	1.680035e-01
4.000000e+00	8.000000e+00	3.093960e+00	1.698031e-01	1.698031e-01
8.000000e+00	1.200000e+01	2.888940e+00	1.640807e-01	1.640807e-01
1.200000e+01	1.600000e+01	3.075322e+00	1.692909e-01	1.692909e-01
1.600000e+01	2.000000e+01	3.000767e+00	1.672263e-01	1.672263e-01
2.000000e+01	2.400000e+01	2.665280e+00	1.576013e-01	1.576013e-01
2.400000e+01	2.800000e+01	2.711875e+00	1.589729e-01	1.589729e-01
2.800000e+01	3.200000e+01	2.711875e+00	1.589729e-01	1.589729e-01
3.200000e+01	3.600000e+01	2.823705e+00	1.622176e-01	1.622176e-01
3.600000e+01	4.000000e+01	2.749153e+00	1.600618e-01	1.600618e-01
4.000000e+01	4.400000e+01	2.450938e+00	1.511313e-01	1.511313e-01
4.400000e+01	4.800000e+01	2.516173e+00	1.531294e-01	1.531294e-01
4.800000e+01	5.200000e+01	2.683918e+00	1.581514e-01	1.581514e-01
5.200000e+01	5.600000e+01	2.693237e+00	1.584257e-01	1.584257e-01
5.600000e+01	6.000000e+01	2.544130e+00	1.539778e-01	1.539778e-01
6.000000e+01	6.400000e+01	2.749153e+00	1.600618e-01	1.600618e-01
6.400000e+01	6.800000e+01	2.581408e+00	1.551017e-01	1.551017e-01
6.800000e+01	7.200000e+01	2.329789e+00	1.473488e-01	1.473488e-01
7.200000e+01	7.600000e+01	2.367066e+00	1.485229e-01	1.485229e-01
7.600000e+01	8.000000e+01	2.488215e+00	1.522763e-01	1.522763e-01
8.000000e+01	8.400000e+01	2.572087e+00	1.548215e-01	1.548215e-01
8.400000e+01	8.800000e+01	2.478896e+00	1.519909e-01	1.519909e-01
8.800000e+01	9.200000e+01	2.227279e+00	1.440707e-01	1.440707e-01
9.200000e+01	9.600000e+01	2.385704e+00	1.491065e-01	1.491065e-01
9.600000e+01	1.000000e+02	2.367066e+00	1.485229e-01	1.485229e-01
1.000000e+02	1.040000e+02	2.544130e+00	1.539778e-01	1.539778e-01
1.040000e+02	1.080000e+02	2.432300e+00	1.505556e-01	1.505556e-01
1.080000e+02	1.120000e+02	2.544130e+00	1.539778e-01	1.539778e-01
1.120000e+02	1.160000e+02	2.320470e+00	1.470538e-01	1.470538e-01
1.160000e+02	1.200000e+02	2.721195e+00	1.592458e-01	1.592458e-01
1.200000e+02	1.240000e+02	2.534810e+00	1.536955e-01	1.536955e-01
1.240000e+02	1.280000e+02	2.777110e+00	1.608736e-01	1.608736e-01
1.280000e+02	1.320000e+02	2.618682e+00	1.562175e-01	1.562175e-01
1.320000e+02	1.360000e+02	2.525492e+00	1.534127e-01	1.534127e-01
1.360000e+02	1.400000e+02	2.544130e+00	1.539778e-01	1.539778e-01
1.400000e+02	1.440000e+02	2.637322e+00	1.567725e-01	1.567725e-01
1.440000e+02	1.480000e+02	2.935535e+00	1.653986e-01	1.653986e-01
1.480000e+02	1.520000e+02	2.879620e+00	1.638158e-01	1.638158e-01
1.520000e+02	1.560000e+02	2.497534e+00	1.525612e-01	1.525612e-01
1.560000e+02	1.600000e+02	2.655960e+00	1.573255e-01	1.573255e-01
1.600000e+02	1.640000e+02	2.637322e+00	1.567725e-01	1.567725e-01
1.640000e+02	1.680000e+02	2.879620e+00	1.638158e-01	1.638158e-01
1.680000e+02	1.720000e+02	3.047365e+00	1.685196e-01	1.685196e-01
1.720000e+02	1.760000e+02	2.954172e+00	1.659229e-01	1.659229e-01
1.760000e+02	1.800000e+02	2.982130e+00	1.667062e-01	1.667062e-01
1.800000e+02	1.840000e+02	3.047365e+00	1.685196e-01	1.685196e-01
1.840000e+02	1.880000e+02	2.767790e+00	1.606035e-01	1.606035e-01
1.880000e+02	1.920000e+02	2.907577e+00	1.646091e-01	1.646091e-01
1.920000e+02	1.960000e+02	2.600045e+00	1.556606e-01	1.556606e-01
1.960000e+02	2.000000e+02	2.851663e+00	1.630187e-01	1.630187e-01
2.000000e+02	2.040000e+02	2.870300e+00	1.635505e-01	1.635505e-01
2.040000e+02	2.080000e+02	2.795748e+00	1.614125e-01	1.614125e-01
2.080000e+02	2.120000e+02	2.739832e+00	1.597903e-01	1.597903e-01
2.120000e+02	2.160000e+02	2.767790e+00	1.606035e-01	1.606035e-01
2.160000e+02	2.200000e+02	3.028725e+00	1.680035e-01	1.680035e-01
2.200000e+02	2.240000e+02	2.618682e+00	1.562175e-01	1.562175e-01
2.240000e+02	2.280000e+02	3.103280e+00	1.700587e-01	1.700587e-01
2.280000e+02	2.320000e+02	2.590725e+00	1.553814e-01	1.553814e-01
2.320000e+02	2.360000e+02	2.534810e+00	1.536955e-01	1.536955e-01
2.360000e+02	2.400000e+02	2.711875e+00	1.589729e-01	1.589729e-01
2.400000e+02	2.440000e+02	2.367066e+00	1.485229e-01	1.485229e-01
2.440000e+02	2.480000e+02	2.497534e+00	1.525612e-01	1.525612e-01
2.480000e+02	2.520000e+02	2.553450e+00	1.542595e-01	1.542595e-01
2.520000e+02	2.560000e+02	2.497534e+00	1.525612e-01	1.525612e-01
2.560000e+02	2.600000e+02	2.264555e+00	1.452713e-01	1.452713e-01
2.600000e+02	2.640000e+02	2.581408e+00	1.551017e-01	1.551017e-01
2.640000e+02	2.680000e+02	2.320470e+00	1.470538e-01	1.470538e-01
2.680000e+02	2.720000e+02	2.329789e+00	1.473488e-01	1.473488e-01
2.720000e+02	2.760000e+02	2.311151e+00	1.467582e-01	1.467582e-01
2.760000e+02	2.800000e+02	2.637322e+00	1.567725e-01	1.567725e-01
2.800000e+02	2.840000e+02	2.376385e+00	1.488150e-01	1.488150e-01
2.840000e+02	2.880000e+02	2.255236e+00	1.449721e-01	1.449721e-01
2.880000e+02	2.920000e+02	2.441619e+00	1.508437e-01	1.508437e-01
2.920000e+02	2.960000e+02	2.450938e+00	1.511313e-01	1.511313e-01
2.960000e+02	3.000000e+02	2.655960e+00	1.573255e-01	1.573255e-01
3.000000e+02	3.040000e+02	2.860982e+00	1.632848e-01	1.632848e-01
3.040000e+02	3.080000e+02	2.590725e+00	1.553814e-01	1.553814e-01
3.080000e+02	3.120000e+02	2.674597e+00	1.578765e-01	1.578765e-01
3.120000e+02	3.160000e+02	2.525492e+00	1.534127e-01	1.534127e-01
3.160000e+02	3.200000e+02	2.805067e+00	1.616813e-01	1.616813e-01
3.200000e+02	3.240000e+02	2.711875e+00	1.589729e-01	1.589729e-01
3.240000e+02	3.280000e+02	2.590725e+00	1.553814e-01	1.553814e-01
3.280000e+02	3.320000e+02	2.730513e+00	1.595183e-01	1.595183e-01
3.320000e+02	3.360000e+02	2.935535e+00	1.653986e-01	1.653986e-01
3.360000e+02	3.400000e+02	3.084640e+00	1.695472e-01	1.695472e-01
3.400000e+02	3.440000e+02	2.777110e+00	1.608736e-01	1.608736e-01
3.440000e+02	3.480000e+02	3.093960e+00	1.698031e-01	1.698031e-01
3.480000e+02	3.520000e+02	2.814385e+00	1.619497e-01	1.619497e-01
3.520000e+02	3.560000e+02	2.870300e+00	1.635505e-01	1.635505e-01
3.560000e+02	3.600000e+02	3.103280e+00	1.700587e-01	1.700587e-01
# END HISTO1D

