# BEGIN PLOT
Legend=1
LogY=1
Title=Pseudorapidity of second electron
XLabel=$\eta(\mathrm{e2})$
YLabel=$\mathrm{d}\sigma/\mathrm{d}\eta(\mathrm{e2})$ [pb]
LegendYPos=0.5
LegendXPos=0.30
DrawOnly=//afs/cern.ch/user/z/zhijun/genValidation/LNu_LO_2j_v2/merged.yoda/MC_ELECTRONS:ENERGY=13600/electron_eta_2 //afs/cern.ch/user/z/zhijun/genValidation/old_v3/LNu_LO_2j_v3/merged.yoda/MC_ELECTRONS:ENERGY=13600/electron_eta_2 //afs/cern.ch/user/z/zhijun/genValidation/LNu_LO_2j_v3/merged.yoda/MC_ELECTRONS:ENERGY=13600/electron_eta_2
LegendOnly=//afs/cern.ch/user/z/zhijun/genValidation/LNu_LO_2j_v2/merged.yoda/MC_ELECTRONS:ENERGY=13600/electron_eta_2 //afs/cern.ch/user/z/zhijun/genValidation/old_v3/LNu_LO_2j_v3/merged.yoda/MC_ELECTRONS:ENERGY=13600/electron_eta_2 //afs/cern.ch/user/z/zhijun/genValidation/LNu_LO_2j_v3/merged.yoda/MC_ELECTRONS:ENERGY=13600/electron_eta_2
RatioPlot=1
RatioPlotReference=//afs/cern.ch/user/z/zhijun/genValidation/LNu_LO_2j_v2/merged.yoda/MC_ELECTRONS:ENERGY=13600/electron_eta_2
RatioPlotYLabel=Ratio
# END PLOT

# BEGIN HISTO1D //afs/cern.ch/user/z/zhijun/genValidation/LNu_LO_2j_v2/merged.yoda/MC_ELECTRONS:ENERGY=13600/electron_eta_2
ErrorBars=1
LineColor=red
LineStyle=solid
Path=//afs/cern.ch/user/z/zhijun/genValidation/LNu_LO_2j_v2/merged.yoda/MC_ELECTRONS:ENERGY=13600/electron_eta_2
ScaledBy=2.59534930231143102e-02
Title=LNu_LO_2j(v2_9_18)
# xlow	 xhigh	 val	 errminus	 errplus
-5.000000e+00	-4.800000e+00	1.440419e+01	1.367185e+00	1.367185e+00
-4.800000e+00	-4.600000e+00	1.557209e+01	1.421531e+00	1.421531e+00
-4.600000e+00	-4.400000e+00	1.479349e+01	1.385537e+00	1.385537e+00
-4.400000e+00	-4.200000e+00	2.063302e+01	1.636305e+00	1.636305e+00
-4.200000e+00	-4.000000e+00	2.063302e+01	1.636305e+00	1.636305e+00
-4.000000e+00	-3.800000e+00	2.725117e+01	1.880509e+00	1.880509e+00
-3.800000e+00	-3.600000e+00	2.673210e+01	1.862514e+00	1.862514e+00
-3.600000e+00	-3.400000e+00	3.127396e+01	2.014533e+00	2.014533e+00
-3.400000e+00	-3.200000e+00	3.166326e+01	2.027032e+00	2.027032e+00
-3.200000e+00	-3.000000e+00	3.166326e+01	2.027032e+00	2.027032e+00
-3.000000e+00	-2.800000e+00	3.854093e+01	2.236372e+00	2.236372e+00
-2.800000e+00	-2.600000e+00	4.191489e+01	2.332207e+00	2.332207e+00
-2.600000e+00	-2.400000e+00	5.034980e+01	2.556123e+00	2.556123e+00
-2.400000e+00	-2.200000e+00	4.360187e+01	2.378677e+00	2.378677e+00
-2.200000e+00	-2.000000e+00	4.593768e+01	2.441560e+00	2.441560e+00
-2.000000e+00	-1.800000e+00	5.644885e+01	2.706515e+00	2.706515e+00
-1.800000e+00	-1.600000e+00	5.489165e+01	2.668923e+00	2.668923e+00
-1.600000e+00	-1.400000e+00	5.696790e+01	2.718930e+00	2.718930e+00
-1.400000e+00	-1.200000e+00	5.657860e+01	2.709624e+00	2.709624e+00
-1.200000e+00	-1.000000e+00	6.319675e+01	2.863718e+00	2.863718e+00
-1.000000e+00	-8.000000e-01	6.060140e+01	2.804298e+00	2.804298e+00
-8.000000e-01	-6.000000e-01	6.566235e+01	2.919047e+00	2.919047e+00
-6.000000e-01	-4.000000e-01	7.202095e+01	3.057119e+00	3.057119e+00
-4.000000e-01	-2.000000e-01	6.566235e+01	2.919047e+00	2.919047e+00
-2.000000e-01	0.000000e+00	6.734930e+01	2.956307e+00	2.956307e+00
0.000000e+00	2.000000e-01	6.657070e+01	2.939169e+00	2.939169e+00
2.000000e-01	4.000000e-01	6.877675e+01	2.987471e+00	2.987471e+00
4.000000e-01	6.000000e-01	6.112050e+01	2.816283e+00	2.816283e+00
6.000000e-01	8.000000e-01	6.566235e+01	2.919047e+00	2.919047e+00
8.000000e-01	1.000000e+00	6.060140e+01	2.804298e+00	2.804298e+00
1.000000e+00	1.200000e+00	6.527305e+01	2.910381e+00	2.910381e+00
1.200000e+00	1.400000e+00	5.826560e+01	2.749723e+00	2.749723e+00
1.400000e+00	1.600000e+00	5.268560e+01	2.614742e+00	2.614742e+00
1.600000e+00	1.800000e+00	5.631910e+01	2.703402e+00	2.703402e+00
1.800000e+00	2.000000e+00	4.905210e+01	2.522968e+00	2.522968e+00
2.000000e+00	2.200000e+00	5.164745e+01	2.588853e+00	2.588853e+00
2.200000e+00	2.400000e+00	4.619722e+01	2.448447e+00	2.448447e+00
2.400000e+00	2.600000e+00	4.451024e+01	2.403327e+00	2.403327e+00
2.600000e+00	2.800000e+00	4.217443e+01	2.339416e+00	2.339416e+00
2.800000e+00	3.000000e+00	3.594559e+01	2.159761e+00	2.159761e+00
3.000000e+00	3.200000e+00	3.490745e+01	2.128344e+00	2.128344e+00
3.200000e+00	3.400000e+00	3.075489e+01	1.997745e+00	1.997745e+00
3.400000e+00	3.600000e+00	2.984651e+01	1.968021e+00	1.968021e+00
3.600000e+00	3.800000e+00	2.530466e+01	1.812104e+00	1.812104e+00
3.800000e+00	4.000000e+00	2.413675e+01	1.769792e+00	1.769792e+00
4.000000e+00	4.200000e+00	1.842698e+01	1.546358e+00	1.546358e+00
4.200000e+00	4.400000e+00	1.907581e+01	1.573347e+00	1.573347e+00
4.400000e+00	4.600000e+00	1.440419e+01	1.367185e+00	1.367185e+00
4.600000e+00	4.800000e+00	1.336605e+01	1.316996e+00	1.316996e+00
4.800000e+00	5.000000e+00	1.193860e+01	1.244686e+00	1.244686e+00
# END HISTO1D


# BEGIN HISTO1D //afs/cern.ch/user/z/zhijun/genValidation/old_v3/LNu_LO_2j_v3/merged.yoda/MC_ELECTRONS:ENERGY=13600/electron_eta_2
ErrorBars=1
LineColor=blue
LineStyle=solid
Path=//afs/cern.ch/user/z/zhijun/genValidation/old_v3/LNu_LO_2j_v3/merged.yoda/MC_ELECTRONS:ENERGY=13600/electron_eta_2
ScaledBy=2.59473227962288451e-02
Title=LNu_LO_2j(v3_5_2)
# xlow	 xhigh	 val	 errminus	 errplus
-5.000000e+00	-4.800000e+00	1.323313e+01	1.310276e+00	1.310276e+00
-4.800000e+00	-4.600000e+00	1.660628e+01	1.467802e+00	1.467802e+00
-4.600000e+00	-4.400000e+00	1.764418e+01	1.512976e+00	1.512976e+00
-4.400000e+00	-4.200000e+00	1.621707e+01	1.450499e+00	1.450499e+00
-4.200000e+00	-4.000000e+00	1.855233e+01	1.551424e+00	1.551424e+00
-4.000000e+00	-3.800000e+00	2.270390e+01	1.716254e+00	1.716254e+00
-3.800000e+00	-3.600000e+00	2.529864e+01	1.811673e+00	1.811673e+00
-3.600000e+00	-3.400000e+00	2.724469e+01	1.880062e+00	1.880062e+00
-3.400000e+00	-3.200000e+00	2.867179e+01	1.928673e+00	1.928673e+00
-3.200000e+00	-3.000000e+00	3.593704e+01	2.159248e+00	2.159248e+00
-3.000000e+00	-2.800000e+00	3.995887e+01	2.276868e+00	2.276868e+00
-2.800000e+00	-2.600000e+00	4.099677e+01	2.306249e+00	2.306249e+00
-2.600000e+00	-2.400000e+00	4.255361e+01	2.349630e+00	2.349630e+00
-2.400000e+00	-2.200000e+00	4.385098e+01	2.385179e+00	2.385179e+00
-2.200000e+00	-2.000000e+00	4.592676e+01	2.440980e+00	2.440980e+00
-2.000000e+00	-1.800000e+00	5.630570e+01	2.702760e+00	2.702760e+00
-1.800000e+00	-1.600000e+00	5.799225e+01	2.742940e+00	2.742940e+00
-1.600000e+00	-1.400000e+00	5.332175e+01	2.630168e+00	2.630168e+00
-1.400000e+00	-1.200000e+00	6.279250e+01	2.854206e+00	2.854206e+00
-1.200000e+00	-1.000000e+00	5.941935e+01	2.776485e+00	2.776485e+00
-1.000000e+00	-8.000000e-01	6.110595e+01	2.815613e+00	2.815613e+00
-8.000000e-01	-6.000000e-01	6.201410e+01	2.836459e+00	2.836459e+00
-6.000000e-01	-4.000000e-01	6.720355e+01	2.952755e+00	2.952755e+00
-4.000000e-01	-2.000000e-01	6.551700e+01	2.915468e+00	2.915468e+00
-2.000000e-01	0.000000e+00	6.642515e+01	2.935604e+00	2.935604e+00
0.000000e+00	2.000000e-01	6.370070e+01	2.874771e+00	2.874771e+00
2.000000e-01	4.000000e-01	6.759280e+01	2.961293e+00	2.961293e+00
4.000000e-01	6.000000e-01	6.175465e+01	2.830519e+00	2.830519e+00
6.000000e-01	8.000000e-01	6.603595e+01	2.926992e+00	2.926992e+00
8.000000e-01	1.000000e+00	5.890040e+01	2.764334e+00	2.764334e+00
1.000000e+00	1.200000e+00	6.434935e+01	2.889371e+00	2.889371e+00
1.200000e+00	1.400000e+00	5.838150e+01	2.752129e+00	2.752129e+00
1.400000e+00	1.600000e+00	6.058700e+01	2.803632e+00	2.803632e+00
1.600000e+00	1.800000e+00	5.773280e+01	2.736797e+00	2.736797e+00
1.800000e+00	2.000000e+00	5.150545e+01	2.584984e+00	2.584984e+00
2.000000e+00	2.200000e+00	4.813228e+01	2.498904e+00	2.498904e+00
2.200000e+00	2.400000e+00	4.359150e+01	2.378112e+00	2.378112e+00
2.400000e+00	2.600000e+00	4.190492e+01	2.331652e+00	2.331652e+00
2.600000e+00	2.800000e+00	3.541810e+01	2.143601e+00	2.143601e+00
2.800000e+00	3.000000e+00	3.853177e+01	2.235840e+00	2.235840e+00
3.000000e+00	3.200000e+00	3.282336e+01	2.063587e+00	2.063587e+00
3.200000e+00	3.400000e+00	3.035837e+01	1.984589e+00	1.984589e+00
3.400000e+00	3.600000e+00	2.996916e+01	1.971826e+00	1.971826e+00
3.600000e+00	3.800000e+00	2.309312e+01	1.730902e+00	1.730902e+00
3.800000e+00	4.000000e+00	2.335259e+01	1.740599e+00	1.740599e+00
4.000000e+00	4.200000e+00	1.907128e+01	1.572973e+00	1.572973e+00
4.200000e+00	4.400000e+00	1.712523e+01	1.490560e+00	1.490560e+00
4.400000e+00	4.600000e+00	1.868207e+01	1.556839e+00	1.556839e+00
4.600000e+00	4.800000e+00	1.504944e+01	1.397306e+00	1.397306e+00
4.800000e+00	5.000000e+00	1.154656e+01	1.223933e+00	1.223933e+00
# END HISTO1D


# BEGIN HISTO1D //afs/cern.ch/user/z/zhijun/genValidation/LNu_LO_2j_v3/merged.yoda/MC_ELECTRONS:ENERGY=13600/electron_eta_2
ErrorBars=1
LineColor=green
LineStyle=solid
Path=//afs/cern.ch/user/z/zhijun/genValidation/LNu_LO_2j_v3/merged.yoda/MC_ELECTRONS:ENERGY=13600/electron_eta_2
ScaledBy=2.54802993073796995e-02
Title=LNu_LO_2j(v3_5_6)
# xlow	 xhigh	 val	 errminus	 errplus
-5.000000e+00	-4.800000e+00	1.235794e+01	1.254759e+00	1.254759e+00
-4.800000e+00	-4.600000e+00	1.643479e+01	1.447003e+00	1.447003e+00
-4.600000e+00	-4.400000e+00	1.630739e+01	1.441383e+00	1.441383e+00
-4.400000e+00	-4.200000e+00	1.936502e+01	1.570711e+00	1.570711e+00
-4.200000e+00	-4.000000e+00	2.216786e+01	1.680541e+00	1.680541e+00
-4.000000e+00	-3.800000e+00	2.407888e+01	1.751481e+00	1.751481e+00
-3.800000e+00	-3.600000e+00	2.395148e+01	1.746841e+00	1.746841e+00
-3.600000e+00	-3.400000e+00	2.853793e+01	1.906771e+00	1.906771e+00
-3.400000e+00	-3.200000e+00	2.904754e+01	1.923720e+00	1.923720e+00
-3.200000e+00	-3.000000e+00	2.968455e+01	1.944699e+00	1.944699e+00
-3.000000e+00	-2.800000e+00	3.210517e+01	2.022436e+00	2.022436e+00
-2.800000e+00	-2.600000e+00	3.312439e+01	2.054288e+00	2.054288e+00
-2.600000e+00	-2.400000e+00	4.013147e+01	2.261152e+00	2.261152e+00
-2.400000e+00	-2.200000e+00	4.777556e+01	2.467119e+00	2.467119e+00
-2.200000e+00	-2.000000e+00	4.420832e+01	2.373227e+00	2.373227e+00
-2.000000e+00	-1.800000e+00	5.057840e+01	2.538457e+00	2.538457e+00
-1.800000e+00	-1.600000e+00	4.841257e+01	2.483512e+00	2.483512e+00
-1.600000e+00	-1.400000e+00	5.605665e+01	2.672396e+00	2.672396e+00
-1.400000e+00	-1.200000e+00	5.847730e+01	2.729486e+00	2.729486e+00
-1.200000e+00	-1.000000e+00	5.962390e+01	2.756116e+00	2.756116e+00
-1.000000e+00	-8.000000e-01	5.822250e+01	2.723533e+00	2.723533e+00
-8.000000e-01	-6.000000e-01	6.102530e+01	2.788318e+00	2.788318e+00
-6.000000e-01	-4.000000e-01	6.217195e+01	2.814391e+00	2.814391e+00
-4.000000e-01	-2.000000e-01	6.803240e+01	2.944050e+00	2.944050e+00
-2.000000e-01	0.000000e+00	6.382815e+01	2.851632e+00	2.851632e+00
0.000000e+00	2.000000e-01	6.624880e+01	2.905201e+00	2.905201e+00
2.000000e-01	4.000000e-01	6.612140e+01	2.902406e+00	2.902406e+00
4.000000e-01	6.000000e-01	6.637620e+01	2.907993e+00	2.907993e+00
6.000000e-01	8.000000e-01	6.535695e+01	2.885581e+00	2.885581e+00
8.000000e-01	1.000000e+00	6.293635e+01	2.831640e+00	2.831640e+00
1.000000e+00	1.200000e+00	6.714060e+01	2.924690e+00	2.924690e+00
1.200000e+00	1.400000e+00	5.389085e+01	2.620262e+00	2.620262e+00
1.400000e+00	1.600000e+00	5.363605e+01	2.614060e+00	2.614060e+00
1.600000e+00	1.800000e+00	5.338125e+01	2.607843e+00	2.607843e+00
1.800000e+00	2.000000e+00	5.529225e+01	2.654113e+00	2.654113e+00
2.000000e+00	2.200000e+00	4.510013e+01	2.397045e+00	2.397045e+00
2.200000e+00	2.400000e+00	4.586454e+01	2.417273e+00	2.417273e+00
2.400000e+00	2.600000e+00	4.446312e+01	2.380056e+00	2.380056e+00
2.600000e+00	2.800000e+00	4.038628e+01	2.268319e+00	2.268319e+00
2.800000e+00	3.000000e+00	3.681903e+01	2.165825e+00	2.165825e+00
3.000000e+00	3.200000e+00	3.567242e+01	2.131835e+00	2.131835e+00
3.200000e+00	3.400000e+00	2.713652e+01	1.859363e+00	1.859363e+00
3.400000e+00	3.600000e+00	2.930234e+01	1.932139e+00	1.932139e+00
3.600000e+00	3.800000e+00	2.904754e+01	1.923720e+00	1.923720e+00
3.800000e+00	4.000000e+00	2.063904e+01	1.621556e+00	1.621556e+00
4.000000e+00	4.200000e+00	2.204046e+01	1.675705e+00	1.675705e+00
4.200000e+00	4.400000e+00	1.783621e+01	1.507435e+00	1.507435e+00
4.400000e+00	4.600000e+00	1.770881e+01	1.502042e+00	1.502042e+00
4.600000e+00	4.800000e+00	1.350456e+01	1.311679e+00	1.311679e+00
4.800000e+00	5.000000e+00	1.541558e+01	1.401416e+00	1.401416e+00
# END HISTO1D

