# BEGIN PLOT
Legend=1
LogY=1
Title=Rapidity of first electron
XLabel=$y(\mathrm{e1})$
YLabel=$\mathrm{d}\sigma/\mathrm{d}y(\mathrm{e1})$ [pb]
DrawOnly=//afs/cern.ch/user/z/zhijun/genValidation/LNu_LO_2j_v2/merged.yoda/MC_ELECTRONS:ENERGY=13600/electron_y_1 //afs/cern.ch/user/z/zhijun/genValidation/old_v3/LNu_LO_2j_v3/merged.yoda/MC_ELECTRONS:ENERGY=13600/electron_y_1 //afs/cern.ch/user/z/zhijun/genValidation/LNu_LO_2j_v3/merged.yoda/MC_ELECTRONS:ENERGY=13600/electron_y_1
LegendOnly=//afs/cern.ch/user/z/zhijun/genValidation/LNu_LO_2j_v2/merged.yoda/MC_ELECTRONS:ENERGY=13600/electron_y_1 //afs/cern.ch/user/z/zhijun/genValidation/old_v3/LNu_LO_2j_v3/merged.yoda/MC_ELECTRONS:ENERGY=13600/electron_y_1 //afs/cern.ch/user/z/zhijun/genValidation/LNu_LO_2j_v3/merged.yoda/MC_ELECTRONS:ENERGY=13600/electron_y_1
RatioPlot=1
RatioPlotReference=//afs/cern.ch/user/z/zhijun/genValidation/LNu_LO_2j_v2/merged.yoda/MC_ELECTRONS:ENERGY=13600/electron_y_1
RatioPlotYLabel=Ratio
# END PLOT

# BEGIN HISTO1D //afs/cern.ch/user/z/zhijun/genValidation/LNu_LO_2j_v2/merged.yoda/MC_ELECTRONS:ENERGY=13600/electron_y_1
ErrorBars=1
LineColor=red
LineStyle=solid
Path=//afs/cern.ch/user/z/zhijun/genValidation/LNu_LO_2j_v2/merged.yoda/MC_ELECTRONS:ENERGY=13600/electron_y_1
ScaledBy=2.59534930231143102e-02
Title=LNu_LO_2j(v2_9_18)
# xlow	 xhigh	 val	 errminus	 errplus
-5.000000e+00	-4.800000e+00	2.815954e+01	1.911594e+00	1.911594e+00
-4.800000e+00	-4.600000e+00	2.815954e+01	1.911594e+00	1.911594e+00
-4.600000e+00	-4.400000e+00	3.360978e+01	2.088410e+00	2.088410e+00
-4.400000e+00	-4.200000e+00	4.606745e+01	2.445006e+00	2.445006e+00
-4.200000e+00	-4.000000e+00	5.567025e+01	2.687785e+00	2.687785e+00
-4.000000e+00	-3.800000e+00	7.254000e+01	3.068115e+00	3.068115e+00
-3.800000e+00	-3.600000e+00	7.773070e+01	3.175991e+00	3.175991e+00
-3.600000e+00	-3.400000e+00	9.680655e+01	3.544339e+00	3.544339e+00
-3.400000e+00	-3.200000e+00	1.249661e+02	4.026975e+00	4.026975e+00
-3.200000e+00	-3.000000e+00	1.393702e+02	4.252731e+00	4.252731e+00
-3.000000e+00	-2.800000e+00	1.536447e+02	4.465208e+00	4.465208e+00
-2.800000e+00	-2.600000e+00	1.816745e+02	4.855454e+00	4.855454e+00
-2.600000e+00	-2.400000e+00	1.854377e+02	4.905485e+00	4.905485e+00
-2.400000e+00	-2.200000e+00	2.033456e+02	5.136891e+00	5.136891e+00
-2.200000e+00	-2.000000e+00	2.198261e+02	5.340999e+00	5.340999e+00
-2.000000e+00	-1.800000e+00	2.265740e+02	5.422354e+00	5.422354e+00
-1.800000e+00	-1.600000e+00	2.320243e+02	5.487185e+00	5.487185e+00
-1.600000e+00	-1.400000e+00	2.395507e+02	5.575473e+00	5.575473e+00
-1.400000e+00	-1.200000e+00	2.437033e+02	5.623589e+00	5.623589e+00
-1.200000e+00	-1.000000e+00	2.418866e+02	5.602589e+00	5.602589e+00
-1.000000e+00	-8.000000e-01	2.444819e+02	5.632566e+00	5.632566e+00
-8.000000e-01	-6.000000e-01	2.434437e+02	5.620594e+00	5.620594e+00
-6.000000e-01	-4.000000e-01	2.548633e+02	5.750911e+00	5.750911e+00
-4.000000e-01	-2.000000e-01	2.464284e+02	5.654945e+00	5.654945e+00
-2.000000e-01	0.000000e+00	2.534358e+02	5.734782e+00	5.734782e+00
0.000000e+00	2.000000e-01	2.531763e+02	5.731845e+00	5.731845e+00
2.000000e-01	4.000000e-01	2.523977e+02	5.723024e+00	5.723024e+00
4.000000e-01	6.000000e-01	2.553824e+02	5.756763e+00	5.756763e+00
6.000000e-01	8.000000e-01	2.518786e+02	5.717137e+00	5.717137e+00
8.000000e-01	1.000000e+00	2.439629e+02	5.626584e+00	5.626584e+00
1.000000e+00	1.200000e+00	2.383829e+02	5.561863e+00	5.561863e+00
1.200000e+00	1.400000e+00	2.387722e+02	5.566404e+00	5.566404e+00
1.400000e+00	1.600000e+00	2.364363e+02	5.539111e+00	5.539111e+00
1.600000e+00	1.800000e+00	2.286503e+02	5.447144e+00	5.447144e+00
1.800000e+00	2.000000e+00	2.176201e+02	5.314132e+00	5.314132e+00
2.000000e+00	2.200000e+00	2.085363e+02	5.202040e+00	5.202040e+00
2.200000e+00	2.400000e+00	1.924452e+02	4.997311e+00	4.997311e+00
2.400000e+00	2.600000e+00	1.854377e+02	4.905485e+00	4.905485e+00
2.600000e+00	2.800000e+00	1.728503e+02	4.736068e+00	4.736068e+00
2.800000e+00	3.000000e+00	1.609116e+02	4.569584e+00	4.569584e+00
3.000000e+00	3.200000e+00	1.374237e+02	4.222929e+00	4.222929e+00
3.200000e+00	3.400000e+00	1.205540e+02	3.955248e+00	3.955248e+00
3.400000e+00	3.600000e+00	1.030353e+02	3.656588e+00	3.656588e+00
3.600000e+00	3.800000e+00	9.109675e+01	3.438226e+00	3.438226e+00
3.800000e+00	4.000000e+00	7.604375e+01	3.141338e+00	3.141338e+00
4.000000e+00	4.200000e+00	5.411305e+01	2.649926e+00	2.649926e+00
4.200000e+00	4.400000e+00	4.386140e+01	2.385746e+00	2.385746e+00
4.400000e+00	4.600000e+00	3.348001e+01	2.084374e+00	2.084374e+00
4.600000e+00	4.800000e+00	2.764047e+01	1.893893e+00	1.893893e+00
4.800000e+00	5.000000e+00	2.426651e+01	1.774544e+00	1.774544e+00
# END HISTO1D


# BEGIN HISTO1D //afs/cern.ch/user/z/zhijun/genValidation/old_v3/LNu_LO_2j_v3/merged.yoda/MC_ELECTRONS:ENERGY=13600/electron_y_1
ErrorBars=1
LineColor=blue
LineStyle=solid
Path=//afs/cern.ch/user/z/zhijun/genValidation/old_v3/LNu_LO_2j_v3/merged.yoda/MC_ELECTRONS:ENERGY=13600/electron_y_1
ScaledBy=2.59473227962288451e-02
Title=LNu_LO_2j(v3_5_2)
# xlow	 xhigh	 val	 errminus	 errplus
-5.000000e+00	-4.800000e+00	2.205522e+01	1.691558e+00	1.691558e+00
-4.800000e+00	-4.600000e+00	3.113678e+01	2.009871e+00	2.009871e+00
-4.600000e+00	-4.400000e+00	3.671546e+01	2.182508e+00	2.182508e+00
-4.400000e+00	-4.200000e+00	4.800254e+01	2.495534e+00	2.495534e+00
-4.200000e+00	-4.000000e+00	5.747330e+01	2.730640e+00	2.730640e+00
-4.000000e+00	-3.800000e+00	6.798200e+01	2.969807e+00	2.969807e+00
-3.800000e+00	-3.600000e+00	8.796140e+01	3.378138e+00	3.378138e+00
-3.600000e+00	-3.400000e+00	1.071624e+02	3.728658e+00	3.728658e+00
-3.400000e+00	-3.200000e+00	1.258445e+02	4.040624e+00	4.040624e+00
-3.200000e+00	-3.000000e+00	1.399858e+02	4.261606e+00	4.261606e+00
-3.000000e+00	-2.800000e+00	1.600950e+02	4.557431e+00	4.557431e+00
-2.800000e+00	-2.600000e+00	1.663224e+02	4.645223e+00	4.645223e+00
-2.600000e+00	-2.400000e+00	1.869504e+02	4.924868e+00	4.924868e+00
-2.400000e+00	-2.200000e+00	2.110815e+02	5.233068e+00	5.233068e+00
-2.200000e+00	-2.000000e+00	2.097841e+02	5.216960e+00	5.216960e+00
-2.000000e+00	-1.800000e+00	2.186062e+02	5.325526e+00	5.325526e+00
-1.800000e+00	-1.600000e+00	2.262607e+02	5.417961e+00	5.417961e+00
-1.600000e+00	-1.400000e+00	2.337854e+02	5.507316e+00	5.507316e+00
-1.400000e+00	-1.200000e+00	2.387154e+02	5.565081e+00	5.565081e+00
-1.200000e+00	-1.000000e+00	2.397533e+02	5.577165e+00	5.577165e+00
-1.000000e+00	-8.000000e-01	2.440346e+02	5.626742e+00	5.626742e+00
-8.000000e-01	-6.000000e-01	2.497430e+02	5.692170e+00	5.692170e+00
-6.000000e-01	-4.000000e-01	2.588246e+02	5.794741e+00	5.794741e+00
-4.000000e-01	-2.000000e-01	2.551919e+02	5.753931e+00	5.753931e+00
-2.000000e-01	0.000000e+00	2.474077e+02	5.665496e+00	5.665496e+00
0.000000e+00	2.000000e-01	2.500024e+02	5.695127e+00	5.695127e+00
2.000000e-01	4.000000e-01	2.474077e+02	5.665496e+00	5.665496e+00
4.000000e-01	6.000000e-01	2.454617e+02	5.643171e+00	5.643171e+00
6.000000e-01	8.000000e-01	2.472780e+02	5.664009e+00	5.664009e+00
8.000000e-01	1.000000e+00	2.423480e+02	5.607263e+00	5.607263e+00
1.000000e+00	1.200000e+00	2.442941e+02	5.629731e+00	5.629731e+00
1.200000e+00	1.400000e+00	2.487051e+02	5.680330e+00	5.680330e+00
1.400000e+00	1.600000e+00	2.352125e+02	5.524099e+00	5.524099e+00
1.600000e+00	1.800000e+00	2.212010e+02	5.357037e+00	5.357037e+00
1.800000e+00	2.000000e+00	2.214604e+02	5.360180e+00	5.360180e+00
2.000000e+00	2.200000e+00	2.099138e+02	5.218573e+00	5.218573e+00
2.200000e+00	2.400000e+00	2.100436e+02	5.220187e+00	5.220187e+00
2.400000e+00	2.600000e+00	1.920102e+02	4.991067e+00	4.991067e+00
2.600000e+00	2.800000e+00	1.751445e+02	4.766828e+00	4.766828e+00
2.800000e+00	3.000000e+00	1.569813e+02	4.512895e+00	4.512895e+00
3.000000e+00	3.200000e+00	1.372613e+02	4.219931e+00	4.219931e+00
3.200000e+00	3.400000e+00	1.227309e+02	3.990324e+00	3.990324e+00
3.400000e+00	3.600000e+00	1.032703e+02	3.660320e+00	3.660320e+00
3.600000e+00	3.800000e+00	8.342065e+01	3.289789e+00	3.289789e+00
3.800000e+00	4.000000e+00	6.590620e+01	2.924115e+00	2.924115e+00
4.000000e+00	4.200000e+00	5.007835e+01	2.548920e+00	2.548920e+00
4.200000e+00	4.400000e+00	4.605650e+01	2.444425e+00	2.444425e+00
4.400000e+00	4.600000e+00	3.632625e+01	2.170909e+00	2.170909e+00
4.600000e+00	4.800000e+00	2.763390e+01	1.893443e+00	1.893443e+00
4.800000e+00	5.000000e+00	2.400127e+01	1.764609e+00	1.764609e+00
# END HISTO1D


# BEGIN HISTO1D //afs/cern.ch/user/z/zhijun/genValidation/LNu_LO_2j_v3/merged.yoda/MC_ELECTRONS:ENERGY=13600/electron_y_1
ErrorBars=1
LineColor=green
LineStyle=solid
Path=//afs/cern.ch/user/z/zhijun/genValidation/LNu_LO_2j_v3/merged.yoda/MC_ELECTRONS:ENERGY=13600/electron_y_1
ScaledBy=2.54802993073796995e-02
Title=LNu_LO_2j(v3_5_6)
# xlow	 xhigh	 val	 errminus	 errplus
-5.000000e+00	-4.800000e+00	2.242266e+01	1.690172e+00	1.690172e+00
-4.800000e+00	-4.600000e+00	3.095856e+01	1.985993e+00	1.985993e+00
-4.600000e+00	-4.400000e+00	4.051368e+01	2.271894e+00	2.271894e+00
-4.400000e+00	-4.200000e+00	4.573713e+01	2.413914e+00	2.413914e+00
-4.200000e+00	-4.000000e+00	5.299900e+01	2.598491e+00	2.598491e+00
-4.000000e+00	-3.800000e+00	6.892420e+01	2.963283e+00	2.963283e+00
-3.800000e+00	-3.600000e+00	8.472200e+01	3.285378e+00	3.285378e+00
-3.600000e+00	-3.400000e+00	9.797175e+01	3.532952e+00	3.532952e+00
-3.400000e+00	-3.200000e+00	1.155532e+02	3.836880e+00	3.836880e+00
-3.200000e+00	-3.000000e+00	1.322427e+02	4.104622e+00	4.104622e+00
-3.000000e+00	-2.800000e+00	1.546654e+02	4.438987e+00	4.438987e+00
-2.800000e+00	-2.600000e+00	1.719920e+02	4.681030e+00	4.681030e+00
-2.600000e+00	-2.400000e+00	1.904652e+02	4.926008e+00	4.926008e+00
-2.400000e+00	-2.200000e+00	1.902105e+02	4.922712e+00	4.922712e+00
-2.200000e+00	-2.000000e+00	2.081740e+02	5.149920e+00	5.149920e+00
-2.000000e+00	-1.800000e+00	2.272843e+02	5.381110e+00	5.381110e+00
-1.800000e+00	-1.600000e+00	2.156908e+02	5.242073e+00	5.242073e+00
-1.600000e+00	-1.400000e+00	2.228252e+02	5.328065e+00	5.328065e+00
-1.400000e+00	-1.200000e+00	2.342914e+02	5.463431e+00	5.463431e+00
-1.200000e+00	-1.000000e+00	2.407889e+02	5.538669e+00	5.538669e+00
-1.000000e+00	-8.000000e-01	2.460123e+02	5.598422e+00	5.598422e+00
-8.000000e-01	-6.000000e-01	2.344187e+02	5.464915e+00	5.464915e+00
-6.000000e-01	-4.000000e-01	2.377312e+02	5.503390e+00	5.503390e+00
-4.000000e-01	-2.000000e-01	2.542934e+02	5.691867e+00	5.691867e+00
-2.000000e-01	0.000000e+00	2.437191e+02	5.572268e+00	5.572268e+00
0.000000e+00	2.000000e-01	2.435916e+02	5.570812e+00	5.570812e+00
2.000000e-01	4.000000e-01	2.384956e+02	5.512232e+00	5.512232e+00
4.000000e-01	6.000000e-01	2.563318e+02	5.714635e+00	5.714635e+00
6.000000e-01	8.000000e-01	2.397696e+02	5.526934e+00	5.526934e+00
8.000000e-01	1.000000e+00	2.438465e+02	5.573724e+00	5.573724e+00
1.000000e+00	1.200000e+00	2.495796e+02	5.638865e+00	5.638865e+00
1.200000e+00	1.400000e+00	2.308515e+02	5.423175e+00	5.423175e+00
1.400000e+00	1.600000e+00	2.322529e+02	5.439612e+00	5.439612e+00
1.600000e+00	1.800000e+00	2.172196e+02	5.260618e+00	5.260618e+00
1.800000e+00	2.000000e+00	2.049890e+02	5.110372e+00	5.110372e+00
2.000000e+00	2.200000e+00	2.049890e+02	5.110372e+00	5.110372e+00
2.200000e+00	2.400000e+00	1.954339e+02	4.989847e+00	4.989847e+00
2.400000e+00	2.600000e+00	1.839677e+02	4.841257e+00	4.841257e+00
2.600000e+00	2.800000e+00	1.648576e+02	4.582914e+00	4.582914e+00
2.800000e+00	3.000000e+00	1.550476e+02	4.444468e+00	4.444468e+00
3.000000e+00	3.200000e+00	1.405238e+02	4.231188e+00	4.231188e+00
3.200000e+00	3.400000e+00	1.166998e+02	3.855869e+00	3.855869e+00
3.400000e+00	3.600000e+00	1.042144e+02	3.643772e+00	3.643772e+00
3.600000e+00	3.800000e+00	8.841665e+01	3.356250e+00	3.356250e+00
3.800000e+00	4.000000e+00	6.357335e+01	2.845934e+00	2.845934e+00
4.000000e+00	4.200000e+00	5.554705e+01	2.660221e+00	2.660221e+00
4.200000e+00	4.400000e+00	3.987667e+01	2.253963e+00	2.253963e+00
4.400000e+00	4.600000e+00	3.363400e+01	2.070030e+00	2.070030e+00
4.600000e+00	4.800000e+00	2.968455e+01	1.944699e+00	1.944699e+00
4.800000e+00	5.000000e+00	2.433368e+01	1.760724e+00	1.760724e+00
# END HISTO1D

